%YAML 1.1
%TAG !u! tag:unity3d.com,2011:
--- !u!114 &-7211217009039435503
MonoBehaviour:
  m_ObjectHideFlags: 1
  m_CorrespondingSourceObject: {fileID: 0}
  m_PrefabInstance: {fileID: 0}
  m_PrefabAsset: {fileID: 0}
  m_GameObject: {fileID: 0}
  m_Enabled: 1
  m_EditorHideFlags: 0
  m_Script: {fileID: 11500000, guid: 840a439e06374673a9115ed02deb5a54, type: 3}
  m_Name: UINode
  m_EditorClassIdentifier: 
  ErrorNodeNameIsEmpty: 0
  ErrorDuplicateNameFoundInGraph: 0
  m_inputSockets:
  - m_connectionMode: 1
    m_connections:
    - m_inputConnectionPoint: {x: -2, y: 4}
      m_outputConnectionPoint: {x: -2, y: 4}
      m_id: 09e73f9d-7257-4d0c-a9b4-7ec0d6f8b58e
      m_inputNodeId: 4220fabf-abae-4284-82c8-53c8a7abd69b
      m_inputSocketId: 9a2f925d-1511-4576-90db-bf561d14c37c
      m_outputNodeId: 1a97c358-3305-4435-9db9-618d5dcbc981
      m_outputSocketId: 31c40770-ed64-45b2-8b1a-8881ac69da85
    - m_inputConnectionPoint: {x: 202, y: 4}
      m_outputConnectionPoint: {x: 202, y: 4}
      m_id: 7d43ac65-1fb1-4751-b7ca-10ac1c2ff0e4
      m_inputNodeId: 4220fabf-abae-4284-82c8-53c8a7abd69b
      m_inputSocketId: 9a2f925d-1511-4576-90db-bf561d14c37c
      m_outputNodeId: 7594afa3-6e73-4429-b2f2-5a22d21b304a
      m_outputSocketId: 203ff965-d0c3-4fe0-a028-10d24fa8daa4
    m_connectionPoints:
    - {x: -2, y: 4}
    - {x: 202, y: 4}
    m_direction: 0
    m_canBeDeleted: 0
    m_canBeReordered: 0
    m_curveModifier: 0
    m_height: 24
    m_width: 216
    m_x: 0
    m_y: 38
    m_id: 9a2f925d-1511-4576-90db-bf561d14c37c
    m_nodeId: 4220fabf-abae-4284-82c8-53c8a7abd69b
    m_socketName: InputSocket_0
    m_value: '{"ButtonCategory":"General","ButtonName":"Unnamed","GameEvent":"","TimeDelay":3.0,"Trigger":0}'
    m_valueTypeQualifiedName: Doozy.Engine.UI.Connections.UIConnection, Assembly-CSharp,
      Version=0.0.0.0, Culture=neutral, PublicKeyToken=null
  m_outputSockets:
  - m_connectionMode: 0
    m_connections: []
    m_connectionPoints:
    - {x: -2, y: 4}
    - {x: 202, y: 4}
    m_direction: 1
    m_canBeDeleted: 1
    m_canBeReordered: 1
    m_curveModifier: 0
    m_height: 24
    m_width: 216
    m_x: 0
    m_y: 62
    m_id: 32229bc8-c2e1-4542-a7ce-b3864e85d521
    m_nodeId: 4220fabf-abae-4284-82c8-53c8a7abd69b
    m_socketName: OutputSocket_0
    m_value: '{"ButtonCategory":"General","ButtonName":"Back","GameEvent":"","TimeDelay":3.0,"Trigger":0}'
    m_valueTypeQualifiedName: Doozy.Engine.UI.Connections.UIConnection, Assembly-CSharp,
      Version=0.0.0.0, Culture=neutral, PublicKeyToken=null
  - m_connectionMode: 0
    m_connections:
    - m_inputConnectionPoint: {x: 202, y: 4}
      m_outputConnectionPoint: {x: 202, y: 4}
      m_id: b37f0e9d-e0b2-4351-bf2f-b79a77665e8f
      m_inputNodeId: 7594afa3-6e73-4429-b2f2-5a22d21b304a
      m_inputSocketId: 89f9f924-bedd-4005-a281-d32b75b7a04a
      m_outputNodeId: 4220fabf-abae-4284-82c8-53c8a7abd69b
      m_outputSocketId: 74dac27f-4090-4182-a1c0-b732be04d8e1
    m_connectionPoints:
    - {x: -2, y: 4}
    - {x: 202, y: 4}
    m_direction: 1
    m_canBeDeleted: 1
    m_canBeReordered: 1
    m_curveModifier: 0
    m_height: 24
    m_width: 216
    m_x: 0
    m_y: 86
    m_id: 74dac27f-4090-4182-a1c0-b732be04d8e1
    m_nodeId: 4220fabf-abae-4284-82c8-53c8a7abd69b
    m_socketName: OutputSocket_1
    m_value: '{"ButtonCategory":"Exergame","ButtonName":"Next","GameEvent":"","TimeDelay":3.0,"Trigger":0}'
    m_valueTypeQualifiedName: Doozy.Engine.UI.Connections.UIConnection, Assembly-CSharp,
      Version=0.0.0.0, Culture=neutral, PublicKeyToken=null
  m_nodeType: 4
  m_allowDuplicateNodeName: 0
  m_allowEmptyNodeName: 0
  m_canBeDeleted: 1
  m_debugMode: 0
  m_useFixedUpdate: 0
  m_useLateUpdate: 0
  m_useUpdate: 0
  m_height: 152
  m_width: 216
  m_x: 172
  m_y: -119.83336
  m_minimumInputSocketsCount: 1
  m_minimumOutputSocketsCount: 1
  m_graphId: bc60ea20-75df-454e-992d-24b26a64fb43
  m_id: 4220fabf-abae-4284-82c8-53c8a7abd69b
  m_name: Start Card
  m_notes: 
  m_onEnterShowViews:
  - Category: Exergame
    InstantAction: 0
    Name: Start Card
  m_onEnterHideViews: []
  m_onExitShowViews: []
  m_onExitHideViews:
  - Category: Exergame
    InstantAction: 0
    Name: Start Card
--- !u!114 &-5792637890344378289
MonoBehaviour:
  m_ObjectHideFlags: 1
  m_CorrespondingSourceObject: {fileID: 0}
  m_PrefabInstance: {fileID: 0}
  m_PrefabAsset: {fileID: 0}
  m_GameObject: {fileID: 0}
  m_Enabled: 1
  m_EditorHideFlags: 0
  m_Script: {fileID: 11500000, guid: 49838f034688f144f945024b91856c5d, type: 3}
  m_Name: SubGraphNode
  m_EditorClassIdentifier: 
  ErrorNodeNameIsEmpty: 0
  ErrorDuplicateNameFoundInGraph: 0
  m_inputSockets:
  - m_connectionMode: 1
    m_connections: []
    m_connectionPoints:
    - {x: -2, y: 4}
    - {x: 202, y: 4}
    m_direction: 0
    m_canBeDeleted: 0
    m_canBeReordered: 0
    m_curveModifier: 0
    m_height: 24
    m_width: 216
    m_x: 0
    m_y: 38
    m_id: 63f48be5-1512-4ca9-9a2f-c1009bd72156
    m_nodeId: d657e0f4-fe25-4466-ae32-8bfc28632c3d
    m_socketName: InputSocket_0
    m_value: '{}'
    m_valueTypeQualifiedName: Doozy.Engine.Nody.Connections.PassthroughConnection,
      Assembly-CSharp, Version=0.0.0.0, Culture=neutral, PublicKeyToken=null
  m_outputSockets:
  - m_connectionMode: 0
    m_connections: []
    m_connectionPoints:
    - {x: -2, y: 4}
    - {x: 202, y: 4}
    m_direction: 1
    m_canBeDeleted: 0
    m_canBeReordered: 0
    m_curveModifier: 0
    m_height: 24
    m_width: 216
    m_x: 0
    m_y: 62
    m_id: fde8d02f-472e-4a11-903b-ed53401cd948
    m_nodeId: d657e0f4-fe25-4466-ae32-8bfc28632c3d
    m_socketName: OutputSocket_0
    m_value: '{}'
    m_valueTypeQualifiedName: Doozy.Engine.Nody.Connections.PassthroughConnection,
      Assembly-CSharp, Version=0.0.0.0, Culture=neutral, PublicKeyToken=null
  m_nodeType: 3
  m_allowDuplicateNodeName: 0
  m_allowEmptyNodeName: 0
  m_canBeDeleted: 1
  m_debugMode: 0
  m_useFixedUpdate: 0
  m_useLateUpdate: 0
  m_useUpdate: 0
  m_height: 104
  m_width: 216
  m_x: -108
  m_y: 384
  m_minimumInputSocketsCount: 1
  m_minimumOutputSocketsCount: 1
  m_graphId: bc60ea20-75df-454e-992d-24b26a64fb43
  m_id: d657e0f4-fe25-4466-ae32-8bfc28632c3d
  m_name: SubGraph
  m_notes: 
  m_subGraph: {fileID: 0}
  ErrorNoGraphReferenced: 1
  ErrorReferencedGraphIsNotSubGraph: 1
--- !u!114 &-2886346920857495415
MonoBehaviour:
  m_ObjectHideFlags: 1
  m_CorrespondingSourceObject: {fileID: 0}
  m_PrefabInstance: {fileID: 0}
  m_PrefabAsset: {fileID: 0}
  m_GameObject: {fileID: 0}
  m_Enabled: 1
  m_EditorHideFlags: 0
  m_Script: {fileID: 11500000, guid: 840a439e06374673a9115ed02deb5a54, type: 3}
  m_Name: UINode
  m_EditorClassIdentifier: 
  ErrorNodeNameIsEmpty: 0
  ErrorDuplicateNameFoundInGraph: 0
  m_inputSockets:
  - m_connectionMode: 1
    m_connections:
    - m_inputConnectionPoint: {x: -2, y: 4}
      m_outputConnectionPoint: {x: 202, y: 4}
      m_id: 4ae5abdb-fd42-48d8-bace-6e69473cd75e
      m_inputNodeId: e8878a45-c513-43b1-a6b9-8207a606ccea
      m_inputSocketId: 7b0347d6-1b36-41d0-a292-3d0458849f5f
      m_outputNodeId: 45a885cf-bf4e-463c-ad23-1e36a3b3e243
      m_outputSocketId: b934ed12-308e-4f41-9eef-ff8434507bd6
    m_connectionPoints:
    - {x: -2, y: 4}
    - {x: 202, y: 4}
    m_direction: 0
    m_canBeDeleted: 0
    m_canBeReordered: 0
    m_curveModifier: 0
    m_height: 24
    m_width: 216
    m_x: 0
    m_y: 38
    m_id: 7b0347d6-1b36-41d0-a292-3d0458849f5f
    m_nodeId: e8878a45-c513-43b1-a6b9-8207a606ccea
    m_socketName: InputSocket_0
    m_value: '{"ButtonCategory":"General","ButtonName":"Unnamed","GameEvent":"","TimeDelay":3.0,"Trigger":0}'
    m_valueTypeQualifiedName: Doozy.Engine.UI.Connections.UIConnection, Assembly-CSharp,
      Version=0.0.0.0, Culture=neutral, PublicKeyToken=null
  m_outputSockets:
  - m_connectionMode: 0
    m_connections:
    - m_inputConnectionPoint: {x: 202, y: 4}
      m_outputConnectionPoint: {x: 202, y: 4}
      m_id: 0615f1db-cdfe-4a55-aed2-02ab211ae13c
      m_inputNodeId: 7594afa3-6e73-4429-b2f2-5a22d21b304a
      m_inputSocketId: 89f9f924-bedd-4005-a281-d32b75b7a04a
      m_outputNodeId: e8878a45-c513-43b1-a6b9-8207a606ccea
      m_outputSocketId: 857527ed-ffd9-49ef-b258-e43f2eed56b8
    m_connectionPoints:
    - {x: -2, y: 4}
    - {x: 202, y: 4}
    m_direction: 1
    m_canBeDeleted: 1
    m_canBeReordered: 1
    m_curveModifier: 0
    m_height: 24
    m_width: 216
    m_x: 0
    m_y: 62
    m_id: 857527ed-ffd9-49ef-b258-e43f2eed56b8
    m_nodeId: e8878a45-c513-43b1-a6b9-8207a606ccea
    m_socketName: OutputSocket_0
    m_value: '{"ButtonCategory":"General","ButtonName":"Back","GameEvent":"","TimeDelay":3.0,"Trigger":0}'
    m_valueTypeQualifiedName: Doozy.Engine.UI.Connections.UIConnection, Assembly-CSharp,
      Version=0.0.0.0, Culture=neutral, PublicKeyToken=null
  - m_connectionMode: 0
    m_connections:
    - m_inputConnectionPoint: {x: 202, y: 4}
      m_outputConnectionPoint: {x: 202, y: 4}
      m_id: 0d91b099-1feb-46e6-9611-ff6e8f5220ef
      m_inputNodeId: af94a443-02fd-4f7d-9c22-b006ba7a107f
      m_inputSocketId: bc2a375a-9fc4-4fc4-9e3b-07da343cf3ae
      m_outputNodeId: e8878a45-c513-43b1-a6b9-8207a606ccea
      m_outputSocketId: 441fac07-7561-4a9e-9247-6ef51f62a17f
    m_connectionPoints:
    - {x: -2, y: 4}
    - {x: 202, y: 4}
    m_direction: 1
    m_canBeDeleted: 1
    m_canBeReordered: 1
    m_curveModifier: 0
    m_height: 24
    m_width: 216
    m_x: 0
    m_y: 86
    m_id: 441fac07-7561-4a9e-9247-6ef51f62a17f
    m_nodeId: e8878a45-c513-43b1-a6b9-8207a606ccea
    m_socketName: OutputSocket_1
    m_value: '{"ButtonCategory":"Exergame","ButtonName":"Next","GameEvent":"","TimeDelay":3.0,"Trigger":0}'
    m_valueTypeQualifiedName: Doozy.Engine.UI.Connections.UIConnection, Assembly-CSharp,
      Version=0.0.0.0, Culture=neutral, PublicKeyToken=null
  m_nodeType: 4
  m_allowDuplicateNodeName: 0
  m_allowEmptyNodeName: 0
  m_canBeDeleted: 1
  m_debugMode: 0
  m_useFixedUpdate: 0
  m_useLateUpdate: 0
  m_useUpdate: 0
  m_height: 152
  m_width: 216
  m_x: 168
  m_y: 348
  m_minimumInputSocketsCount: 1
  m_minimumOutputSocketsCount: 1
  m_graphId: bc60ea20-75df-454e-992d-24b26a64fb43
  m_id: e8878a45-c513-43b1-a6b9-8207a606ccea
  m_name: Login Successful Card
  m_notes: 
  m_onEnterShowViews:
  - Category: Exergame
    InstantAction: 0
    Name: Login Successful Card
  m_onEnterHideViews: []
  m_onExitShowViews: []
  m_onExitHideViews:
  - Category: Exergame
    InstantAction: 0
    Name: Login Successful Card
--- !u!114 &-2530596316077854146
MonoBehaviour:
  m_ObjectHideFlags: 1
  m_CorrespondingSourceObject: {fileID: 0}
  m_PrefabInstance: {fileID: 0}
  m_PrefabAsset: {fileID: 0}
  m_GameObject: {fileID: 0}
  m_Enabled: 1
  m_EditorHideFlags: 0
  m_Script: {fileID: 11500000, guid: 840a439e06374673a9115ed02deb5a54, type: 3}
  m_Name: UINode
  m_EditorClassIdentifier: 
  ErrorNodeNameIsEmpty: 0
  ErrorDuplicateNameFoundInGraph: 0
  m_inputSockets:
  - m_connectionMode: 1
    m_connections:
    - m_inputConnectionPoint: {x: 202, y: 4}
      m_outputConnectionPoint: {x: 202, y: 4}
      m_id: 0d91b099-1feb-46e6-9611-ff6e8f5220ef
      m_inputNodeId: af94a443-02fd-4f7d-9c22-b006ba7a107f
      m_inputSocketId: bc2a375a-9fc4-4fc4-9e3b-07da343cf3ae
      m_outputNodeId: e8878a45-c513-43b1-a6b9-8207a606ccea
      m_outputSocketId: 441fac07-7561-4a9e-9247-6ef51f62a17f
    m_connectionPoints:
    - {x: -2, y: 4}
    - {x: 202, y: 4}
    m_direction: 0
    m_canBeDeleted: 0
    m_canBeReordered: 0
    m_curveModifier: 0
    m_height: 24
    m_width: 216
    m_x: 0
    m_y: 38
    m_id: bc2a375a-9fc4-4fc4-9e3b-07da343cf3ae
    m_nodeId: af94a443-02fd-4f7d-9c22-b006ba7a107f
    m_socketName: InputSocket_0
    m_value: '{"ButtonCategory":"General","ButtonName":"Unnamed","GameEvent":"","TimeDelay":3.0,"Trigger":0}'
    m_valueTypeQualifiedName: Doozy.Engine.UI.Connections.UIConnection, Assembly-CSharp,
      Version=0.0.0.0, Culture=neutral, PublicKeyToken=null
  m_outputSockets:
  - m_connectionMode: 0
    m_connections:
    - m_inputConnectionPoint: {x: 202, y: 4}
      m_outputConnectionPoint: {x: 202, y: 4}
      m_id: 2abc4035-3e7b-4eea-99aa-c6dc0e981ab6
      m_inputNodeId: 7594afa3-6e73-4429-b2f2-5a22d21b304a
      m_inputSocketId: 89f9f924-bedd-4005-a281-d32b75b7a04a
      m_outputNodeId: af94a443-02fd-4f7d-9c22-b006ba7a107f
      m_outputSocketId: d651fee4-c7fb-47a3-801f-348228174841
    m_connectionPoints:
    - {x: -2, y: 4}
    - {x: 202, y: 4}
    m_direction: 1
    m_canBeDeleted: 1
    m_canBeReordered: 1
    m_curveModifier: 0
    m_height: 24
    m_width: 216
    m_x: 0
    m_y: 62
    m_id: d651fee4-c7fb-47a3-801f-348228174841
    m_nodeId: af94a443-02fd-4f7d-9c22-b006ba7a107f
    m_socketName: OutputSocket_0
    m_value: '{"ButtonCategory":"General","ButtonName":"Back","GameEvent":"","TimeDelay":3.0,"Trigger":0}'
    m_valueTypeQualifiedName: Doozy.Engine.UI.Connections.UIConnection, Assembly-CSharp,
      Version=0.0.0.0, Culture=neutral, PublicKeyToken=null
  - m_connectionMode: 0
    m_connections: []
    m_connectionPoints:
    - {x: -2, y: 4}
    - {x: 202, y: 4}
    m_direction: 1
    m_canBeDeleted: 1
    m_canBeReordered: 1
    m_curveModifier: 0
    m_height: 24
    m_width: 216
    m_x: 0
    m_y: 86
    m_id: 6c96894e-f23f-40df-920e-c66ab99713f2
    m_nodeId: af94a443-02fd-4f7d-9c22-b006ba7a107f
    m_socketName: OutputSocket_1
    m_value: '{"ButtonCategory":"Exergame","ButtonName":"Next","GameEvent":"","TimeDelay":3.0,"Trigger":0}'
    m_valueTypeQualifiedName: Doozy.Engine.UI.Connections.UIConnection, Assembly-CSharp,
      Version=0.0.0.0, Culture=neutral, PublicKeyToken=null
  m_nodeType: 4
  m_allowDuplicateNodeName: 0
  m_allowEmptyNodeName: 0
  m_canBeDeleted: 1
  m_debugMode: 0
  m_useFixedUpdate: 0
  m_useLateUpdate: 0
  m_useUpdate: 0
  m_height: 152
  m_width: 216
  m_x: 168
  m_y: 516
  m_minimumInputSocketsCount: 1
  m_minimumOutputSocketsCount: 1
  m_graphId: bc60ea20-75df-454e-992d-24b26a64fb43
  m_id: af94a443-02fd-4f7d-9c22-b006ba7a107f
  m_name: Character Name Card
  m_notes: 
  m_onEnterShowViews:
  - Category: Exergame
    InstantAction: 0
    Name: CharacterName Card
  m_onEnterHideViews: []
  m_onExitShowViews: []
  m_onExitHideViews:
  - Category: Exergame
    InstantAction: 0
    Name: CharacterName Card
--- !u!114 &-1712291607277541633
MonoBehaviour:
  m_ObjectHideFlags: 1
  m_CorrespondingSourceObject: {fileID: 0}
  m_PrefabInstance: {fileID: 0}
  m_PrefabAsset: {fileID: 0}
  m_GameObject: {fileID: 0}
  m_Enabled: 1
  m_EditorHideFlags: 0
  m_Script: {fileID: 11500000, guid: 840a439e06374673a9115ed02deb5a54, type: 3}
  m_Name: UINode
  m_EditorClassIdentifier: 
  ErrorNodeNameIsEmpty: 0
  ErrorDuplicateNameFoundInGraph: 0
  m_inputSockets:
  - m_connectionMode: 1
    m_connections:
    - m_inputConnectionPoint: {x: 202, y: 4}
      m_outputConnectionPoint: {x: -2, y: 4}
      m_id: db685351-5464-4ae4-a7bc-4df122ff93ab
      m_inputNodeId: 45a885cf-bf4e-463c-ad23-1e36a3b3e243
      m_inputSocketId: 0555e13f-7f54-47a0-ae83-70e541b721e0
      m_outputNodeId: 7594afa3-6e73-4429-b2f2-5a22d21b304a
      m_outputSocketId: 1f8e75da-11cd-4d8e-b4ac-eaa3a3dc9493
    m_connectionPoints:
    - {x: -2, y: 4}
    - {x: 202, y: 4}
    m_direction: 0
    m_canBeDeleted: 0
    m_canBeReordered: 0
    m_curveModifier: 0
    m_height: 24
    m_width: 216
    m_x: 0
    m_y: 38
    m_id: 0555e13f-7f54-47a0-ae83-70e541b721e0
    m_nodeId: 45a885cf-bf4e-463c-ad23-1e36a3b3e243
    m_socketName: InputSocket_0
    m_value: '{"ButtonCategory":"General","ButtonName":"Unnamed","GameEvent":"","TimeDelay":3.0,"Trigger":0}'
    m_valueTypeQualifiedName: Doozy.Engine.UI.Connections.UIConnection, Assembly-CSharp,
      Version=0.0.0.0, Culture=neutral, PublicKeyToken=null
  m_outputSockets:
  - m_connectionMode: 0
    m_connections:
    - m_inputConnectionPoint: {x: -2, y: 4}
      m_outputConnectionPoint: {x: 202, y: 4}
      m_id: 8c14c3e1-b608-4f95-a61b-7ee1dad59307
      m_inputNodeId: 7594afa3-6e73-4429-b2f2-5a22d21b304a
      m_inputSocketId: 89f9f924-bedd-4005-a281-d32b75b7a04a
      m_outputNodeId: 45a885cf-bf4e-463c-ad23-1e36a3b3e243
      m_outputSocketId: 867f7228-a6b5-43e7-8431-4b8bd2108d9e
    m_connectionPoints:
    - {x: -2, y: 4}
    - {x: 202, y: 4}
    m_direction: 1
    m_canBeDeleted: 1
    m_canBeReordered: 1
    m_curveModifier: 0
    m_height: 24
    m_width: 216
    m_x: 0
    m_y: 62
    m_id: 867f7228-a6b5-43e7-8431-4b8bd2108d9e
    m_nodeId: 45a885cf-bf4e-463c-ad23-1e36a3b3e243
    m_socketName: OutputSocket_0
    m_value: '{"ButtonCategory":"General","ButtonName":"Back","GameEvent":"","TimeDelay":3.0,"Trigger":0}'
    m_valueTypeQualifiedName: Doozy.Engine.UI.Connections.UIConnection, Assembly-CSharp,
      Version=0.0.0.0, Culture=neutral, PublicKeyToken=null
  - m_connectionMode: 0
    m_connections:
    - m_inputConnectionPoint: {x: -2, y: 4}
      m_outputConnectionPoint: {x: 202, y: 4}
      m_id: 4ae5abdb-fd42-48d8-bace-6e69473cd75e
      m_inputNodeId: e8878a45-c513-43b1-a6b9-8207a606ccea
      m_inputSocketId: 7b0347d6-1b36-41d0-a292-3d0458849f5f
      m_outputNodeId: 45a885cf-bf4e-463c-ad23-1e36a3b3e243
      m_outputSocketId: b934ed12-308e-4f41-9eef-ff8434507bd6
    m_connectionPoints:
    - {x: -2, y: 4}
    - {x: 202, y: 4}
    m_direction: 1
    m_canBeDeleted: 1
    m_canBeReordered: 1
    m_curveModifier: 0
    m_height: 24
    m_width: 216
    m_x: 0
    m_y: 86
    m_id: b934ed12-308e-4f41-9eef-ff8434507bd6
    m_nodeId: 45a885cf-bf4e-463c-ad23-1e36a3b3e243
    m_socketName: OutputSocket_1
    m_value: '{"ButtonCategory":"General","ButtonName":"Unnamed","GameEvent":"","TimeDelay":3.0,"Trigger":4}'
    m_valueTypeQualifiedName: Doozy.Engine.UI.Connections.UIConnection, Assembly-CSharp,
      Version=0.0.0.0, Culture=neutral, PublicKeyToken=null
  m_nodeType: 4
  m_allowDuplicateNodeName: 0
  m_allowEmptyNodeName: 0
  m_canBeDeleted: 1
  m_debugMode: 0
  m_useFixedUpdate: 0
  m_useLateUpdate: 0
  m_useUpdate: 1
  m_height: 152
  m_width: 216
  m_x: -348
  m_y: 228
  m_minimumInputSocketsCount: 1
  m_minimumOutputSocketsCount: 1
  m_graphId: bc60ea20-75df-454e-992d-24b26a64fb43
  m_id: 45a885cf-bf4e-463c-ad23-1e36a3b3e243
  m_name: Loader
  m_notes: 
  m_onEnterShowViews:
  - Category: Exergame
    InstantAction: 0
    Name: Loader
  m_onEnterHideViews: []
  m_onExitShowViews: []
  m_onExitHideViews:
  - Category: Exergame
    InstantAction: 0
    Name: Loader
--- !u!114 &-1671015641341630440
MonoBehaviour:
  m_ObjectHideFlags: 1
  m_CorrespondingSourceObject: {fileID: 0}
  m_PrefabInstance: {fileID: 0}
  m_PrefabAsset: {fileID: 0}
  m_GameObject: {fileID: 0}
  m_Enabled: 1
  m_EditorHideFlags: 0
  m_Script: {fileID: 11500000, guid: 840a439e06374673a9115ed02deb5a54, type: 3}
  m_Name: UINode
  m_EditorClassIdentifier: 
  ErrorNodeNameIsEmpty: 0
  ErrorDuplicateNameFoundInGraph: 0
  m_inputSockets:
  - m_connectionMode: 1
    m_connections:
    - m_inputConnectionPoint: {x: 202, y: 4}
      m_outputConnectionPoint: {x: 202, y: 4}
      m_id: b37f0e9d-e0b2-4351-bf2f-b79a77665e8f
      m_inputNodeId: 7594afa3-6e73-4429-b2f2-5a22d21b304a
      m_inputSocketId: 89f9f924-bedd-4005-a281-d32b75b7a04a
      m_outputNodeId: 4220fabf-abae-4284-82c8-53c8a7abd69b
      m_outputSocketId: 74dac27f-4090-4182-a1c0-b732be04d8e1
    - m_inputConnectionPoint: {x: 202, y: 4}
      m_outputConnectionPoint: {x: 202, y: 4}
      m_id: 0615f1db-cdfe-4a55-aed2-02ab211ae13c
      m_inputNodeId: 7594afa3-6e73-4429-b2f2-5a22d21b304a
      m_inputSocketId: 89f9f924-bedd-4005-a281-d32b75b7a04a
      m_outputNodeId: e8878a45-c513-43b1-a6b9-8207a606ccea
      m_outputSocketId: 857527ed-ffd9-49ef-b258-e43f2eed56b8
    - m_inputConnectionPoint: {x: -2, y: 4}
      m_outputConnectionPoint: {x: 202, y: 4}
      m_id: 8c14c3e1-b608-4f95-a61b-7ee1dad59307
      m_inputNodeId: 7594afa3-6e73-4429-b2f2-5a22d21b304a
      m_inputSocketId: 89f9f924-bedd-4005-a281-d32b75b7a04a
      m_outputNodeId: 45a885cf-bf4e-463c-ad23-1e36a3b3e243
      m_outputSocketId: 867f7228-a6b5-43e7-8431-4b8bd2108d9e
    - m_inputConnectionPoint: {x: 202, y: 4}
      m_outputConnectionPoint: {x: 202, y: 4}
      m_id: 2abc4035-3e7b-4eea-99aa-c6dc0e981ab6
      m_inputNodeId: 7594afa3-6e73-4429-b2f2-5a22d21b304a
      m_inputSocketId: 89f9f924-bedd-4005-a281-d32b75b7a04a
      m_outputNodeId: af94a443-02fd-4f7d-9c22-b006ba7a107f
      m_outputSocketId: d651fee4-c7fb-47a3-801f-348228174841
    m_connectionPoints:
    - {x: -2, y: 4}
    - {x: 202, y: 4}
    m_direction: 0
    m_canBeDeleted: 0
    m_canBeReordered: 0
    m_curveModifier: 0
    m_height: 24
    m_width: 216
    m_x: 0
    m_y: 38
    m_id: 89f9f924-bedd-4005-a281-d32b75b7a04a
    m_nodeId: 7594afa3-6e73-4429-b2f2-5a22d21b304a
    m_socketName: InputSocket_0
    m_value: '{"ButtonCategory":"General","ButtonName":"Unnamed","GameEvent":"","TimeDelay":3.0,"Trigger":0}'
    m_valueTypeQualifiedName: Doozy.Engine.UI.Connections.UIConnection, Assembly-CSharp,
      Version=0.0.0.0, Culture=neutral, PublicKeyToken=null
  m_outputSockets:
  - m_connectionMode: 0
    m_connections:
    - m_inputConnectionPoint: {x: 202, y: 4}
      m_outputConnectionPoint: {x: 202, y: 4}
      m_id: 7d43ac65-1fb1-4751-b7ca-10ac1c2ff0e4
      m_inputNodeId: 4220fabf-abae-4284-82c8-53c8a7abd69b
      m_inputSocketId: 9a2f925d-1511-4576-90db-bf561d14c37c
      m_outputNodeId: 7594afa3-6e73-4429-b2f2-5a22d21b304a
      m_outputSocketId: 203ff965-d0c3-4fe0-a028-10d24fa8daa4
    m_connectionPoints:
    - {x: -2, y: 4}
    - {x: 202, y: 4}
    m_direction: 1
    m_canBeDeleted: 1
    m_canBeReordered: 1
    m_curveModifier: 0
    m_height: 24
    m_width: 216
    m_x: 0
    m_y: 62
    m_id: 203ff965-d0c3-4fe0-a028-10d24fa8daa4
    m_nodeId: 7594afa3-6e73-4429-b2f2-5a22d21b304a
    m_socketName: OutputSocket_0
    m_value: '{"ButtonCategory":"General","ButtonName":"Back","GameEvent":"","TimeDelay":3.0,"Trigger":0}'
    m_valueTypeQualifiedName: Doozy.Engine.UI.Connections.UIConnection, Assembly-CSharp,
      Version=0.0.0.0, Culture=neutral, PublicKeyToken=null
  - m_connectionMode: 0
    m_connections:
    - m_inputConnectionPoint: {x: 202, y: 4}
      m_outputConnectionPoint: {x: -2, y: 4}
      m_id: db685351-5464-4ae4-a7bc-4df122ff93ab
      m_inputNodeId: 45a885cf-bf4e-463c-ad23-1e36a3b3e243
      m_inputSocketId: 0555e13f-7f54-47a0-ae83-70e541b721e0
      m_outputNodeId: 7594afa3-6e73-4429-b2f2-5a22d21b304a
      m_outputSocketId: 1f8e75da-11cd-4d8e-b4ac-eaa3a3dc9493
    m_connectionPoints:
    - {x: -2, y: 4}
    - {x: 202, y: 4}
    m_direction: 1
    m_canBeDeleted: 1
    m_canBeReordered: 1
    m_curveModifier: 0
    m_height: 24
    m_width: 216
    m_x: 0
    m_y: 86
    m_id: 1f8e75da-11cd-4d8e-b4ac-eaa3a3dc9493
    m_nodeId: 7594afa3-6e73-4429-b2f2-5a22d21b304a
    m_socketName: OutputSocket_1
    m_value: '{"ButtonCategory":"Exergame","ButtonName":"Next","GameEvent":"","TimeDelay":3.0,"Trigger":0}'
    m_valueTypeQualifiedName: Doozy.Engine.UI.Connections.UIConnection, Assembly-CSharp,
      Version=0.0.0.0, Culture=neutral, PublicKeyToken=null
  m_nodeType: 4
  m_allowDuplicateNodeName: 0
  m_allowEmptyNodeName: 0
  m_canBeDeleted: 1
  m_debugMode: 0
  m_useFixedUpdate: 0
  m_useLateUpdate: 0
  m_useUpdate: 0
  m_height: 152
  m_width: 216
  m_x: 168
  m_y: 72
  m_minimumInputSocketsCount: 1
  m_minimumOutputSocketsCount: 1
  m_graphId: bc60ea20-75df-454e-992d-24b26a64fb43
  m_id: 7594afa3-6e73-4429-b2f2-5a22d21b304a
  m_name: Login Card
  m_notes: 
  m_onEnterShowViews:
  - Category: Exergame
    InstantAction: 0
    Name: Login Card
  m_onEnterHideViews: []
  m_onExitShowViews: []
  m_onExitHideViews:
  - Category: Exergame
    InstantAction: 0
    Name: Login Card
--- !u!114 &-203119925412547474
MonoBehaviour:
  m_ObjectHideFlags: 1
  m_CorrespondingSourceObject: {fileID: 0}
  m_PrefabInstance: {fileID: 0}
  m_PrefabAsset: {fileID: 0}
  m_GameObject: {fileID: 0}
  m_Enabled: 1
  m_EditorHideFlags: 0
  m_Script: {fileID: 11500000, guid: 306e3ee67fc748fca180c1c6b99061ab, type: 3}
  m_Name: ApplicationQuitNode
  m_EditorClassIdentifier: 
  ErrorNodeNameIsEmpty: 0
  ErrorDuplicateNameFoundInGraph: 0
  m_inputSockets:
  - m_connectionMode: 1
    m_connections: []
    m_connectionPoints:
    - {x: -2, y: 4}
    - {x: 166, y: 4}
    m_direction: 0
    m_canBeDeleted: 0
    m_canBeReordered: 0
    m_curveModifier: 0
    m_height: 24
    m_width: 180
    m_x: 0
    m_y: 38
    m_id: 01b16050-5048-41aa-bd15-9105009883b5
    m_nodeId: 7ebb506b-9bd7-4c7e-ac2d-6c59639ee169
    m_socketName: InputSocket_0
    m_value: '{}'
    m_valueTypeQualifiedName: Doozy.Engine.Nody.Connections.PassthroughConnection,
      Assembly-CSharp, Version=0.0.0.0, Culture=neutral, PublicKeyToken=null
  m_outputSockets: []
  m_nodeType: 4
  m_allowDuplicateNodeName: 0
  m_allowEmptyNodeName: 0
  m_canBeDeleted: 1
  m_debugMode: 0
  m_useFixedUpdate: 0
  m_useLateUpdate: 0
  m_useUpdate: 0
  m_height: 80
  m_width: 180
  m_x: 504
  m_y: -108
  m_minimumInputSocketsCount: 1
  m_minimumOutputSocketsCount: 1
  m_graphId: bc60ea20-75df-454e-992d-24b26a64fb43
  m_id: 7ebb506b-9bd7-4c7e-ac2d-6c59639ee169
  m_name: Application Quit
  m_notes: 
--- !u!114 &11400000
MonoBehaviour:
  m_ObjectHideFlags: 0
  m_CorrespondingSourceObject: {fileID: 0}
  m_PrefabInstance: {fileID: 0}
  m_PrefabAsset: {fileID: 0}
  m_GameObject: {fileID: 0}
  m_Enabled: 1
  m_EditorHideFlags: 0
  m_Script: {fileID: 11500000, guid: e021c5c27274514469ad2992883d55db, type: 3}
  m_Name: ConnectGraph
  m_EditorClassIdentifier: 
  DebugMode: 0
  m_nodes:
  - {fileID: 4022162638025020617}
  - {fileID: -7211217009039435503}
  - {fileID: -1671015641341630440}
  - {fileID: -203119925412547474}
  - {fileID: -2886346920857495415}
  - {fileID: -2530596316077854146}
  - {fileID: -1712291607277541633}
  m_isSubGraph: 0
  m_version: 1
  m_description: 
  m_id: bc60ea20-75df-454e-992d-24b26a64fb43
  m_lastModified: 132511294741823614
--- !u!114 &876744633117472197
MonoBehaviour:
  m_ObjectHideFlags: 1
  m_CorrespondingSourceObject: {fileID: 0}
  m_PrefabInstance: {fileID: 0}
  m_PrefabAsset: {fileID: 0}
  m_GameObject: {fileID: 0}
  m_Enabled: 1
  m_EditorHideFlags: 0
  m_Script: {fileID: 11500000, guid: 1a651565835d4deb9517969e9738bc56, type: 3}
  m_Name: WaitNode
  m_EditorClassIdentifier: 
  ErrorNodeNameIsEmpty: 0
  ErrorDuplicateNameFoundInGraph: 0
  m_inputSockets:
  - m_connectionMode: 1
    m_connections: []
    m_connectionPoints:
    - {x: -2, y: 4}
    - {x: 202, y: 4}
    m_direction: 0
    m_canBeDeleted: 0
    m_canBeReordered: 0
    m_curveModifier: 0
    m_height: 24
    m_width: 216
    m_x: 0
    m_y: 38
    m_id: f09bd35c-c4a6-4a88-8b8c-4bd9c0b3544b
    m_nodeId: 3132f8d4-b1df-47b4-ab15-e7a9dea8a308
    m_socketName: InputSocket_0
    m_value: '{}'
    m_valueTypeQualifiedName: Doozy.Engine.Nody.Connections.PassthroughConnection,
      Assembly-CSharp, Version=0.0.0.0, Culture=neutral, PublicKeyToken=null
  m_outputSockets:
  - m_connectionMode: 0
    m_connections: []
    m_connectionPoints:
    - {x: -2, y: 4}
    - {x: 202, y: 4}
    m_direction: 1
    m_canBeDeleted: 0
    m_canBeReordered: 0
    m_curveModifier: 0
    m_height: 24
    m_width: 216
    m_x: 0
    m_y: 62
    m_id: 1a0158a2-c473-461d-ac81-bec8bf8f502b
    m_nodeId: 3132f8d4-b1df-47b4-ab15-e7a9dea8a308
    m_socketName: OutputSocket_0
    m_value: '{}'
    m_valueTypeQualifiedName: Doozy.Engine.Nody.Connections.PassthroughConnection,
      Assembly-CSharp, Version=0.0.0.0, Culture=neutral, PublicKeyToken=null
  m_nodeType: 4
  m_allowDuplicateNodeName: 1
  m_allowEmptyNodeName: 0
  m_canBeDeleted: 1
  m_debugMode: 0
  m_useFixedUpdate: 0
  m_useLateUpdate: 0
  m_useUpdate: 0
  m_height: 156
  m_width: 216
  m_x: -271.1208
  m_y: 415.69543
  m_minimumInputSocketsCount: 1
  m_minimumOutputSocketsCount: 1
  m_graphId: bc60ea20-75df-454e-992d-24b26a64fb43
  m_id: 3132f8d4-b1df-47b4-ab15-e7a9dea8a308
  m_name: Wait
  m_notes: 
  ErrorNoGameEvent: 0
  ErrorNoSceneName: 0
  ErrorBadBuildIndex: 0
  GetSceneBy: 0
  WaitFor: 0
  AnyValue: 0
  IgnoreUnityTimescale: 1
  RandomDuration: 0
  Duration: 1
  DurationMax: 1
  DurationMin: 0
  SceneBuildIndex: 0
  GameEvent: 
  SceneName: 
  UIViewTriggerAction: 1
  ViewCategory: General
  ViewName: Unnamed
  UIButtonTriggerAction: 0
  ButtonCategory: General
  ButtonName: Unnamed
  UIDrawerTriggerAction: 0
  DrawerName: Unnamed
  CustomDrawerName: 0
--- !u!114 &3458690989652172287
MonoBehaviour:
  m_ObjectHideFlags: 1
  m_CorrespondingSourceObject: {fileID: 0}
  m_PrefabInstance: {fileID: 0}
  m_PrefabAsset: {fileID: 0}
  m_GameObject: {fileID: 0}
  m_Enabled: 1
  m_EditorHideFlags: 0
  m_Script: {fileID: 11500000, guid: a963b51f39ae8d84b8503675f195fba7, type: 3}
  m_Name: SwitchBackNode
  m_EditorClassIdentifier: 
  ErrorNodeNameIsEmpty: 0
  ErrorDuplicateNameFoundInGraph: 0
  m_inputSockets:
  - m_connectionMode: 0
    m_connections: []
    m_connectionPoints:
    - {x: -2, y: 4}
    - {x: 202, y: 4}
    m_direction: 0
    m_canBeDeleted: 0
    m_canBeReordered: 0
    m_curveModifier: 0
    m_height: 24
    m_width: 216
    m_x: 0
    m_y: 91.333336
    m_id: 5d598822-2e4f-40d3-bd41-f77f946b5ead
    m_nodeId: 1b1a2400-3ab1-4620-a88d-b1299ec1c15d
    m_socketName: InputSocket_0
    m_value: '{}'
    m_valueTypeQualifiedName: Doozy.Engine.Nody.Connections.PassthroughConnection,
      Assembly-CSharp, Version=0.0.0.0, Culture=neutral, PublicKeyToken=null
  - m_connectionMode: 0
    m_connections: []
    m_connectionPoints:
    - {x: -2, y: 4}
    - {x: 202, y: 4}
    m_direction: 0
    m_canBeDeleted: 0
    m_canBeReordered: 0
    m_curveModifier: 0
    m_height: 24
    m_width: 216
    m_x: 0
    m_y: 258.6667
    m_id: e79aadc6-f559-45b9-93ab-366ab94fe7cc
    m_nodeId: 1b1a2400-3ab1-4620-a88d-b1299ec1c15d
    m_socketName: InputSocket_1
    m_value: '{}'
    m_valueTypeQualifiedName: Doozy.Engine.Nody.Connections.PassthroughConnection,
      Assembly-CSharp, Version=0.0.0.0, Culture=neutral, PublicKeyToken=null
  - m_connectionMode: 0
    m_connections: []
    m_connectionPoints:
    - {x: -2, y: 4}
    - {x: 202, y: 4}
    m_direction: 0
    m_canBeDeleted: 0
    m_canBeReordered: 0
    m_curveModifier: 0
    m_height: 24
    m_width: 216
    m_x: 0
    m_y: 348.6667
    m_id: aa455d31-de0d-4974-94d2-7346f838b95b
    m_nodeId: 1b1a2400-3ab1-4620-a88d-b1299ec1c15d
    m_socketName: InputSocket_2
    m_value: '{}'
    m_valueTypeQualifiedName: Doozy.Engine.Nody.Connections.PassthroughConnection,
      Assembly-CSharp, Version=0.0.0.0, Culture=neutral, PublicKeyToken=null
  m_outputSockets:
  - m_connectionMode: 0
    m_connections: []
    m_connectionPoints:
    - {x: -2, y: 4}
    - {x: 202, y: 4}
    m_direction: 1
    m_canBeDeleted: 0
    m_canBeReordered: 0
    m_curveModifier: 0
    m_height: 24
    m_width: 216
    m_x: 0
    m_y: 115.333336
    m_id: ac2649f1-028a-4661-8aee-7ee81708723c
    m_nodeId: 1b1a2400-3ab1-4620-a88d-b1299ec1c15d
    m_socketName: OutputSocket_0
    m_value: '{}'
    m_valueTypeQualifiedName: Doozy.Engine.Nody.Connections.PassthroughConnection,
      Assembly-CSharp, Version=0.0.0.0, Culture=neutral, PublicKeyToken=null
  - m_connectionMode: 0
    m_connections: []
    m_connectionPoints:
    - {x: -2, y: 4}
    - {x: 202, y: 4}
    m_direction: 1
    m_canBeDeleted: 0
    m_canBeReordered: 0
    m_curveModifier: 0
    m_height: 24
    m_width: 216
    m_x: 0
    m_y: 282.6667
    m_id: 23569868-1bfc-4f2c-8c0a-b0372d62e7b8
    m_nodeId: 1b1a2400-3ab1-4620-a88d-b1299ec1c15d
    m_socketName: OutputSocket_1
    m_value: '{}'
    m_valueTypeQualifiedName: Doozy.Engine.Nody.Connections.PassthroughConnection,
      Assembly-CSharp, Version=0.0.0.0, Culture=neutral, PublicKeyToken=null
  - m_connectionMode: 0
    m_connections: []
    m_connectionPoints:
    - {x: -2, y: 4}
    - {x: 202, y: 4}
    m_direction: 1
    m_canBeDeleted: 0
    m_canBeReordered: 0
    m_curveModifier: 0
    m_height: 24
    m_width: 216
    m_x: 0
    m_y: 372.6667
    m_id: f86de6e4-1471-484f-b644-03e52b663759
    m_nodeId: 1b1a2400-3ab1-4620-a88d-b1299ec1c15d
    m_socketName: OutputSocket_2
    m_value: '{}'
    m_valueTypeQualifiedName: Doozy.Engine.Nody.Connections.PassthroughConnection,
      Assembly-CSharp, Version=0.0.0.0, Culture=neutral, PublicKeyToken=null
  m_nodeType: 4
  m_allowDuplicateNodeName: 0
  m_allowEmptyNodeName: 0
  m_canBeDeleted: 1
  m_debugMode: 0
  m_useFixedUpdate: 0
  m_useLateUpdate: 0
  m_useUpdate: 0
  m_height: 442.6667
  m_width: 216
  m_x: -105.98569
  m_y: 310.627
  m_minimumInputSocketsCount: 2
  m_minimumOutputSocketsCount: 2
  m_graphId: bc60ea20-75df-454e-992d-24b26a64fb43
  m_id: 1b1a2400-3ab1-4620-a88d-b1299ec1c15d
  m_name: Switch Back
  m_notes: 
  Sources:
  - SourceName: Source Name 1
    InputSocketId: e79aadc6-f559-45b9-93ab-366ab94fe7cc
    OutputSocketId: 23569868-1bfc-4f2c-8c0a-b0372d62e7b8
    InputSocketIsConnected: 0
    OutputSocketIsConnected: 0
  - SourceName: Source Name 2
    InputSocketId: aa455d31-de0d-4974-94d2-7346f838b95b
    OutputSocketId: f86de6e4-1471-484f-b644-03e52b663759
    InputSocketIsConnected: 0
    OutputSocketIsConnected: 0
  ErrorNoTargetConnected: 1
  ErrorNoSourceConnected: 1
--- !u!114 &4022162638025020617
MonoBehaviour:
  m_ObjectHideFlags: 1
  m_CorrespondingSourceObject: {fileID: 0}
  m_PrefabInstance: {fileID: 0}
  m_PrefabAsset: {fileID: 0}
  m_GameObject: {fileID: 0}
  m_Enabled: 1
  m_EditorHideFlags: 0
  m_Script: {fileID: 11500000, guid: d57ed238b12b4e09aba0c83117a55de7, type: 3}
  m_Name: StartNode
  m_EditorClassIdentifier: 
  ErrorNodeNameIsEmpty: 0
  ErrorDuplicateNameFoundInGraph: 0
  m_inputSockets: []
  m_outputSockets:
  - m_connectionMode: 0
    m_connections:
    - m_inputConnectionPoint: {x: -2, y: 4}
      m_outputConnectionPoint: {x: -2, y: 4}
      m_id: 09e73f9d-7257-4d0c-a9b4-7ec0d6f8b58e
      m_inputNodeId: 4220fabf-abae-4284-82c8-53c8a7abd69b
      m_inputSocketId: 9a2f925d-1511-4576-90db-bf561d14c37c
      m_outputNodeId: 1a97c358-3305-4435-9db9-618d5dcbc981
      m_outputSocketId: 31c40770-ed64-45b2-8b1a-8881ac69da85
    m_connectionPoints:
    - {x: -2, y: 4}
    - {x: 106, y: 4}
    m_direction: 1
    m_canBeDeleted: 0
    m_canBeReordered: 0
    m_curveModifier: 0
    m_height: 24
    m_width: 120
    m_x: 0
    m_y: 38
    m_id: 31c40770-ed64-45b2-8b1a-8881ac69da85
    m_nodeId: 1a97c358-3305-4435-9db9-618d5dcbc981
    m_socketName: OutputSocket_0
    m_value: '{"ButtonCategory":"General","ButtonName":"Unnamed","GameEvent":"","TimeDelay":3.0,"Trigger":0}'
    m_valueTypeQualifiedName: Doozy.Engine.UI.Connections.UIConnection, Assembly-CSharp,
      Version=0.0.0.0, Culture=neutral, PublicKeyToken=null
  m_nodeType: 0
  m_allowDuplicateNodeName: 0
  m_allowEmptyNodeName: 0
  m_canBeDeleted: 0
  m_debugMode: 0
  m_useFixedUpdate: 0
  m_useLateUpdate: 0
  m_useUpdate: 0
  m_height: 80
  m_width: 120
  m_x: 180
  m_y: -228
  m_minimumInputSocketsCount: 1
  m_minimumOutputSocketsCount: 1
  m_graphId: bc60ea20-75df-454e-992d-24b26a64fb43
  m_id: 1a97c358-3305-4435-9db9-618d5dcbc981
  m_name: Start
  m_notes: 
  ErrorNodeIsNotConnected: 0
--- !u!114 &9084329635279528234
MonoBehaviour:
  m_ObjectHideFlags: 1
  m_CorrespondingSourceObject: {fileID: 0}
  m_PrefabInstance: {fileID: 0}
  m_PrefabAsset: {fileID: 0}
  m_GameObject: {fileID: 0}
  m_Enabled: 1
  m_EditorHideFlags: 0
  m_Script: {fileID: 11500000, guid: 1a651565835d4deb9517969e9738bc56, type: 3}
  m_Name: WaitNode
  m_EditorClassIdentifier: 
  ErrorNodeNameIsEmpty: 0
  ErrorDuplicateNameFoundInGraph: 0
  m_inputSockets:
  - m_connectionMode: 1
    m_connections: []
    m_connectionPoints:
    - {x: -2, y: 4}
    - {x: 202, y: 4}
    m_direction: 0
    m_canBeDeleted: 0
    m_canBeReordered: 0
    m_curveModifier: 0
    m_height: 24
    m_width: 216
    m_x: 0
    m_y: 38
    m_id: c137a544-5922-4fa1-88e2-653e71c1bb10
    m_nodeId: 7e56f174-8a13-4e4f-a70b-cec9a1970514
    m_socketName: InputSocket_0
    m_value: '{}'
    m_valueTypeQualifiedName: Doozy.Engine.Nody.Connections.PassthroughConnection,
      Assembly-CSharp, Version=0.0.0.0, Culture=neutral, PublicKeyToken=null
  m_outputSockets:
  - m_connectionMode: 0
    m_connections: []
    m_connectionPoints:
    - {x: -2, y: 4}
    - {x: 202, y: 4}
    m_direction: 1
    m_canBeDeleted: 0
    m_canBeReordered: 0
    m_curveModifier: 0
    m_height: 24
    m_width: 216
    m_x: 0
    m_y: 62
    m_id: 3e860d06-39fd-4a77-b14e-5355cf175fe7
    m_nodeId: 7e56f174-8a13-4e4f-a70b-cec9a1970514
    m_socketName: OutputSocket_0
    m_value: '{}'
    m_valueTypeQualifiedName: Doozy.Engine.Nody.Connections.PassthroughConnection,
      Assembly-CSharp, Version=0.0.0.0, Culture=neutral, PublicKeyToken=null
  m_nodeType: 4
  m_allowDuplicateNodeName: 1
  m_allowEmptyNodeName: 0
  m_canBeDeleted: 1
  m_debugMode: 0
  m_useFixedUpdate: 0
  m_useLateUpdate: 0
  m_useUpdate: 0
  m_height: 156
  m_width: 216
  m_x: -348
  m_y: 396
  m_minimumInputSocketsCount: 1
  m_minimumOutputSocketsCount: 1
  m_graphId: bc60ea20-75df-454e-992d-24b26a64fb43
  m_id: 7e56f174-8a13-4e4f-a70b-cec9a1970514
  m_name: Wait
  m_notes: 
  ErrorNoGameEvent: 0
  ErrorNoSceneName: 0
  ErrorBadBuildIndex: 0
  GetSceneBy: 0
  WaitFor: 0
  AnyValue: 0
  IgnoreUnityTimescale: 1
  RandomDuration: 0
  Duration: 5
  DurationMax: 1
  DurationMin: 0
  SceneBuildIndex: 0
  GameEvent: 
  SceneName: 
  UIViewTriggerAction: 1
  ViewCategory: General
  ViewName: Unnamed
  UIButtonTriggerAction: 0
  ButtonCategory: General
  ButtonName: Unnamed
  UIDrawerTriggerAction: 0
  DrawerName: Unnamed
  CustomDrawerName: 0
