%YAML 1.1
%TAG !u! tag:unity3d.com,2011:
--- !u!114 &11400000
MonoBehaviour:
  m_ObjectHideFlags: 0
  m_CorrespondingSourceObject: {fileID: 0}
  m_PrefabInstance: {fileID: 0}
  m_PrefabAsset: {fileID: 0}
  m_GameObject: {fileID: 0}
  m_Enabled: 1
  m_EditorHideFlags: 0
  m_Script: {fileID: 11500000, guid: f42f06ff6cc543ea942180e019f0fc8d, type: 3}
  m_Name: UIView_Exergame
  m_EditorClassIdentifier: 
  CategoryName: Exergame
  DatabaseType: 2
  Names:
  - CharacterName Card
  - DockedUI Card
  - Loader
  - Login Card
  - Login Successful Card
  - Start Card
