%YAML 1.1
%TAG !u! tag:unity3d.com,2011:
--- !u!1001 &5555712148552915838
PrefabInstance:
  m_ObjectHideFlags: 0
  serializedVersion: 2
  m_Modification:
    m_TransformParent: {fileID: 0}
    m_Modifications:
    - target: {fileID: 3301509681611649562, guid: e08d325af221b324ab6b3ee9a1111969,
        type: 3}
      propertyPath: m_Name
      value: Button - A - 256x96 - Circle - Icon Text
      objectReference: {fileID: 0}
    - target: {fileID: 8910841455928589236, guid: e08d325af221b324ab6b3ee9a1111969,
        type: 3}
      propertyPath: m_LocalPosition.x
      value: 0
      objectReference: {fileID: 0}
    - target: {fileID: 8910841455928589236, guid: e08d325af221b324ab6b3ee9a1111969,
        type: 3}
      propertyPath: m_LocalPosition.y
      value: 0
      objectReference: {fileID: 0}
    - target: {fileID: 8910841455928589236, guid: e08d325af221b324ab6b3ee9a1111969,
        type: 3}
      propertyPath: m_LocalPosition.z
      value: 0
      objectReference: {fileID: 0}
    - target: {fileID: 8910841455928589236, guid: e08d325af221b324ab6b3ee9a1111969,
        type: 3}
      propertyPath: m_LocalRotation.x
      value: 0
      objectReference: {fileID: 0}
    - target: {fileID: 8910841455928589236, guid: e08d325af221b324ab6b3ee9a1111969,
        type: 3}
      propertyPath: m_LocalRotation.y
      value: 0
      objectReference: {fileID: 0}
    - target: {fileID: 8910841455928589236, guid: e08d325af221b324ab6b3ee9a1111969,
        type: 3}
      propertyPath: m_LocalRotation.z
      value: 0
      objectReference: {fileID: 0}
    - target: {fileID: 8910841455928589236, guid: e08d325af221b324ab6b3ee9a1111969,
        type: 3}
      propertyPath: m_LocalRotation.w
      value: 1
      objectReference: {fileID: 0}
    - target: {fileID: 8910841455928589236, guid: e08d325af221b324ab6b3ee9a1111969,
        type: 3}
      propertyPath: m_RootOrder
      value: 0
      objectReference: {fileID: 0}
    - target: {fileID: 8910841455928589236, guid: e08d325af221b324ab6b3ee9a1111969,
        type: 3}
      propertyPath: m_LocalEulerAnglesHint.x
      value: 0
      objectReference: {fileID: 0}
    - target: {fileID: 8910841455928589236, guid: e08d325af221b324ab6b3ee9a1111969,
        type: 3}
      propertyPath: m_LocalEulerAnglesHint.y
      value: 0
      objectReference: {fileID: 0}
    - target: {fileID: 8910841455928589236, guid: e08d325af221b324ab6b3ee9a1111969,
        type: 3}
      propertyPath: m_LocalEulerAnglesHint.z
      value: 0
      objectReference: {fileID: 0}
    - target: {fileID: 8910841455928589236, guid: e08d325af221b324ab6b3ee9a1111969,
        type: 3}
      propertyPath: m_AnchoredPosition.x
      value: 0
      objectReference: {fileID: 0}
    - target: {fileID: 8910841455928589236, guid: e08d325af221b324ab6b3ee9a1111969,
        type: 3}
      propertyPath: m_AnchoredPosition.y
      value: 0
      objectReference: {fileID: 0}
    - target: {fileID: 8910841455928589236, guid: e08d325af221b324ab6b3ee9a1111969,
        type: 3}
      propertyPath: m_SizeDelta.x
      value: 256
      objectReference: {fileID: 0}
    - target: {fileID: 8910841455928589236, guid: e08d325af221b324ab6b3ee9a1111969,
        type: 3}
      propertyPath: m_SizeDelta.y
      value: 96
      objectReference: {fileID: 0}
    - target: {fileID: 8910841455928589236, guid: e08d325af221b324ab6b3ee9a1111969,
        type: 3}
      propertyPath: m_AnchorMin.x
      value: 0.5
      objectReference: {fileID: 0}
    - target: {fileID: 8910841455928589236, guid: e08d325af221b324ab6b3ee9a1111969,
        type: 3}
      propertyPath: m_AnchorMin.y
      value: 0.5
      objectReference: {fileID: 0}
    - target: {fileID: 8910841455928589236, guid: e08d325af221b324ab6b3ee9a1111969,
        type: 3}
      propertyPath: m_AnchorMax.x
      value: 0.5
      objectReference: {fileID: 0}
    - target: {fileID: 8910841455928589236, guid: e08d325af221b324ab6b3ee9a1111969,
        type: 3}
      propertyPath: m_AnchorMax.y
      value: 0.5
      objectReference: {fileID: 0}
    - target: {fileID: 8910841455928589236, guid: e08d325af221b324ab6b3ee9a1111969,
        type: 3}
      propertyPath: m_Pivot.x
      value: 0.5
      objectReference: {fileID: 0}
    - target: {fileID: 8910841455928589236, guid: e08d325af221b324ab6b3ee9a1111969,
        type: 3}
      propertyPath: m_Pivot.y
      value: 0.5
      objectReference: {fileID: 0}
    - target: {fileID: 6342120021854996258, guid: e08d325af221b324ab6b3ee9a1111969,
        type: 3}
      propertyPath: m_IsActive
      value: 1
      objectReference: {fileID: 0}
    - target: {fileID: 6149852836032078950, guid: e08d325af221b324ab6b3ee9a1111969,
        type: 3}
      propertyPath: m_AnchorMin.y
      value: 0.5
      objectReference: {fileID: 0}
    - target: {fileID: 6149852836032078950, guid: e08d325af221b324ab6b3ee9a1111969,
        type: 3}
      propertyPath: m_AnchorMax.x
      value: 0
      objectReference: {fileID: 0}
    - target: {fileID: 6149852836032078950, guid: e08d325af221b324ab6b3ee9a1111969,
        type: 3}
      propertyPath: m_AnchorMax.y
      value: 0.5
      objectReference: {fileID: 0}
    - target: {fileID: 6149852836032078950, guid: e08d325af221b324ab6b3ee9a1111969,
        type: 3}
      propertyPath: m_SizeDelta.x
      value: 48
      objectReference: {fileID: 0}
    - target: {fileID: 6149852836032078950, guid: e08d325af221b324ab6b3ee9a1111969,
        type: 3}
      propertyPath: m_SizeDelta.y
      value: 48
      objectReference: {fileID: 0}
    - target: {fileID: 6149852836032078950, guid: e08d325af221b324ab6b3ee9a1111969,
        type: 3}
      propertyPath: m_Pivot.x
      value: 0
      objectReference: {fileID: 0}
    - target: {fileID: 6149852836032078950, guid: e08d325af221b324ab6b3ee9a1111969,
        type: 3}
      propertyPath: m_AnchoredPosition.x
      value: 24
      objectReference: {fileID: 0}
    - target: {fileID: 463877899205689715, guid: e08d325af221b324ab6b3ee9a1111969,
        type: 3}
      propertyPath: m_IsActive
      value: 1
      objectReference: {fileID: 0}
    - target: {fileID: 5502402259419708588, guid: e08d325af221b324ab6b3ee9a1111969,
        type: 3}
      propertyPath: m_AnchoredPosition.x
      value: 36
      objectReference: {fileID: 0}
    - target: {fileID: 5502402259419708588, guid: e08d325af221b324ab6b3ee9a1111969,
        type: 3}
      propertyPath: m_SizeDelta.x
      value: -104
      objectReference: {fileID: 0}
    - target: {fileID: 5502402259419708588, guid: e08d325af221b324ab6b3ee9a1111969,
        type: 3}
      propertyPath: m_AnchoredPosition.y
      value: 0
      objectReference: {fileID: 0}
    - target: {fileID: 5502402259419708588, guid: e08d325af221b324ab6b3ee9a1111969,
        type: 3}
      propertyPath: m_SizeDelta.y
      value: -16
      objectReference: {fileID: 0}
    - target: {fileID: 6011544308422322312, guid: e08d325af221b324ab6b3ee9a1111969,
        type: 3}
      propertyPath: m_fontSizeMax
      value: 24
      objectReference: {fileID: 0}
    - target: {fileID: 6011544308422322312, guid: e08d325af221b324ab6b3ee9a1111969,
        type: 3}
      propertyPath: m_fontSize
      value: 24
      objectReference: {fileID: 0}
    - target: {fileID: 6011544308422322312, guid: e08d325af221b324ab6b3ee9a1111969,
        type: 3}
      propertyPath: m_textAlignment
      value: 513
      objectReference: {fileID: 0}
    - target: {fileID: 2173952138834900363, guid: e08d325af221b324ab6b3ee9a1111969,
        type: 3}
      propertyPath: m_MinWidth
      value: 256
      objectReference: {fileID: 0}
    - target: {fileID: 2173952138834900363, guid: e08d325af221b324ab6b3ee9a1111969,
        type: 3}
      propertyPath: m_PreferredWidth
      value: 256
      objectReference: {fileID: 0}
    - target: {fileID: 2173952138834900363, guid: e08d325af221b324ab6b3ee9a1111969,
        type: 3}
      propertyPath: m_FlexibleWidth
      value: 1
      objectReference: {fileID: 0}
    m_RemovedComponents: []
  m_SourcePrefab: {fileID: 100100000, guid: e08d325af221b324ab6b3ee9a1111969, type: 3}
