%YAML 1.1
%TAG !u! tag:unity3d.com,2011:
--- !u!114 &11400000
MonoBehaviour:
  m_ObjectHideFlags: 0
  m_CorrespondingSourceObject: {fileID: 0}
  m_PrefabInstance: {fileID: 0}
  m_PrefabAsset: {fileID: 0}
  m_GameObject: {fileID: 0}
  m_Enabled: 1
  m_EditorHideFlags: 0
  m_Script: {fileID: 11500000, guid: 4d038551e0dfdd344a640309d3a27453, type: 3}
  m_Name: SoundySettings
  m_EditorClassIdentifier: 
  database: {fileID: 11400000, guid: b45852ebc8986e940a63ef3902dabc80, type: 2}
  AutoKillIdleControllers: 1
  ControllerIdleKillDuration: 20
  IdleCheckInterval: 5
  MinimumNumberOfControllers: 3
