%YAML 1.1
%TAG !u! tag:unity3d.com,2011:
--- !u!1 &1395641935236331299
GameObject:
  m_ObjectHideFlags: 0
  m_CorrespondingSourceObject: {fileID: 0}
  m_PrefabInstance: {fileID: 0}
  m_PrefabAsset: {fileID: 0}
  serializedVersion: 6
  m_Component:
  - component: {fileID: 1395641935236331298}
  - component: {fileID: 1395641935236331295}
  - component: {fileID: 1395641935236331292}
  - component: {fileID: 1395641935236331293}
  m_Layer: 0
  m_Name: Title Text (TMP)
  m_TagString: Untagged
  m_Icon: {fileID: 0}
  m_NavMeshLayer: 0
  m_StaticEditorFlags: 0
  m_IsActive: 1
--- !u!224 &1395641935236331298
RectTransform:
  m_ObjectHideFlags: 0
  m_CorrespondingSourceObject: {fileID: 0}
  m_PrefabInstance: {fileID: 0}
  m_PrefabAsset: {fileID: 0}
  m_GameObject: {fileID: 1395641935236331299}
  m_LocalRotation: {x: -0, y: -0, z: -0, w: 1}
  m_LocalPosition: {x: 0, y: 0, z: 0}
  m_LocalScale: {x: 1, y: 1, z: 1}
  m_Children: []
  m_Father: {fileID: 7581517094652514990}
  m_RootOrder: 1
  m_LocalEulerAnglesHint: {x: 0, y: 0, z: 0}
  m_AnchorMin: {x: 0, y: 1}
  m_AnchorMax: {x: 1, y: 1}
  m_AnchoredPosition: {x: -24, y: -32}
  m_SizeDelta: {x: -80, y: 56}
  m_Pivot: {x: 0.5, y: 0.5}
--- !u!222 &1395641935236331295
CanvasRenderer:
  m_ObjectHideFlags: 0
  m_CorrespondingSourceObject: {fileID: 0}
  m_PrefabInstance: {fileID: 0}
  m_PrefabAsset: {fileID: 0}
  m_GameObject: {fileID: 1395641935236331299}
  m_CullTransparentMesh: 0
--- !u!114 &1395641935236331292
MonoBehaviour:
  m_ObjectHideFlags: 0
  m_CorrespondingSourceObject: {fileID: 0}
  m_PrefabInstance: {fileID: 0}
  m_PrefabAsset: {fileID: 0}
  m_GameObject: {fileID: 1395641935236331299}
  m_Enabled: 1
  m_EditorHideFlags: 0
  m_Script: {fileID: 11500000, guid: f4688fdb7df04437aeb418b961361dc5, type: 3}
  m_Name: 
  m_EditorClassIdentifier: 
  m_Material: {fileID: 0}
  m_Color: {r: 1, g: 1, b: 1, a: 1}
  m_RaycastTarget: 1
  m_OnCullStateChanged:
    m_PersistentCalls:
      m_Calls: []
    m_TypeName: UnityEngine.UI.MaskableGraphic+CullStateChangedEvent, UnityEngine.UI,
      Version=1.0.0.0, Culture=neutral, PublicKeyToken=null
  m_text: Title
  m_isRightToLeft: 0
  m_fontAsset: {fileID: 11400000, guid: 8f586378b4e144a9851e7b34d9b748ee, type: 2}
  m_sharedMaterial: {fileID: 2180264, guid: 8f586378b4e144a9851e7b34d9b748ee, type: 2}
  m_fontSharedMaterials: []
  m_fontMaterial: {fileID: 0}
  m_fontMaterials: []
  m_fontColor32:
    serializedVersion: 2
    rgba: 4288646787
  m_fontColor: {r: 0.5137255, g: 0.5568628, b: 0.62352943, a: 1}
  m_enableVertexGradient: 0
  m_colorMode: 3
  m_fontColorGradient:
    topLeft: {r: 1, g: 1, b: 1, a: 1}
    topRight: {r: 1, g: 1, b: 1, a: 1}
    bottomLeft: {r: 1, g: 1, b: 1, a: 1}
    bottomRight: {r: 1, g: 1, b: 1, a: 1}
  m_fontColorGradientPreset: {fileID: 0}
  m_spriteAsset: {fileID: 0}
  m_tintAllSprites: 0
  m_overrideHtmlColors: 0
  m_faceColor:
    serializedVersion: 2
    rgba: 4294967295
  m_outlineColor:
    serializedVersion: 2
    rgba: 4278190080
  m_fontSize: 50.1
  m_fontSizeBase: 36
  m_fontWeight: 400
  m_enableAutoSizing: 1
  m_fontSizeMin: 18
  m_fontSizeMax: 72
  m_fontStyle: 0
  m_textAlignment: 257
  m_characterSpacing: 0
  m_wordSpacing: 0
  m_lineSpacing: 0
  m_lineSpacingMax: 0
  m_paragraphSpacing: 0
  m_charWidthMaxAdj: 0
  m_enableWordWrapping: 1
  m_wordWrappingRatios: 0.4
  m_overflowMode: 0
  m_firstOverflowCharacterIndex: -1
  m_linkedTextComponent: {fileID: 0}
  m_isLinkedTextComponent: 0
  m_isTextTruncated: 0
  m_enableKerning: 1
  m_enableExtraPadding: 0
  checkPaddingRequired: 0
  m_isRichText: 1
  m_parseCtrlCharacters: 1
  m_isOrthographic: 1
  m_isCullingEnabled: 0
  m_ignoreRectMaskCulling: 0
  m_ignoreCulling: 1
  m_horizontalMapping: 0
  m_verticalMapping: 0
  m_uvLineOffset: 0
  m_geometrySortingOrder: 0
  m_VertexBufferAutoSizeReduction: 1
  m_firstVisibleCharacter: 0
  m_useMaxVisibleDescender: 1
  m_pageToDisplay: 1
  m_margin: {x: 0, y: 0, z: 0, w: 0}
  m_textInfo:
    textComponent: {fileID: 1395641935236331292}
    characterCount: 5
    spriteCount: 0
    spaceCount: 0
    wordCount: 1
    linkCount: 0
    lineCount: 1
    pageCount: 1
    materialCount: 1
  m_isUsingLegacyAnimationComponent: 0
  m_isVolumetricText: 0
  m_spriteAnimator: {fileID: 0}
  m_hasFontAssetChanged: 0
  m_subTextObjects:
  - {fileID: 0}
  - {fileID: 0}
  - {fileID: 0}
  - {fileID: 0}
  - {fileID: 0}
  - {fileID: 0}
  - {fileID: 0}
  - {fileID: 0}
  m_baseMaterial: {fileID: 0}
  m_maskOffset: {x: 0, y: 0, z: 0, w: 0}
--- !u!114 &1395641935236331293
MonoBehaviour:
  m_ObjectHideFlags: 0
  m_CorrespondingSourceObject: {fileID: 0}
  m_PrefabInstance: {fileID: 0}
  m_PrefabAsset: {fileID: 0}
  m_GameObject: {fileID: 1395641935236331299}
  m_Enabled: 1
  m_EditorHideFlags: 0
  m_Script: {fileID: 11500000, guid: 8f34e6c94be345baaafed933eb7531ca, type: 3}
  m_Name: 
  m_EditorClassIdentifier: 
  ThemeIdSerializedGuid: 4970eed67e2b864e9e16a851bb1066cb
  VariantIdSerializedGuid: 
  PropertyIdSerializedGuid: 2c3d61b82e5f674f9dab31c31fe71403
  TextMeshPro: {fileID: 1395641935236331292}
  OverrideAlpha: 0
  Alpha: 0
--- !u!1 &1395641936516395174
GameObject:
  m_ObjectHideFlags: 0
  m_CorrespondingSourceObject: {fileID: 0}
  m_PrefabInstance: {fileID: 0}
  m_PrefabAsset: {fileID: 0}
  serializedVersion: 6
  m_Component:
  - component: {fileID: 1395641936516395169}
  - component: {fileID: 1395641936516395165}
  - component: {fileID: 1395641936516395170}
  - component: {fileID: 1395641936516395171}
  - component: {fileID: 1395641936516395168}
  m_Layer: 0
  m_Name: UIView - Simple Panel with Close Button
  m_TagString: Untagged
  m_Icon: {fileID: 0}
  m_NavMeshLayer: 0
  m_StaticEditorFlags: 0
  m_IsActive: 1
--- !u!224 &1395641936516395169
RectTransform:
  m_ObjectHideFlags: 0
  m_CorrespondingSourceObject: {fileID: 0}
  m_PrefabInstance: {fileID: 0}
  m_PrefabAsset: {fileID: 0}
  m_GameObject: {fileID: 1395641936516395174}
  m_LocalRotation: {x: 0, y: 0, z: 0, w: 1}
  m_LocalPosition: {x: 0, y: 0, z: 0}
  m_LocalScale: {x: 1, y: 1, z: 1}
  m_Children:
  - {fileID: 7581517094652514990}
  m_Father: {fileID: 0}
  m_RootOrder: 0
  m_LocalEulerAnglesHint: {x: 0, y: 0, z: 0}
  m_AnchorMin: {x: 0, y: 0}
  m_AnchorMax: {x: 1, y: 1}
  m_AnchoredPosition: {x: 0, y: 0}
  m_SizeDelta: {x: 0, y: 0}
  m_Pivot: {x: 0.5, y: 0.5}
--- !u!223 &1395641936516395165
Canvas:
  m_ObjectHideFlags: 0
  m_CorrespondingSourceObject: {fileID: 0}
  m_PrefabInstance: {fileID: 0}
  m_PrefabAsset: {fileID: 0}
  m_GameObject: {fileID: 1395641936516395174}
  m_Enabled: 1
  serializedVersion: 3
  m_RenderMode: 2
  m_Camera: {fileID: 0}
  m_PlaneDistance: 100
  m_PixelPerfect: 0
  m_ReceivesEvents: 1
  m_OverrideSorting: 0
  m_OverridePixelPerfect: 0
  m_SortingBucketNormalizedSize: 0
  m_AdditionalShaderChannelsFlag: 25
  m_SortingLayerID: 0
  m_SortingOrder: 0
  m_TargetDisplay: 0
--- !u!114 &1395641936516395170
MonoBehaviour:
  m_ObjectHideFlags: 0
  m_CorrespondingSourceObject: {fileID: 0}
  m_PrefabInstance: {fileID: 0}
  m_PrefabAsset: {fileID: 0}
  m_GameObject: {fileID: 1395641936516395174}
  m_Enabled: 1
  m_EditorHideFlags: 0
  m_Script: {fileID: 1301386320, guid: f70555f144d8491a825f0804e09c671c, type: 3}
  m_Name: 
  m_EditorClassIdentifier: 
  m_IgnoreReversedGraphics: 1
  m_BlockingObjects: 0
  m_BlockingMask:
    serializedVersion: 2
    m_Bits: 4294967295
--- !u!225 &1395641936516395171
CanvasGroup:
  m_ObjectHideFlags: 0
  m_CorrespondingSourceObject: {fileID: 0}
  m_PrefabInstance: {fileID: 0}
  m_PrefabAsset: {fileID: 0}
  m_GameObject: {fileID: 1395641936516395174}
  m_Enabled: 1
  m_Alpha: 1
  m_Interactable: 1
  m_BlocksRaycasts: 1
  m_IgnoreParentGroups: 0
--- !u!114 &1395641936516395168
MonoBehaviour:
  m_ObjectHideFlags: 0
  m_CorrespondingSourceObject: {fileID: 0}
  m_PrefabInstance: {fileID: 0}
  m_PrefabAsset: {fileID: 0}
  m_GameObject: {fileID: 1395641936516395174}
  m_Enabled: 1
  m_EditorHideFlags: 0
  m_Script: {fileID: 11500000, guid: 314affd16bceddb4c99fbaa07de901d9, type: 3}
  m_Name: 
  m_EditorClassIdentifier: 
  DebugMode: 0
  StartPosition: {x: 0, y: 0, z: 0}
  StartRotation: {x: -0, y: 0, z: 0}
  StartScale: {x: 1, y: 1, z: 1}
  StartAlpha: 1
  AutoHideAfterShow: 0
  AutoHideAfterShowDelay: 3
  AutoSelectButtonAfterShow: 0
  BehaviorAtStart: 1
  CustomStartAnchoredPosition: {x: 0, y: 0, z: 0}
  DeselectAnyButtonSelectedOnHide: 0
  DeselectAnyButtonSelectedOnShow: 0
  DisableCanvasWhenHidden: 1
  DisableGameObjectWhenHidden: 1
  DisableGraphicRaycasterWhenHidden: 1
  HideBehavior:
    Animation:
      AnimationType: 2
      Move:
        AnimationType: 2
        Enabled: 0
        From: {x: 0, y: 0, z: 0}
        To: {x: 0, y: 0, z: 0}
        By: {x: 0, y: 0, z: 0}
        UseCustomFromAndTo: 0
        Vibrato: 10
        Elasticity: 1
        NumberOfLoops: -1
        LoopType: 1
        Direction: 3
        CustomPosition: {x: 0, y: 0, z: 0}
        EaseType: 1
        Ease: 29
        AnimationCurve:
          serializedVersion: 2
          m_Curve:
          - serializedVersion: 3
            time: 0
            value: 0
            inSlope: 2.7912683
            outSlope: 2.7912683
            tangentMode: 0
            weightedMode: 0
            inWeight: 0.33333334
            outWeight: 0.33333334
          - serializedVersion: 3
            time: 0.1591474
            value: 0.27871615
            inSlope: -3.5244074
            outSlope: -3.5244074
            tangentMode: 0
            weightedMode: 0
            inWeight: 0.33333334
            outWeight: 0.33333334
          - serializedVersion: 3
            time: 0.36119476
            value: 0.4033309
            inSlope: -2.5759792
            outSlope: -2.5759792
            tangentMode: 0
            weightedMode: 0
            inWeight: 0.33333334
            outWeight: 0.33333334
          - serializedVersion: 3
            time: 0.6268808
            value: 0.69904834
            inSlope: -2.6110096
            outSlope: -2.6110096
            tangentMode: 0
            weightedMode: 0
            inWeight: 0.33333334
            outWeight: 0.33333334
          - serializedVersion: 3
            time: 0.8133894
            value: 0.8256105
            inSlope: -1.7523863
            outSlope: -1.7523863
            tangentMode: 0
            weightedMode: 0
            inWeight: 0.33333334
            outWeight: 0.33333334
          - serializedVersion: 3
            time: 1
            value: 1
            inSlope: 1
            outSlope: 1
            tangentMode: 0
            weightedMode: 0
            inWeight: 0.33333334
            outWeight: 0.33333334
          m_PreInfinity: 2
          m_PostInfinity: 2
          m_RotationOrder: 4
        StartDelay: 0
        Duration: 0.5
      Rotate:
        AnimationType: 2
        Enabled: 0
        From: {x: 0, y: 0, z: 0}
        To: {x: 0, y: 180, z: 0}
        By: {x: 0, y: 0, z: 0}
        UseCustomFromAndTo: 0
        Vibrato: 10
        Elasticity: 1
        NumberOfLoops: -1
        LoopType: 1
        RotateMode: 0
        EaseType: 0
        Ease: 26
        AnimationCurve:
          serializedVersion: 2
          m_Curve:
          - serializedVersion: 3
            time: 0
            value: 0
            inSlope: 7.0383096
            outSlope: 7.0383096
            tangentMode: 0
            weightedMode: 0
            inWeight: 0.33333334
            outWeight: 0.33333334
          - serializedVersion: 3
            time: 0.017583081
            value: 0.18718478
            inSlope: 0.08300995
            outSlope: 0.08300995
            tangentMode: 0
            weightedMode: 0
            inWeight: 0.33333334
            outWeight: 0.33333334
          - serializedVersion: 3
            time: 0.057600502
            value: 0.12739694
            inSlope: 4.0301647
            outSlope: 4.0301647
            tangentMode: 0
            weightedMode: 0
            inWeight: 0.33333334
            outWeight: 0.33333334
          - serializedVersion: 3
            time: 0.09568673
            value: 0.25189704
            inSlope: -3.516668
            outSlope: -3.516668
            tangentMode: 0
            weightedMode: 0
            inWeight: 0.33333334
            outWeight: 0.33333334
          - serializedVersion: 3
            time: 0.15432346
            value: 0.2683969
            inSlope: -4.011477
            outSlope: -4.011477
            tangentMode: 0
            weightedMode: 0
            inWeight: 0.33333334
            outWeight: 0.33333334
          - serializedVersion: 3
            time: 0.6206393
            value: 0.37496966
            inSlope: -1.7194864
            outSlope: -1.7194864
            tangentMode: 0
            weightedMode: 0
            inWeight: 0.33333334
            outWeight: 0.33333334
          - serializedVersion: 3
            time: 1
            value: 1
            inSlope: 4.481586
            outSlope: 4.481586
            tangentMode: 0
            weightedMode: 0
            inWeight: 0.33333334
            outWeight: 0.33333334
          m_PreInfinity: 2
          m_PostInfinity: 2
          m_RotationOrder: 4
        StartDelay: 0
        Duration: 0.4
      Scale:
        AnimationType: 2
        Enabled: 0
        From: {x: 0, y: 0, z: 0}
        To: {x: 2, y: 2, z: 1}
        By: {x: 0, y: 0, z: 0}
        UseCustomFromAndTo: 0
        Vibrato: 10
        Elasticity: 1
        NumberOfLoops: -1
        LoopType: 1
        EaseType: 0
        Ease: 25
        AnimationCurve:
          serializedVersion: 2
          m_Curve:
          - serializedVersion: 3
            time: 0
            value: 0
            inSlope: -6.503698
            outSlope: -6.503698
            tangentMode: 0
            weightedMode: 0
            inWeight: 0.33333334
            outWeight: 0.33333334
          - serializedVersion: 3
            time: 0.10492328
            value: -0.2293109
            inSlope: 4.185171
            outSlope: 4.185171
            tangentMode: 0
            weightedMode: 0
            inWeight: 0.33333334
            outWeight: 0.33333334
          - serializedVersion: 3
            time: 0.24543402
            value: 0.03323266
            inSlope: -1.7219948
            outSlope: -1.7219948
            tangentMode: 0
            weightedMode: 0
            inWeight: 0.33333334
            outWeight: 0.33333334
          - serializedVersion: 3
            time: 0.4196215
            value: 0.15156424
            inSlope: -2.7061355
            outSlope: -2.7061355
            tangentMode: 0
            weightedMode: 0
            inWeight: 0.33333334
            outWeight: 0.33333334
          - serializedVersion: 3
            time: 0.592863
            value: 0.27791208
            inSlope: -1.6045417
            outSlope: -1.6045417
            tangentMode: 0
            weightedMode: 0
            inWeight: 0.33333334
            outWeight: 0.33333334
          - serializedVersion: 3
            time: 1
            value: 1
            inSlope: -0.5640811
            outSlope: -0.5640811
            tangentMode: 0
            weightedMode: 0
            inWeight: 0.33333334
            outWeight: 0.33333334
          m_PreInfinity: 2
          m_PostInfinity: 2
          m_RotationOrder: 4
        StartDelay: 0
        Duration: 0.4
      Fade:
        AnimationType: 2
        Enabled: 1
        From: 0
        To: 0
        By: 0.5
        UseCustomFromAndTo: 0
        NumberOfLoops: -1
        LoopType: 1
        EaseType: 0
        Ease: 1
        AnimationCurve:
          serializedVersion: 2
          m_Curve: []
          m_PreInfinity: 2
          m_PostInfinity: 2
          m_RotationOrder: 4
        StartDelay: 0
        Duration: 0.2
    AutoStartLoopAnimation: 1
    LoadSelectedPresetAtRuntime: 0
    InstantAnimation: 0
    OnFinished:
      AnimatorEvents: []
      Effect:
        AutoSort: 1
        Behavior: 0
        CustomSortingOrder: 0
        SortingSteps: 1
        ParticleSystem: {fileID: 0}
        StopBehavior: 1
        CustomSortingLayer: Default
      Event:
        m_PersistentCalls:
          m_Calls: []
        m_TypeName: UnityEngine.Events.UnityEvent, UnityEngine.CoreModule, Version=0.0.0.0,
          Culture=neutral, PublicKeyToken=null
      GameEvents: []
      SoundData:
        SoundSource: 0
        DatabaseName: General
        SoundName: No Sound
        AudioClip: {fileID: 0}
        OutputAudioMixerGroup: {fileID: 0}
    OnStart:
      AnimatorEvents: []
      Effect:
        AutoSort: 1
        Behavior: 0
        CustomSortingOrder: 0
        SortingSteps: 1
        ParticleSystem: {fileID: 0}
        StopBehavior: 1
        CustomSortingLayer: Default
      Event:
        m_PersistentCalls:
          m_Calls: []
        m_TypeName: UnityEngine.Events.UnityEvent, UnityEngine.CoreModule, Version=0.0.0.0,
          Culture=neutral, PublicKeyToken=null
      GameEvents: []
      SoundData:
        SoundSource: 0
        DatabaseName: General
        SoundName: No Sound
        AudioClip: {fileID: 0}
        OutputAudioMixerGroup: {fileID: 0}
    PresetCategory: Fade
    PresetName: OutFast
  HideProgressor: {fileID: 0}
  LoopBehavior:
    Animation:
      AnimationType: 3
      Move:
        AnimationType: 3
        Enabled: 0
        From: {x: 0, y: 0, z: 0}
        To: {x: 0, y: 0, z: 0}
        By: {x: 0, y: 0, z: 0}
        UseCustomFromAndTo: 0
        Vibrato: 10
        Elasticity: 1
        NumberOfLoops: -1
        LoopType: 1
        Direction: 0
        CustomPosition: {x: 0, y: 0, z: 0}
        EaseType: 0
        Ease: 1
        AnimationCurve:
          serializedVersion: 2
          m_Curve: []
          m_PreInfinity: 2
          m_PostInfinity: 2
          m_RotationOrder: 4
        StartDelay: 0
        Duration: 1
      Rotate:
        AnimationType: 3
        Enabled: 0
        From: {x: 0, y: 0, z: 0}
        To: {x: 0, y: 0, z: 0}
        By: {x: 0, y: 0, z: 0}
        UseCustomFromAndTo: 0
        Vibrato: 10
        Elasticity: 1
        NumberOfLoops: -1
        LoopType: 1
        RotateMode: 1
        EaseType: 0
        Ease: 1
        AnimationCurve:
          serializedVersion: 2
          m_Curve: []
          m_PreInfinity: 2
          m_PostInfinity: 2
          m_RotationOrder: 4
        StartDelay: 0
        Duration: 1
      Scale:
        AnimationType: 3
        Enabled: 0
        From: {x: 0, y: 0, z: 0}
        To: {x: 0, y: 0, z: 0}
        By: {x: 0, y: 0, z: 0}
        UseCustomFromAndTo: 0
        Vibrato: 10
        Elasticity: 1
        NumberOfLoops: -1
        LoopType: 1
        EaseType: 0
        Ease: 1
        AnimationCurve:
          serializedVersion: 2
          m_Curve: []
          m_PreInfinity: 2
          m_PostInfinity: 2
          m_RotationOrder: 4
        StartDelay: 0
        Duration: 1
      Fade:
        AnimationType: 3
        Enabled: 0
        From: 0
        To: 0
        By: 0.5
        UseCustomFromAndTo: 0
        NumberOfLoops: -1
        LoopType: 1
        EaseType: 0
        Ease: 1
        AnimationCurve:
          serializedVersion: 2
          m_Curve: []
          m_PreInfinity: 2
          m_PostInfinity: 2
          m_RotationOrder: 4
        StartDelay: 0
        Duration: 1
    AutoStartLoopAnimation: 1
    LoadSelectedPresetAtRuntime: 0
    InstantAnimation: 0
    OnFinished:
      AnimatorEvents: []
      Effect:
        AutoSort: 1
        Behavior: 0
        CustomSortingOrder: 0
        SortingSteps: 1
        ParticleSystem: {fileID: 0}
        StopBehavior: 1
        CustomSortingLayer: Default
      Event:
        m_PersistentCalls:
          m_Calls: []
        m_TypeName: UnityEngine.Events.UnityEvent, UnityEngine.CoreModule, Version=0.0.0.0,
          Culture=neutral, PublicKeyToken=null
      GameEvents: []
      SoundData:
        SoundSource: 0
        DatabaseName: General
        SoundName: No Sound
        AudioClip: {fileID: 0}
        OutputAudioMixerGroup: {fileID: 0}
    OnStart:
      AnimatorEvents: []
      Effect:
        AutoSort: 1
        Behavior: 0
        CustomSortingOrder: 0
        SortingSteps: 1
        ParticleSystem: {fileID: 0}
        StopBehavior: 1
        CustomSortingLayer: Default
      Event:
        m_PersistentCalls:
          m_Calls: []
        m_TypeName: UnityEngine.Events.UnityEvent, UnityEngine.CoreModule, Version=0.0.0.0,
          Culture=neutral, PublicKeyToken=null
      GameEvents: []
      SoundData:
        SoundSource: 0
        DatabaseName: General
        SoundName: No Sound
        AudioClip: {fileID: 0}
        OutputAudioMixerGroup: {fileID: 0}
    PresetCategory: Uncategorized
    PresetName: Default
  OnInverseVisibilityChanged:
    m_PersistentCalls:
      m_Calls: []
    m_TypeName: Doozy.Engine.Progress.ProgressEvent, Assembly-CSharp, Version=0.0.0.0,
      Culture=neutral, PublicKeyToken=null
  OnVisibilityChanged:
    m_PersistentCalls:
      m_Calls: []
    m_TypeName: Doozy.Engine.Progress.ProgressEvent, Assembly-CSharp, Version=0.0.0.0,
      Culture=neutral, PublicKeyToken=null
  SelectedButton: {fileID: 0}
  ShowBehavior:
    Animation:
      AnimationType: 1
      Move:
        AnimationType: 1
        Enabled: 0
        From: {x: 0, y: 0, z: 0}
        To: {x: 0, y: 0, z: 0}
        By: {x: 0, y: 0, z: 0}
        UseCustomFromAndTo: 0
        Vibrato: 10
        Elasticity: 1
        NumberOfLoops: -1
        LoopType: 1
        Direction: 3
        CustomPosition: {x: 0, y: 0, z: 0}
        EaseType: 0
        Ease: 3
        AnimationCurve:
          serializedVersion: 2
          m_Curve:
          - serializedVersion: 3
            time: 0
            value: 0
            inSlope: 0
            outSlope: 0
            tangentMode: 0
            weightedMode: 0
            inWeight: 0.33333334
            outWeight: 0.33333334
          - serializedVersion: 3
            time: 0.22816835
            value: 1.2861733
            inSlope: -0.08982998
            outSlope: -0.08982998
            tangentMode: 0
            weightedMode: 0
            inWeight: 0.33333334
            outWeight: 0.33333334
          - serializedVersion: 3
            time: 0.6220915
            value: 1.1371747
            inSlope: 0.94856524
            outSlope: 0.94856524
            tangentMode: 0
            weightedMode: 0
            inWeight: 0.33333334
            outWeight: 0.33333334
          - serializedVersion: 3
            time: 0.72613853
            value: 0.73627746
            inSlope: -1.5867386
            outSlope: -1.5867386
            tangentMode: 0
            weightedMode: 0
            inWeight: 0.33333334
            outWeight: 0.33333334
          - serializedVersion: 3
            time: 1
            value: 1
            inSlope: 2
            outSlope: 2
            tangentMode: 0
            weightedMode: 0
            inWeight: 0.33333334
            outWeight: 0.33333334
          m_PreInfinity: 2
          m_PostInfinity: 2
          m_RotationOrder: 4
        StartDelay: 0
        Duration: 0.2
      Rotate:
        AnimationType: 1
        Enabled: 0
        From: {x: 0, y: 180, z: 0}
        To: {x: 0, y: 0, z: 0}
        By: {x: 0, y: 0, z: 0}
        UseCustomFromAndTo: 0
        Vibrato: 10
        Elasticity: 1
        NumberOfLoops: -1
        LoopType: 1
        RotateMode: 0
        EaseType: 0
        Ease: 27
        AnimationCurve:
          serializedVersion: 2
          m_Curve:
          - serializedVersion: 3
            time: 0
            value: 0.0051574707
            inSlope: 0
            outSlope: 0
            tangentMode: 0
            weightedMode: 0
            inWeight: 0.33333334
            outWeight: 0.33333334
          - serializedVersion: 3
            time: 0.048303347
            value: 0.28854316
            inSlope: 7.8732495
            outSlope: 7.8732495
            tangentMode: 0
            weightedMode: 0
            inWeight: 0.33333334
            outWeight: 0.33333334
          - serializedVersion: 3
            time: 0.10184101
            value: -0.07756907
            inSlope: 3.7581615
            outSlope: 3.7581615
            tangentMode: 0
            weightedMode: 0
            inWeight: 0.33333334
            outWeight: 0.33333334
          - serializedVersion: 3
            time: 0.1691427
            value: 0.5604678
            inSlope: 5.091666
            outSlope: 5.091666
            tangentMode: 0
            weightedMode: 0
            inWeight: 0.33333334
            outWeight: 0.33333334
          - serializedVersion: 3
            time: 0.6416942
            value: -0.5875959
            inSlope: 1.8110614
            outSlope: 1.8110614
            tangentMode: 0
            weightedMode: 0
            inWeight: 0.33333334
            outWeight: 0.33333334
          - serializedVersion: 3
            time: 0.9733818
            value: 0.67883307
            inSlope: -4.2502594
            outSlope: -4.2502594
            tangentMode: 0
            weightedMode: 0
            inWeight: 0.33333334
            outWeight: 0.33333334
          - serializedVersion: 3
            time: 0.98996425
            value: 0.88832426
            inSlope: -2.3853254
            outSlope: -2.3853254
            tangentMode: 0
            weightedMode: 0
            inWeight: 0.33333334
            outWeight: 0.33333334
          - serializedVersion: 3
            time: 1
            value: 1.0051575
            inSlope: 2
            outSlope: 2
            tangentMode: 0
            weightedMode: 0
            inWeight: 0.33333334
            outWeight: 0.33333334
          m_PreInfinity: 2
          m_PostInfinity: 2
          m_RotationOrder: 4
        StartDelay: 0
        Duration: 0.4
      Scale:
        AnimationType: 1
        Enabled: 0
        From: {x: 0, y: 0, z: 1}
        To: {x: 0, y: 0, z: 0}
        By: {x: 0, y: 0, z: 0}
        UseCustomFromAndTo: 0
        Vibrato: 10
        Elasticity: 1
        NumberOfLoops: -1
        LoopType: 1
        EaseType: 0
        Ease: 27
        AnimationCurve:
          serializedVersion: 2
          m_Curve:
          - serializedVersion: 3
            time: 0
            value: 0
            inSlope: 2
            outSlope: 2
            tangentMode: 0
            weightedMode: 0
            inWeight: 0.33333334
            outWeight: 0.33333334
          - serializedVersion: 3
            time: 0.22024798
            value: 1.9692707
            inSlope: 0.9352582
            outSlope: 0.9352582
            tangentMode: 0
            weightedMode: 0
            inWeight: 0.33333334
            outWeight: 0.33333334
          - serializedVersion: 3
            time: 0.65045136
            value: 1.0910703
            inSlope: 0.5003349
            outSlope: 0.5003349
            tangentMode: 0
            weightedMode: 0
            inWeight: 0.33333334
            outWeight: 0.33333334
          - serializedVersion: 3
            time: 0.7293131
            value: 0.8114508
            inSlope: 1.217737
            outSlope: 1.217737
            tangentMode: 0
            weightedMode: 0
            inWeight: 0.33333334
            outWeight: 0.33333334
          - serializedVersion: 3
            time: 1
            value: 1
            inSlope: -0.943337
            outSlope: -0.943337
            tangentMode: 0
            weightedMode: 0
            inWeight: 0.33333334
            outWeight: 0.33333334
          m_PreInfinity: 2
          m_PostInfinity: 2
          m_RotationOrder: 4
        StartDelay: 0
        Duration: 0.8
      Fade:
        AnimationType: 1
        Enabled: 1
        From: 0
        To: 1
        By: 0.5
        UseCustomFromAndTo: 0
        NumberOfLoops: -1
        LoopType: 1
        EaseType: 0
        Ease: 1
        AnimationCurve:
          serializedVersion: 2
          m_Curve: []
          m_PreInfinity: 2
          m_PostInfinity: 2
          m_RotationOrder: 4
        StartDelay: 0
        Duration: 0.2
    AutoStartLoopAnimation: 1
    LoadSelectedPresetAtRuntime: 0
    InstantAnimation: 0
    OnFinished:
      AnimatorEvents: []
      Effect:
        AutoSort: 1
        Behavior: 0
        CustomSortingOrder: 0
        SortingSteps: 1
        ParticleSystem: {fileID: 0}
        StopBehavior: 1
        CustomSortingLayer: Default
      Event:
        m_PersistentCalls:
          m_Calls: []
        m_TypeName: UnityEngine.Events.UnityEvent, UnityEngine.CoreModule, Version=0.0.0.0,
          Culture=neutral, PublicKeyToken=null
      GameEvents: []
      SoundData:
        SoundSource: 0
        DatabaseName: General
        SoundName: No Sound
        AudioClip: {fileID: 0}
        OutputAudioMixerGroup: {fileID: 0}
    OnStart:
      AnimatorEvents: []
      Effect:
        AutoSort: 1
        Behavior: 0
        CustomSortingOrder: 0
        SortingSteps: 1
        ParticleSystem: {fileID: 0}
        StopBehavior: 1
        CustomSortingLayer: Default
      Event:
        m_PersistentCalls:
          m_Calls: []
        m_TypeName: UnityEngine.Events.UnityEvent, UnityEngine.CoreModule, Version=0.0.0.0,
          Culture=neutral, PublicKeyToken=null
      GameEvents: []
      SoundData:
        SoundSource: 0
        DatabaseName: General
        SoundName: No Sound
        AudioClip: {fileID: 0}
        OutputAudioMixerGroup: {fileID: 0}
    PresetCategory: Fade
    PresetName: InFast
  ShowProgressor: {fileID: 0}
  TargetOrientation: 2
  UpdateHideProgressorOnShow: 0
  UpdateShowProgressorOnHide: 0
  UseCustomStartAnchoredPosition: 1
  ViewCategory: General
  ViewName: Unnamed
--- !u!1001 &1395641936269291759
PrefabInstance:
  m_ObjectHideFlags: 0
  serializedVersion: 2
  m_Modification:
    m_TransformParent: {fileID: 7581517094652514990}
    m_Modifications:
    - target: {fileID: 7089075401367675618, guid: c747da19e5243fb4b9a040a7e1ff21d8,
        type: 3}
      propertyPath: m_Name
      value: NeoButton - Circle
      objectReference: {fileID: 0}
    - target: {fileID: 7089075401367675619, guid: c747da19e5243fb4b9a040a7e1ff21d8,
        type: 3}
      propertyPath: m_LocalPosition.x
      value: 0
      objectReference: {fileID: 0}
    - target: {fileID: 7089075401367675619, guid: c747da19e5243fb4b9a040a7e1ff21d8,
        type: 3}
      propertyPath: m_LocalPosition.y
      value: 0
      objectReference: {fileID: 0}
    - target: {fileID: 7089075401367675619, guid: c747da19e5243fb4b9a040a7e1ff21d8,
        type: 3}
      propertyPath: m_LocalPosition.z
      value: 0
      objectReference: {fileID: 0}
    - target: {fileID: 7089075401367675619, guid: c747da19e5243fb4b9a040a7e1ff21d8,
        type: 3}
      propertyPath: m_LocalRotation.x
      value: 0
      objectReference: {fileID: 0}
    - target: {fileID: 7089075401367675619, guid: c747da19e5243fb4b9a040a7e1ff21d8,
        type: 3}
      propertyPath: m_LocalRotation.y
      value: 0
      objectReference: {fileID: 0}
    - target: {fileID: 7089075401367675619, guid: c747da19e5243fb4b9a040a7e1ff21d8,
        type: 3}
      propertyPath: m_LocalRotation.z
      value: 0
      objectReference: {fileID: 0}
    - target: {fileID: 7089075401367675619, guid: c747da19e5243fb4b9a040a7e1ff21d8,
        type: 3}
      propertyPath: m_LocalRotation.w
      value: 1
      objectReference: {fileID: 0}
    - target: {fileID: 7089075401367675619, guid: c747da19e5243fb4b9a040a7e1ff21d8,
        type: 3}
      propertyPath: m_RootOrder
      value: 0
      objectReference: {fileID: 0}
    - target: {fileID: 7089075401367675619, guid: c747da19e5243fb4b9a040a7e1ff21d8,
        type: 3}
      propertyPath: m_LocalEulerAnglesHint.x
      value: 0
      objectReference: {fileID: 0}
    - target: {fileID: 7089075401367675619, guid: c747da19e5243fb4b9a040a7e1ff21d8,
        type: 3}
      propertyPath: m_LocalEulerAnglesHint.y
      value: 0
      objectReference: {fileID: 0}
    - target: {fileID: 7089075401367675619, guid: c747da19e5243fb4b9a040a7e1ff21d8,
        type: 3}
      propertyPath: m_LocalEulerAnglesHint.z
      value: 0
      objectReference: {fileID: 0}
    - target: {fileID: 7089075401367675619, guid: c747da19e5243fb4b9a040a7e1ff21d8,
        type: 3}
      propertyPath: m_AnchoredPosition.x
      value: -32
      objectReference: {fileID: 0}
    - target: {fileID: 7089075401367675619, guid: c747da19e5243fb4b9a040a7e1ff21d8,
        type: 3}
      propertyPath: m_AnchoredPosition.y
      value: -32
      objectReference: {fileID: 0}
    - target: {fileID: 7089075401367675619, guid: c747da19e5243fb4b9a040a7e1ff21d8,
        type: 3}
      propertyPath: m_SizeDelta.x
      value: 48
      objectReference: {fileID: 0}
    - target: {fileID: 7089075401367675619, guid: c747da19e5243fb4b9a040a7e1ff21d8,
        type: 3}
      propertyPath: m_SizeDelta.y
      value: 48
      objectReference: {fileID: 0}
    - target: {fileID: 7089075401367675619, guid: c747da19e5243fb4b9a040a7e1ff21d8,
        type: 3}
      propertyPath: m_AnchorMin.x
      value: 1
      objectReference: {fileID: 0}
    - target: {fileID: 7089075401367675619, guid: c747da19e5243fb4b9a040a7e1ff21d8,
        type: 3}
      propertyPath: m_AnchorMin.y
      value: 1
      objectReference: {fileID: 0}
    - target: {fileID: 7089075401367675619, guid: c747da19e5243fb4b9a040a7e1ff21d8,
        type: 3}
      propertyPath: m_AnchorMax.x
      value: 1
      objectReference: {fileID: 0}
    - target: {fileID: 7089075401367675619, guid: c747da19e5243fb4b9a040a7e1ff21d8,
        type: 3}
      propertyPath: m_AnchorMax.y
      value: 1
      objectReference: {fileID: 0}
    - target: {fileID: 7089075401367675619, guid: c747da19e5243fb4b9a040a7e1ff21d8,
        type: 3}
      propertyPath: m_Pivot.x
      value: 0.5
      objectReference: {fileID: 0}
    - target: {fileID: 7089075401367675619, guid: c747da19e5243fb4b9a040a7e1ff21d8,
        type: 3}
      propertyPath: m_Pivot.y
      value: 0.5
      objectReference: {fileID: 0}
    - target: {fileID: 424147393810235203, guid: c747da19e5243fb4b9a040a7e1ff21d8,
        type: 3}
      propertyPath: m_SizeDelta.x
      value: 24
      objectReference: {fileID: 0}
    - target: {fileID: 424147393810235203, guid: c747da19e5243fb4b9a040a7e1ff21d8,
        type: 3}
      propertyPath: m_SizeDelta.y
      value: 24
      objectReference: {fileID: 0}
    - target: {fileID: 424147393810235201, guid: c747da19e5243fb4b9a040a7e1ff21d8,
        type: 3}
      propertyPath: m_Sprite
      value: 
      objectReference: {fileID: 21300000, guid: 7230cde242c8d0748a82c58eb837712a,
        type: 3}
    - target: {fileID: 7089075401634149478, guid: c747da19e5243fb4b9a040a7e1ff21d8,
        type: 3}
      propertyPath: m_AnchoredPosition.x
      value: -4
      objectReference: {fileID: 0}
    - target: {fileID: 7089075401634149478, guid: c747da19e5243fb4b9a040a7e1ff21d8,
        type: 3}
      propertyPath: m_SizeDelta.x
      value: 8
      objectReference: {fileID: 0}
    - target: {fileID: 7089075401634149478, guid: c747da19e5243fb4b9a040a7e1ff21d8,
        type: 3}
      propertyPath: m_AnchoredPosition.y
      value: 4
      objectReference: {fileID: 0}
    - target: {fileID: 7089075401634149478, guid: c747da19e5243fb4b9a040a7e1ff21d8,
        type: 3}
      propertyPath: m_SizeDelta.y
      value: 8
      objectReference: {fileID: 0}
    - target: {fileID: 7089075401061377516, guid: c747da19e5243fb4b9a040a7e1ff21d8,
        type: 3}
      propertyPath: m_AnchoredPosition.x
      value: 4
      objectReference: {fileID: 0}
    - target: {fileID: 7089075401061377516, guid: c747da19e5243fb4b9a040a7e1ff21d8,
        type: 3}
      propertyPath: m_SizeDelta.x
      value: 8
      objectReference: {fileID: 0}
    - target: {fileID: 7089075401061377516, guid: c747da19e5243fb4b9a040a7e1ff21d8,
        type: 3}
      propertyPath: m_AnchoredPosition.y
      value: -4
      objectReference: {fileID: 0}
    - target: {fileID: 7089075401061377516, guid: c747da19e5243fb4b9a040a7e1ff21d8,
        type: 3}
      propertyPath: m_SizeDelta.y
      value: 8
      objectReference: {fileID: 0}
    - target: {fileID: 3483196492123162096, guid: c747da19e5243fb4b9a040a7e1ff21d8,
        type: 3}
      propertyPath: m_AnchoredPosition.x
      value: 7
      objectReference: {fileID: 0}
    - target: {fileID: 3483196492123162096, guid: c747da19e5243fb4b9a040a7e1ff21d8,
        type: 3}
      propertyPath: m_AnchoredPosition.y
      value: -1
      objectReference: {fileID: 0}
    - target: {fileID: 3483196492123162096, guid: c747da19e5243fb4b9a040a7e1ff21d8,
        type: 3}
      propertyPath: m_SizeDelta.x
      value: 0.00000047683716
      objectReference: {fileID: 0}
    - target: {fileID: 3483196492123162096, guid: c747da19e5243fb4b9a040a7e1ff21d8,
        type: 3}
      propertyPath: m_SizeDelta.y
      value: 0
      objectReference: {fileID: 0}
    - target: {fileID: 3483196491278245077, guid: c747da19e5243fb4b9a040a7e1ff21d8,
        type: 3}
      propertyPath: m_AnchoredPosition.y
      value: 1
      objectReference: {fileID: 0}
    - target: {fileID: 3483196491278245077, guid: c747da19e5243fb4b9a040a7e1ff21d8,
        type: 3}
      propertyPath: m_AnchoredPosition.x
      value: -7
      objectReference: {fileID: 0}
    - target: {fileID: 3483196491278245077, guid: c747da19e5243fb4b9a040a7e1ff21d8,
        type: 3}
      propertyPath: m_SizeDelta.x
      value: 0
      objectReference: {fileID: 0}
    - target: {fileID: 3483196491278245077, guid: c747da19e5243fb4b9a040a7e1ff21d8,
        type: 3}
      propertyPath: m_SizeDelta.y
      value: 0
      objectReference: {fileID: 0}
    - target: {fileID: 3483196491278245076, guid: c747da19e5243fb4b9a040a7e1ff21d8,
        type: 3}
      propertyPath: m_IsActive
      value: 0
      objectReference: {fileID: 0}
    - target: {fileID: 3483196492123162111, guid: c747da19e5243fb4b9a040a7e1ff21d8,
        type: 3}
      propertyPath: m_IsActive
      value: 0
      objectReference: {fileID: 0}
    m_RemovedComponents: []
  m_SourcePrefab: {fileID: 100100000, guid: c747da19e5243fb4b9a040a7e1ff21d8, type: 3}
--- !u!1001 &1395641936686213582
PrefabInstance:
  m_ObjectHideFlags: 0
  serializedVersion: 2
  m_Modification:
    m_TransformParent: {fileID: 1395641936516395169}
    m_Modifications:
    - target: {fileID: 5338481813847334700, guid: a0a7529068019ac449e94f5adbeecf7c,
        type: 3}
      propertyPath: m_Name
      value: Panel - Simple - Round
      objectReference: {fileID: 0}
    - target: {fileID: 8820481647859301216, guid: a0a7529068019ac449e94f5adbeecf7c,
        type: 3}
      propertyPath: m_LocalPosition.x
      value: 0
      objectReference: {fileID: 0}
    - target: {fileID: 8820481647859301216, guid: a0a7529068019ac449e94f5adbeecf7c,
        type: 3}
      propertyPath: m_LocalPosition.y
      value: 0
      objectReference: {fileID: 0}
    - target: {fileID: 8820481647859301216, guid: a0a7529068019ac449e94f5adbeecf7c,
        type: 3}
      propertyPath: m_LocalPosition.z
      value: 0
      objectReference: {fileID: 0}
    - target: {fileID: 8820481647859301216, guid: a0a7529068019ac449e94f5adbeecf7c,
        type: 3}
      propertyPath: m_LocalRotation.x
      value: -0
      objectReference: {fileID: 0}
    - target: {fileID: 8820481647859301216, guid: a0a7529068019ac449e94f5adbeecf7c,
        type: 3}
      propertyPath: m_LocalRotation.y
      value: -0
      objectReference: {fileID: 0}
    - target: {fileID: 8820481647859301216, guid: a0a7529068019ac449e94f5adbeecf7c,
        type: 3}
      propertyPath: m_LocalRotation.z
      value: -0
      objectReference: {fileID: 0}
    - target: {fileID: 8820481647859301216, guid: a0a7529068019ac449e94f5adbeecf7c,
        type: 3}
      propertyPath: m_LocalRotation.w
      value: 1
      objectReference: {fileID: 0}
    - target: {fileID: 8820481647859301216, guid: a0a7529068019ac449e94f5adbeecf7c,
        type: 3}
      propertyPath: m_RootOrder
      value: 0
      objectReference: {fileID: 0}
    - target: {fileID: 8820481647859301216, guid: a0a7529068019ac449e94f5adbeecf7c,
        type: 3}
      propertyPath: m_LocalEulerAnglesHint.x
      value: 0
      objectReference: {fileID: 0}
    - target: {fileID: 8820481647859301216, guid: a0a7529068019ac449e94f5adbeecf7c,
        type: 3}
      propertyPath: m_LocalEulerAnglesHint.y
      value: 0
      objectReference: {fileID: 0}
    - target: {fileID: 8820481647859301216, guid: a0a7529068019ac449e94f5adbeecf7c,
        type: 3}
      propertyPath: m_LocalEulerAnglesHint.z
      value: 0
      objectReference: {fileID: 0}
    - target: {fileID: 8820481647859301216, guid: a0a7529068019ac449e94f5adbeecf7c,
        type: 3}
      propertyPath: m_AnchoredPosition.x
      value: 0
      objectReference: {fileID: 0}
    - target: {fileID: 8820481647859301216, guid: a0a7529068019ac449e94f5adbeecf7c,
        type: 3}
      propertyPath: m_AnchoredPosition.y
      value: 0
      objectReference: {fileID: 0}
    - target: {fileID: 8820481647859301216, guid: a0a7529068019ac449e94f5adbeecf7c,
        type: 3}
      propertyPath: m_SizeDelta.x
      value: -64
      objectReference: {fileID: 0}
    - target: {fileID: 8820481647859301216, guid: a0a7529068019ac449e94f5adbeecf7c,
        type: 3}
      propertyPath: m_SizeDelta.y
      value: -64
      objectReference: {fileID: 0}
    - target: {fileID: 8820481647859301216, guid: a0a7529068019ac449e94f5adbeecf7c,
        type: 3}
      propertyPath: m_AnchorMin.x
      value: 0
      objectReference: {fileID: 0}
    - target: {fileID: 8820481647859301216, guid: a0a7529068019ac449e94f5adbeecf7c,
        type: 3}
      propertyPath: m_AnchorMin.y
      value: 0
      objectReference: {fileID: 0}
    - target: {fileID: 8820481647859301216, guid: a0a7529068019ac449e94f5adbeecf7c,
        type: 3}
      propertyPath: m_AnchorMax.x
      value: 1
      objectReference: {fileID: 0}
    - target: {fileID: 8820481647859301216, guid: a0a7529068019ac449e94f5adbeecf7c,
        type: 3}
      propertyPath: m_AnchorMax.y
      value: 1
      objectReference: {fileID: 0}
    - target: {fileID: 8820481647859301216, guid: a0a7529068019ac449e94f5adbeecf7c,
        type: 3}
      propertyPath: m_Pivot.x
      value: 0.5
      objectReference: {fileID: 0}
    - target: {fileID: 8820481647859301216, guid: a0a7529068019ac449e94f5adbeecf7c,
        type: 3}
      propertyPath: m_Pivot.y
      value: 0.5
      objectReference: {fileID: 0}
    m_RemovedComponents: []
  m_SourcePrefab: {fileID: 100100000, guid: a0a7529068019ac449e94f5adbeecf7c, type: 3}
--- !u!224 &7581517094652514990 stripped
RectTransform:
  m_CorrespondingSourceObject: {fileID: 8820481647859301216, guid: a0a7529068019ac449e94f5adbeecf7c,
    type: 3}
  m_PrefabInstance: {fileID: 1395641936686213582}
  m_PrefabAsset: {fileID: 0}
