%YAML 1.1
%TAG !u! tag:unity3d.com,2011:
--- !u!114 &1752581996964579502
MonoBehaviour:
  m_ObjectHideFlags: 0
  m_CorrespondingSourceObject: {fileID: 0}
  m_PrefabInstance: {fileID: 0}
  m_PrefabAsset: {fileID: 0}
  m_GameObject: {fileID: 537693660195529433}
  m_Enabled: 1
  m_EditorHideFlags: 0
  m_Script: {fileID: -1200242548, guid: f70555f144d8491a825f0804e09c671c, type: 3}
  m_Name: 
  m_EditorClassIdentifier: 
  m_ShowMaskGraphic: 1
--- !u!1 &1369878528810085558
GameObject:
  m_ObjectHideFlags: 0
  m_CorrespondingSourceObject: {fileID: 0}
  m_PrefabInstance: {fileID: 0}
  m_PrefabAsset: {fileID: 0}
  serializedVersion: 6
  m_Component:
  - component: {fileID: 2013402884258710624}
  - component: {fileID: 5055934403426568172}
  - component: {fileID: 4776482554760195376}
  - component: {fileID: 1026158632116961556}
  m_Layer: 0
  m_Name: Subtitle
  m_TagString: Untagged
  m_Icon: {fileID: 0}
  m_NavMeshLayer: 0
  m_StaticEditorFlags: 0
  m_IsActive: 1
--- !u!224 &2013402884258710624
RectTransform:
  m_ObjectHideFlags: 0
  m_CorrespondingSourceObject: {fileID: 0}
  m_PrefabInstance: {fileID: 0}
  m_PrefabAsset: {fileID: 0}
  m_GameObject: {fileID: 1369878528810085558}
  m_LocalRotation: {x: -0, y: -0, z: -0, w: 1}
  m_LocalPosition: {x: 0, y: 0, z: 0}
  m_LocalScale: {x: 1, y: 1, z: 1}
  m_Children: []
  m_Father: {fileID: 1367588212343262759}
  m_RootOrder: 1
  m_LocalEulerAnglesHint: {x: 0, y: 0, z: 0}
  m_AnchorMin: {x: 0, y: 0}
  m_AnchorMax: {x: 1, y: 0}
  m_AnchoredPosition: {x: 0, y: 208}
  m_SizeDelta: {x: -64, y: 208}
  m_Pivot: {x: 0.5, y: 0.5}
--- !u!222 &5055934403426568172
CanvasRenderer:
  m_ObjectHideFlags: 0
  m_CorrespondingSourceObject: {fileID: 0}
  m_PrefabInstance: {fileID: 0}
  m_PrefabAsset: {fileID: 0}
  m_GameObject: {fileID: 1369878528810085558}
  m_CullTransparentMesh: 0
--- !u!114 &4776482554760195376
MonoBehaviour:
  m_ObjectHideFlags: 0
  m_CorrespondingSourceObject: {fileID: 0}
  m_PrefabInstance: {fileID: 0}
  m_PrefabAsset: {fileID: 0}
  m_GameObject: {fileID: 1369878528810085558}
  m_Enabled: 1
  m_EditorHideFlags: 0
  m_Script: {fileID: 11500000, guid: f4688fdb7df04437aeb418b961361dc5, type: 3}
  m_Name: 
  m_EditorClassIdentifier: 
  m_Material: {fileID: 0}
  m_Color: {r: 1, g: 1, b: 1, a: 1}
  m_RaycastTarget: 1
  m_OnCullStateChanged:
    m_PersistentCalls:
      m_Calls: []
    m_TypeName: UnityEngine.UI.MaskableGraphic+CullStateChangedEvent, UnityEngine.UI,
      Version=1.0.0.0, Culture=neutral, PublicKeyToken=null
  m_text: Fusce aliquam diam ut felis lobortis rutrum. Vivamus tristique justo in
    turpis tristique maximus. Praesent bibendum ligula vitae mauris tristique volutpat.
    Maecenas semper lacus id enim dictum gravida.
  m_isRightToLeft: 0
  m_fontAsset: {fileID: 11400000, guid: 643aebd7124d3c34bb062c5a60ebb5a8, type: 2}
  m_sharedMaterial: {fileID: 4835089367266696174, guid: 643aebd7124d3c34bb062c5a60ebb5a8,
    type: 2}
  m_fontSharedMaterials: []
  m_fontMaterial: {fileID: 0}
  m_fontMaterials: []
  m_fontColor32:
    serializedVersion: 2
    rgba: 4288646787
  m_fontColor: {r: 0.5137255, g: 0.5568628, b: 0.62352943, a: 1}
  m_enableVertexGradient: 0
  m_colorMode: 3
  m_fontColorGradient:
    topLeft: {r: 1, g: 1, b: 1, a: 1}
    topRight: {r: 1, g: 1, b: 1, a: 1}
    bottomLeft: {r: 1, g: 1, b: 1, a: 1}
    bottomRight: {r: 1, g: 1, b: 1, a: 1}
  m_fontColorGradientPreset: {fileID: 0}
  m_spriteAsset: {fileID: 0}
  m_tintAllSprites: 0
  m_overrideHtmlColors: 0
  m_faceColor:
    serializedVersion: 2
    rgba: 4294967295
  m_outlineColor:
    serializedVersion: 2
    rgba: 4278190080
  m_fontSize: 16
  m_fontSizeBase: 16
  m_fontWeight: 400
  m_enableAutoSizing: 0
  m_fontSizeMin: 8
  m_fontSizeMax: 16
  m_fontStyle: 0
  m_textAlignment: 264
  m_characterSpacing: 0
  m_wordSpacing: 0
  m_lineSpacing: 0
  m_lineSpacingMax: 0
  m_paragraphSpacing: 0
  m_charWidthMaxAdj: 0
  m_enableWordWrapping: 1
  m_wordWrappingRatios: 0.4
  m_overflowMode: 1
  m_firstOverflowCharacterIndex: -1
  m_linkedTextComponent: {fileID: 0}
  m_isLinkedTextComponent: 0
  m_isTextTruncated: 0
  m_enableKerning: 1
  m_enableExtraPadding: 0
  checkPaddingRequired: 0
  m_isRichText: 1
  m_parseCtrlCharacters: 1
  m_isOrthographic: 1
  m_isCullingEnabled: 0
  m_ignoreRectMaskCulling: 0
  m_ignoreCulling: 1
  m_horizontalMapping: 0
  m_verticalMapping: 0
  m_uvLineOffset: 0
  m_geometrySortingOrder: 0
  m_VertexBufferAutoSizeReduction: 1
  m_firstVisibleCharacter: 0
  m_useMaxVisibleDescender: 1
  m_pageToDisplay: 1
  m_margin: {x: 0, y: 0, z: 0, w: 0}
  m_textInfo:
    textComponent: {fileID: 4776482554760195376}
    characterCount: 201
    spriteCount: 0
    spaceCount: 27
    wordCount: 28
    linkCount: 0
    lineCount: 4
    pageCount: 1
    materialCount: 1
  m_isUsingLegacyAnimationComponent: 0
  m_isVolumetricText: 0
  m_spriteAnimator: {fileID: 0}
  m_hasFontAssetChanged: 0
  m_subTextObjects:
  - {fileID: 0}
  - {fileID: 0}
  - {fileID: 0}
  - {fileID: 0}
  - {fileID: 0}
  - {fileID: 0}
  - {fileID: 0}
  - {fileID: 0}
  m_baseMaterial: {fileID: 0}
  m_maskOffset: {x: 0, y: 0, z: 0, w: 0}
--- !u!114 &1026158632116961556
MonoBehaviour:
  m_ObjectHideFlags: 0
  m_CorrespondingSourceObject: {fileID: 0}
  m_PrefabInstance: {fileID: 0}
  m_PrefabAsset: {fileID: 0}
  m_GameObject: {fileID: 1369878528810085558}
  m_Enabled: 1
  m_EditorHideFlags: 0
  m_Script: {fileID: 11500000, guid: 8f34e6c94be345baaafed933eb7531ca, type: 3}
  m_Name: 
  m_EditorClassIdentifier: 
  ThemeIdSerializedGuid: 4970eed67e2b864e9e16a851bb1066cb
  VariantIdSerializedGuid: 
  PropertyIdSerializedGuid: 2c3d61b82e5f674f9dab31c31fe71403
  TextMeshPro: {fileID: 4776482554760195376}
  OverrideAlpha: 0
  Alpha: 0
--- !u!1 &1752581995660656732
GameObject:
  m_ObjectHideFlags: 0
  m_CorrespondingSourceObject: {fileID: 0}
  m_PrefabInstance: {fileID: 0}
  m_PrefabAsset: {fileID: 0}
  serializedVersion: 6
  m_Component:
  - component: {fileID: 1752581995660656739}
  - component: {fileID: 1752581995660656740}
  - component: {fileID: 1752581995660656741}
  - component: {fileID: 1752581995660656742}
  - component: {fileID: 1752581995660656743}
  - component: {fileID: 1752581995660656736}
  - component: {fileID: 1752581995660656737}
  - component: {fileID: 1752581995660656738}
  m_Layer: 0
  m_Name: View - 6
  m_TagString: Untagged
  m_Icon: {fileID: 0}
  m_NavMeshLayer: 0
  m_StaticEditorFlags: 0
  m_IsActive: 1
--- !u!224 &1752581995660656739
RectTransform:
  m_ObjectHideFlags: 0
  m_CorrespondingSourceObject: {fileID: 0}
  m_PrefabInstance: {fileID: 0}
  m_PrefabAsset: {fileID: 0}
  m_GameObject: {fileID: 1752581995660656732}
  m_LocalRotation: {x: 0, y: 0, z: 0, w: 1}
  m_LocalPosition: {x: 0, y: 0, z: 0}
  m_LocalScale: {x: 1, y: 1, z: 1}
  m_Children:
  - {fileID: 6581083755024398227}
  m_Father: {fileID: 0}
  m_RootOrder: 0
  m_LocalEulerAnglesHint: {x: 0, y: 0, z: 0}
  m_AnchorMin: {x: 0.5, y: 0.5}
  m_AnchorMax: {x: 0.5, y: 0.5}
  m_AnchoredPosition: {x: 0, y: 0}
  m_SizeDelta: {x: 384, y: 768}
  m_Pivot: {x: 0.5, y: 0.5}
--- !u!223 &1752581995660656740
Canvas:
  m_ObjectHideFlags: 0
  m_CorrespondingSourceObject: {fileID: 0}
  m_PrefabInstance: {fileID: 0}
  m_PrefabAsset: {fileID: 0}
  m_GameObject: {fileID: 1752581995660656732}
  m_Enabled: 1
  serializedVersion: 3
  m_RenderMode: 2
  m_Camera: {fileID: 0}
  m_PlaneDistance: 100
  m_PixelPerfect: 0
  m_ReceivesEvents: 1
  m_OverrideSorting: 0
  m_OverridePixelPerfect: 0
  m_SortingBucketNormalizedSize: 0
  m_AdditionalShaderChannelsFlag: 25
  m_SortingLayerID: 0
  m_SortingOrder: 0
  m_TargetDisplay: 0
--- !u!114 &1752581995660656741
MonoBehaviour:
  m_ObjectHideFlags: 0
  m_CorrespondingSourceObject: {fileID: 0}
  m_PrefabInstance: {fileID: 0}
  m_PrefabAsset: {fileID: 0}
  m_GameObject: {fileID: 1752581995660656732}
  m_Enabled: 1
  m_EditorHideFlags: 0
  m_Script: {fileID: 1301386320, guid: f70555f144d8491a825f0804e09c671c, type: 3}
  m_Name: 
  m_EditorClassIdentifier: 
  m_IgnoreReversedGraphics: 1
  m_BlockingObjects: 0
  m_BlockingMask:
    serializedVersion: 2
    m_Bits: 4294967295
--- !u!225 &1752581995660656742
CanvasGroup:
  m_ObjectHideFlags: 0
  m_CorrespondingSourceObject: {fileID: 0}
  m_PrefabInstance: {fileID: 0}
  m_PrefabAsset: {fileID: 0}
  m_GameObject: {fileID: 1752581995660656732}
  m_Enabled: 1
  m_Alpha: 1
  m_Interactable: 1
  m_BlocksRaycasts: 1
  m_IgnoreParentGroups: 0
--- !u!114 &1752581995660656743
MonoBehaviour:
  m_ObjectHideFlags: 0
  m_CorrespondingSourceObject: {fileID: 0}
  m_PrefabInstance: {fileID: 0}
  m_PrefabAsset: {fileID: 0}
  m_GameObject: {fileID: 1752581995660656732}
  m_Enabled: 1
  m_EditorHideFlags: 0
  m_Script: {fileID: 11500000, guid: 314affd16bceddb4c99fbaa07de901d9, type: 3}
  m_Name: 
  m_EditorClassIdentifier: 
  DebugMode: 0
  StartPosition: {x: 0, y: 0, z: 0}
  StartRotation: {x: -0, y: 0, z: 0}
  StartScale: {x: 1, y: 1, z: 1}
  StartAlpha: 1
  AutoHideAfterShow: 0
  AutoHideAfterShowDelay: 3
  AutoSelectButtonAfterShow: 0
  BehaviorAtStart: 1
  CustomStartAnchoredPosition: {x: 0, y: 0, z: 0}
  DeselectAnyButtonSelectedOnHide: 0
  DeselectAnyButtonSelectedOnShow: 0
  DisableCanvasWhenHidden: 1
  DisableGameObjectWhenHidden: 1
  DisableGraphicRaycasterWhenHidden: 1
  HideBehavior:
    Animation:
      AnimationType: 2
      Move:
        AnimationType: 2
        Enabled: 1
        From: {x: 0, y: 0, z: 0}
        To: {x: 0, y: 0, z: 0}
        By: {x: 0, y: 0, z: 0}
        UseCustomFromAndTo: 0
        Vibrato: 10
        Elasticity: 1
        NumberOfLoops: -1
        LoopType: 1
        Direction: 1
        CustomPosition: {x: 0, y: 0, z: 0}
        EaseType: 0
        Ease: 20
        AnimationCurve:
          serializedVersion: 2
          m_Curve:
          - serializedVersion: 3
            time: 0
            value: 0
            inSlope: 2.7912683
            outSlope: 2.7912683
            tangentMode: 0
            weightedMode: 0
            inWeight: 0.33333334
            outWeight: 0.33333334
          - serializedVersion: 3
            time: 0.1591474
            value: 0.27871615
            inSlope: -3.5244074
            outSlope: -3.5244074
            tangentMode: 0
            weightedMode: 0
            inWeight: 0.33333334
            outWeight: 0.33333334
          - serializedVersion: 3
            time: 0.36119476
            value: 0.4033309
            inSlope: -2.5759792
            outSlope: -2.5759792
            tangentMode: 0
            weightedMode: 0
            inWeight: 0.33333334
            outWeight: 0.33333334
          - serializedVersion: 3
            time: 0.6268808
            value: 0.69904834
            inSlope: -2.6110096
            outSlope: -2.6110096
            tangentMode: 0
            weightedMode: 0
            inWeight: 0.33333334
            outWeight: 0.33333334
          - serializedVersion: 3
            time: 0.8133894
            value: 0.8256105
            inSlope: -1.7523863
            outSlope: -1.7523863
            tangentMode: 0
            weightedMode: 0
            inWeight: 0.33333334
            outWeight: 0.33333334
          - serializedVersion: 3
            time: 1
            value: 1
            inSlope: 1
            outSlope: 1
            tangentMode: 0
            weightedMode: 0
            inWeight: 0.33333334
            outWeight: 0.33333334
          m_PreInfinity: 2
          m_PostInfinity: 2
          m_RotationOrder: 4
        StartDelay: 0.2
        Duration: 0.4
      Rotate:
        AnimationType: 2
        Enabled: 0
        From: {x: 0, y: 0, z: 0}
        To: {x: 0, y: 0, z: 45}
        By: {x: 0, y: 0, z: 0}
        UseCustomFromAndTo: 0
        Vibrato: 10
        Elasticity: 1
        NumberOfLoops: -1
        LoopType: 1
        RotateMode: 0
        EaseType: 0
        Ease: 22
        AnimationCurve:
          serializedVersion: 2
          m_Curve:
          - serializedVersion: 3
            time: 0
            value: 0
            inSlope: 7.0383096
            outSlope: 7.0383096
            tangentMode: 0
            weightedMode: 0
            inWeight: 0.33333334
            outWeight: 0.33333334
          - serializedVersion: 3
            time: 0.017583081
            value: 0.18718478
            inSlope: 0.08300995
            outSlope: 0.08300995
            tangentMode: 0
            weightedMode: 0
            inWeight: 0.33333334
            outWeight: 0.33333334
          - serializedVersion: 3
            time: 0.057600502
            value: 0.12739694
            inSlope: 4.0301647
            outSlope: 4.0301647
            tangentMode: 0
            weightedMode: 0
            inWeight: 0.33333334
            outWeight: 0.33333334
          - serializedVersion: 3
            time: 0.09568673
            value: 0.25189704
            inSlope: -3.516668
            outSlope: -3.516668
            tangentMode: 0
            weightedMode: 0
            inWeight: 0.33333334
            outWeight: 0.33333334
          - serializedVersion: 3
            time: 0.15432346
            value: 0.2683969
            inSlope: -4.011477
            outSlope: -4.011477
            tangentMode: 0
            weightedMode: 0
            inWeight: 0.33333334
            outWeight: 0.33333334
          - serializedVersion: 3
            time: 0.6206393
            value: 0.37496966
            inSlope: -1.7194864
            outSlope: -1.7194864
            tangentMode: 0
            weightedMode: 0
            inWeight: 0.33333334
            outWeight: 0.33333334
          - serializedVersion: 3
            time: 1
            value: 1
            inSlope: 4.481586
            outSlope: 4.481586
            tangentMode: 0
            weightedMode: 0
            inWeight: 0.33333334
            outWeight: 0.33333334
          m_PreInfinity: 2
          m_PostInfinity: 2
          m_RotationOrder: 4
        StartDelay: 0
        Duration: 0.6
      Scale:
        AnimationType: 2
        Enabled: 0
        From: {x: 0, y: 0, z: 0}
        To: {x: 1.5, y: 0.9, z: 1}
        By: {x: 0, y: 0, z: 0}
        UseCustomFromAndTo: 0
        Vibrato: 10
        Elasticity: 1
        NumberOfLoops: -1
        LoopType: 1
        EaseType: 0
        Ease: 20
        AnimationCurve:
          serializedVersion: 2
          m_Curve:
          - serializedVersion: 3
            time: 0
            value: 0
            inSlope: -5.9445815
            outSlope: -5.9445815
            tangentMode: 0
            weightedMode: 0
            inWeight: 0.33333334
            outWeight: 0.33333334
          - serializedVersion: 3
            time: 0.16861793
            value: -0.6560375
            inSlope: 1.6450882
            outSlope: 1.6450882
            tangentMode: 0
            weightedMode: 0
            inWeight: 0.33333334
            outWeight: 0.33333334
          - serializedVersion: 3
            time: 0.39923504
            value: 1.2821069
            inSlope: 0.10174093
            outSlope: 0.10174093
            tangentMode: 0
            weightedMode: 0
            inWeight: 0.33333334
            outWeight: 0.33333334
          - serializedVersion: 3
            time: 0.5896755
            value: 0.7484784
            inSlope: 1.7945546
            outSlope: 1.7945546
            tangentMode: 0
            weightedMode: 0
            inWeight: 0.33333334
            outWeight: 0.33333334
          - serializedVersion: 3
            time: 1
            value: 1
            inSlope: 0
            outSlope: 0
            tangentMode: 0
            weightedMode: 0
            inWeight: 0.33333334
            outWeight: 0.33333334
          m_PreInfinity: 2
          m_PostInfinity: 2
          m_RotationOrder: 4
        StartDelay: 0.3
        Duration: 0.3
      Fade:
        AnimationType: 2
        Enabled: 1
        From: 0
        To: 0
        By: 0.5
        UseCustomFromAndTo: 0
        NumberOfLoops: -1
        LoopType: 1
        EaseType: 0
        Ease: 1
        AnimationCurve:
          serializedVersion: 2
          m_Curve: []
          m_PreInfinity: 2
          m_PostInfinity: 2
          m_RotationOrder: 4
        StartDelay: 0.3
        Duration: 0.3
    AutoStartLoopAnimation: 1
    LoadSelectedPresetAtRuntime: 0
    InstantAnimation: 0
    OnFinished:
      AnimatorEvents: []
      Effect:
        AutoSort: 1
        Behavior: 0
        CustomSortingOrder: 0
        SortingSteps: 1
        ParticleSystem: {fileID: 0}
        StopBehavior: 1
        CustomSortingLayer: Default
      Event:
        m_PersistentCalls:
          m_Calls: []
        m_TypeName: UnityEngine.Events.UnityEvent, UnityEngine.CoreModule, Version=0.0.0.0,
          Culture=neutral, PublicKeyToken=null
      GameEvents: []
      SoundData:
        SoundSource: 0
        DatabaseName: General
        SoundName: No Sound
        AudioClip: {fileID: 0}
        OutputAudioMixerGroup: {fileID: 0}
    OnStart:
      AnimatorEvents: []
      Effect:
        AutoSort: 1
        Behavior: 0
        CustomSortingOrder: 0
        SortingSteps: 1
        ParticleSystem: {fileID: 0}
        StopBehavior: 1
        CustomSortingLayer: Default
      Event:
        m_PersistentCalls:
          m_Calls: []
        m_TypeName: UnityEngine.Events.UnityEvent, UnityEngine.CoreModule, Version=0.0.0.0,
          Culture=neutral, PublicKeyToken=null
      GameEvents: []
      SoundData:
        SoundSource: 0
        DatabaseName: General
        SoundName: No Sound
        AudioClip: {fileID: 0}
        OutputAudioMixerGroup: {fileID: 0}
    PresetCategory: Organic
    PresetName: RoadRunnerRight
  HideProgressor: {fileID: 1752581995660656738}
  LoopBehavior:
    Animation:
      AnimationType: 3
      Move:
        AnimationType: 3
        Enabled: 0
        From: {x: 0, y: 0, z: 0}
        To: {x: 0, y: 0, z: 0}
        By: {x: 0, y: 0, z: 0}
        UseCustomFromAndTo: 0
        Vibrato: 10
        Elasticity: 1
        NumberOfLoops: -1
        LoopType: 1
        Direction: 0
        CustomPosition: {x: 0, y: 0, z: 0}
        EaseType: 0
        Ease: 1
        AnimationCurve:
          serializedVersion: 2
          m_Curve: []
          m_PreInfinity: 2
          m_PostInfinity: 2
          m_RotationOrder: 4
        StartDelay: 0
        Duration: 1
      Rotate:
        AnimationType: 3
        Enabled: 0
        From: {x: 0, y: 0, z: 0}
        To: {x: 0, y: 0, z: 0}
        By: {x: 0, y: 0, z: 0}
        UseCustomFromAndTo: 0
        Vibrato: 10
        Elasticity: 1
        NumberOfLoops: -1
        LoopType: 1
        RotateMode: 1
        EaseType: 0
        Ease: 1
        AnimationCurve:
          serializedVersion: 2
          m_Curve: []
          m_PreInfinity: 2
          m_PostInfinity: 2
          m_RotationOrder: 4
        StartDelay: 0
        Duration: 1
      Scale:
        AnimationType: 3
        Enabled: 0
        From: {x: 0, y: 0, z: 0}
        To: {x: 0, y: 0, z: 0}
        By: {x: 0, y: 0, z: 0}
        UseCustomFromAndTo: 0
        Vibrato: 10
        Elasticity: 1
        NumberOfLoops: -1
        LoopType: 1
        EaseType: 0
        Ease: 1
        AnimationCurve:
          serializedVersion: 2
          m_Curve: []
          m_PreInfinity: 2
          m_PostInfinity: 2
          m_RotationOrder: 4
        StartDelay: 0
        Duration: 1
      Fade:
        AnimationType: 3
        Enabled: 0
        From: 0
        To: 0
        By: 0.5
        UseCustomFromAndTo: 0
        NumberOfLoops: -1
        LoopType: 1
        EaseType: 0
        Ease: 1
        AnimationCurve:
          serializedVersion: 2
          m_Curve: []
          m_PreInfinity: 2
          m_PostInfinity: 2
          m_RotationOrder: 4
        StartDelay: 0
        Duration: 1
    AutoStartLoopAnimation: 1
    LoadSelectedPresetAtRuntime: 0
    InstantAnimation: 0
    OnFinished:
      AnimatorEvents: []
      Effect:
        AutoSort: 1
        Behavior: 0
        CustomSortingOrder: 0
        SortingSteps: 1
        ParticleSystem: {fileID: 0}
        StopBehavior: 1
        CustomSortingLayer: Default
      Event:
        m_PersistentCalls:
          m_Calls: []
        m_TypeName: UnityEngine.Events.UnityEvent, UnityEngine.CoreModule, Version=0.0.0.0,
          Culture=neutral, PublicKeyToken=null
      GameEvents: []
      SoundData:
        SoundSource: 0
        DatabaseName: General
        SoundName: No Sound
        AudioClip: {fileID: 0}
        OutputAudioMixerGroup: {fileID: 0}
    OnStart:
      AnimatorEvents: []
      Effect:
        AutoSort: 1
        Behavior: 0
        CustomSortingOrder: 0
        SortingSteps: 1
        ParticleSystem: {fileID: 0}
        StopBehavior: 1
        CustomSortingLayer: Default
      Event:
        m_PersistentCalls:
          m_Calls: []
        m_TypeName: UnityEngine.Events.UnityEvent, UnityEngine.CoreModule, Version=0.0.0.0,
          Culture=neutral, PublicKeyToken=null
      GameEvents: []
      SoundData:
        SoundSource: 0
        DatabaseName: General
        SoundName: No Sound
        AudioClip: {fileID: 0}
        OutputAudioMixerGroup: {fileID: 0}
    PresetCategory: Uncategorized
    PresetName: Default
  OnInverseVisibilityChanged:
    m_PersistentCalls:
      m_Calls: []
    m_TypeName: Doozy.Engine.Progress.ProgressEvent, Assembly-CSharp, Version=0.0.0.0,
      Culture=neutral, PublicKeyToken=null
  OnVisibilityChanged:
    m_PersistentCalls:
      m_Calls: []
    m_TypeName: Doozy.Engine.Progress.ProgressEvent, Assembly-CSharp, Version=0.0.0.0,
      Culture=neutral, PublicKeyToken=null
  SelectedButton: {fileID: 0}
  ShowBehavior:
    Animation:
      AnimationType: 1
      Move:
        AnimationType: 1
        Enabled: 1
        From: {x: 0, y: 0, z: 0}
        To: {x: 0, y: 0, z: 0}
        By: {x: 0, y: 0, z: 0}
        UseCustomFromAndTo: 0
        Vibrato: 10
        Elasticity: 1
        NumberOfLoops: -1
        LoopType: 1
        Direction: 0
        CustomPosition: {x: 0, y: 0, z: 0}
        EaseType: 0
        Ease: 18
        AnimationCurve:
          serializedVersion: 2
          m_Curve:
          - serializedVersion: 3
            time: 0
            value: 0
            inSlope: 0
            outSlope: 0
            tangentMode: 0
            weightedMode: 0
            inWeight: 0.33333334
            outWeight: 0.33333334
          - serializedVersion: 3
            time: 0.22816835
            value: 1.2861733
            inSlope: -0.08982998
            outSlope: -0.08982998
            tangentMode: 0
            weightedMode: 0
            inWeight: 0.33333334
            outWeight: 0.33333334
          - serializedVersion: 3
            time: 0.6220915
            value: 1.1371747
            inSlope: 0.94856524
            outSlope: 0.94856524
            tangentMode: 0
            weightedMode: 0
            inWeight: 0.33333334
            outWeight: 0.33333334
          - serializedVersion: 3
            time: 0.72613853
            value: 0.73627746
            inSlope: -1.5867386
            outSlope: -1.5867386
            tangentMode: 0
            weightedMode: 0
            inWeight: 0.33333334
            outWeight: 0.33333334
          - serializedVersion: 3
            time: 1
            value: 1
            inSlope: 2
            outSlope: 2
            tangentMode: 0
            weightedMode: 0
            inWeight: 0.33333334
            outWeight: 0.33333334
          m_PreInfinity: 2
          m_PostInfinity: 2
          m_RotationOrder: 4
        StartDelay: 0
        Duration: 0.3
      Rotate:
        AnimationType: 1
        Enabled: 1
        From: {x: 0, y: 0, z: 45}
        To: {x: 0, y: 0, z: 0}
        By: {x: 0, y: 0, z: 0}
        UseCustomFromAndTo: 0
        Vibrato: 10
        Elasticity: 1
        NumberOfLoops: -1
        LoopType: 1
        RotateMode: 1
        EaseType: 0
        Ease: 21
        AnimationCurve:
          serializedVersion: 2
          m_Curve:
          - serializedVersion: 3
            time: 0
            value: 0.0051574707
            inSlope: 0
            outSlope: 0
            tangentMode: 0
            weightedMode: 0
            inWeight: 0.33333334
            outWeight: 0.33333334
          - serializedVersion: 3
            time: 0.048303347
            value: 0.28854316
            inSlope: 7.8732495
            outSlope: 7.8732495
            tangentMode: 0
            weightedMode: 0
            inWeight: 0.33333334
            outWeight: 0.33333334
          - serializedVersion: 3
            time: 0.10184101
            value: -0.07756907
            inSlope: 3.7581615
            outSlope: 3.7581615
            tangentMode: 0
            weightedMode: 0
            inWeight: 0.33333334
            outWeight: 0.33333334
          - serializedVersion: 3
            time: 0.1691427
            value: 0.5604678
            inSlope: 5.091666
            outSlope: 5.091666
            tangentMode: 0
            weightedMode: 0
            inWeight: 0.33333334
            outWeight: 0.33333334
          - serializedVersion: 3
            time: 0.6416942
            value: -0.5875959
            inSlope: 1.8110614
            outSlope: 1.8110614
            tangentMode: 0
            weightedMode: 0
            inWeight: 0.33333334
            outWeight: 0.33333334
          - serializedVersion: 3
            time: 0.9733818
            value: 0.67883307
            inSlope: -4.2502594
            outSlope: -4.2502594
            tangentMode: 0
            weightedMode: 0
            inWeight: 0.33333334
            outWeight: 0.33333334
          - serializedVersion: 3
            time: 0.98996425
            value: 0.88832426
            inSlope: -2.3853254
            outSlope: -2.3853254
            tangentMode: 0
            weightedMode: 0
            inWeight: 0.33333334
            outWeight: 0.33333334
          - serializedVersion: 3
            time: 1
            value: 1.0051575
            inSlope: 2
            outSlope: 2
            tangentMode: 0
            weightedMode: 0
            inWeight: 0.33333334
            outWeight: 0.33333334
          m_PreInfinity: 2
          m_PostInfinity: 2
          m_RotationOrder: 4
        StartDelay: 0.1
        Duration: 0.5
      Scale:
        AnimationType: 1
        Enabled: 0
        From: {x: 1.5, y: 0.9, z: 1}
        To: {x: 0, y: 0, z: 0}
        By: {x: 0, y: 0, z: 0}
        UseCustomFromAndTo: 0
        Vibrato: 10
        Elasticity: 1
        NumberOfLoops: -1
        LoopType: 1
        EaseType: 0
        Ease: 21
        AnimationCurve:
          serializedVersion: 2
          m_Curve:
          - serializedVersion: 3
            time: 0
            value: 0
            inSlope: 2
            outSlope: 2
            tangentMode: 0
            weightedMode: 0
            inWeight: 0.33333334
            outWeight: 0.33333334
          - serializedVersion: 3
            time: 0.22024798
            value: 1.9692707
            inSlope: 0.9352582
            outSlope: 0.9352582
            tangentMode: 0
            weightedMode: 0
            inWeight: 0.33333334
            outWeight: 0.33333334
          - serializedVersion: 3
            time: 0.65045136
            value: 1.0910703
            inSlope: 0.5003349
            outSlope: 0.5003349
            tangentMode: 0
            weightedMode: 0
            inWeight: 0.33333334
            outWeight: 0.33333334
          - serializedVersion: 3
            time: 0.7293131
            value: 0.8114508
            inSlope: 1.217737
            outSlope: 1.217737
            tangentMode: 0
            weightedMode: 0
            inWeight: 0.33333334
            outWeight: 0.33333334
          - serializedVersion: 3
            time: 1
            value: 1
            inSlope: -0.943337
            outSlope: -0.943337
            tangentMode: 0
            weightedMode: 0
            inWeight: 0.33333334
            outWeight: 0.33333334
          m_PreInfinity: 2
          m_PostInfinity: 2
          m_RotationOrder: 4
        StartDelay: 0.2
        Duration: 0.4
      Fade:
        AnimationType: 1
        Enabled: 1
        From: 0
        To: 1
        By: 0.5
        UseCustomFromAndTo: 0
        NumberOfLoops: -1
        LoopType: 1
        EaseType: 0
        Ease: 1
        AnimationCurve:
          serializedVersion: 2
          m_Curve: []
          m_PreInfinity: 2
          m_PostInfinity: 2
          m_RotationOrder: 4
        StartDelay: 0
        Duration: 0.2
    AutoStartLoopAnimation: 1
    LoadSelectedPresetAtRuntime: 0
    InstantAnimation: 0
    OnFinished:
      AnimatorEvents: []
      Effect:
        AutoSort: 1
        Behavior: 0
        CustomSortingOrder: 0
        SortingSteps: 1
        ParticleSystem: {fileID: 0}
        StopBehavior: 1
        CustomSortingLayer: Default
      Event:
        m_PersistentCalls:
          m_Calls: []
        m_TypeName: UnityEngine.Events.UnityEvent, UnityEngine.CoreModule, Version=0.0.0.0,
          Culture=neutral, PublicKeyToken=null
      GameEvents: []
      SoundData:
        SoundSource: 0
        DatabaseName: General
        SoundName: No Sound
        AudioClip: {fileID: 0}
        OutputAudioMixerGroup: {fileID: 0}
    OnStart:
      AnimatorEvents: []
      Effect:
        AutoSort: 1
        Behavior: 0
        CustomSortingOrder: 0
        SortingSteps: 1
        ParticleSystem: {fileID: 0}
        StopBehavior: 1
        CustomSortingLayer: Default
      Event:
        m_PersistentCalls:
          m_Calls: []
        m_TypeName: UnityEngine.Events.UnityEvent, UnityEngine.CoreModule, Version=0.0.0.0,
          Culture=neutral, PublicKeyToken=null
      GameEvents: []
      SoundData:
        SoundSource: 0
        DatabaseName: Neumorph One
        SoundName: Swish
        AudioClip: {fileID: 0}
        OutputAudioMixerGroup: {fileID: 0}
    PresetCategory: Uncategorized
    PresetName: Default
  ShowProgressor: {fileID: 0}
  TargetOrientation: 2
  UpdateHideProgressorOnShow: 1
  UpdateShowProgressorOnHide: 0
  UseCustomStartAnchoredPosition: 1
  ViewCategory: General
  ViewName: Unnamed
--- !u!95 &1752581995660656736
Animator:
  serializedVersion: 3
  m_ObjectHideFlags: 0
  m_CorrespondingSourceObject: {fileID: 0}
  m_PrefabInstance: {fileID: 0}
  m_PrefabAsset: {fileID: 0}
  m_GameObject: {fileID: 1752581995660656732}
  m_Enabled: 1
  m_Avatar: {fileID: 0}
  m_Controller: {fileID: 9100000, guid: 8487f514fae33a04a84c6ea43c859df5, type: 2}
  m_CullingMode: 0
  m_UpdateMode: 0
  m_ApplyRootMotion: 0
  m_LinearVelocityBlending: 0
  m_WarningMessage: 
  m_HasTransformHierarchy: 1
  m_AllowConstantClipSamplingOptimization: 1
  m_KeepAnimatorControllerStateOnDisable: 0
--- !u!114 &1752581995660656737
MonoBehaviour:
  m_ObjectHideFlags: 0
  m_CorrespondingSourceObject: {fileID: 0}
  m_PrefabInstance: {fileID: 0}
  m_PrefabAsset: {fileID: 0}
  m_GameObject: {fileID: 1752581995660656732}
  m_Enabled: 1
  m_EditorHideFlags: 0
  m_Script: {fileID: 11500000, guid: 779d2338e8d61bc4f9e65969cd74fb0f, type: 3}
  m_Name: 
  m_EditorClassIdentifier: 
  Animator: {fileID: 1752581995660656736}
  ParameterName: Progress
  TargetProgress: 0
--- !u!114 &1752581995660656738
MonoBehaviour:
  m_ObjectHideFlags: 0
  m_CorrespondingSourceObject: {fileID: 0}
  m_PrefabInstance: {fileID: 0}
  m_PrefabAsset: {fileID: 0}
  m_GameObject: {fileID: 1752581995660656732}
  m_Enabled: 1
  m_EditorHideFlags: 0
  m_Script: {fileID: 11500000, guid: 0dd4fcd1a439fed4084f8b519848b636, type: 3}
  m_Name: 
  m_EditorClassIdentifier: 
  DebugMode: 0
  ProgressTargets:
  - {fileID: 1752581995660656737}
  AnimateValue: 0
  AnimationDuration: 0.5
  AnimationEase: 1
  AnimationIgnoresUnityTimescale: 1
  OnEnableResetValue: 1
  OnDisableResetValue: 0
  CustomResetValue: 0
  OnValueChanged:
    m_PersistentCalls:
      m_Calls: []
    m_TypeName: Doozy.Engine.Progress.ProgressEvent, Assembly-CSharp, Version=0.0.0.0,
      Culture=neutral, PublicKeyToken=null
  OnProgressChanged:
    m_PersistentCalls:
      m_Calls: []
    m_TypeName: Doozy.Engine.Progress.ProgressEvent, Assembly-CSharp, Version=0.0.0.0,
      Culture=neutral, PublicKeyToken=null
  OnInverseProgressChanged:
    m_PersistentCalls:
      m_Calls: []
    m_TypeName: Doozy.Engine.Progress.ProgressEvent, Assembly-CSharp, Version=0.0.0.0,
      Culture=neutral, PublicKeyToken=null
  m_minValue: 0
  m_maxValue: 1
  m_wholeNumbers: 0
  m_currentValue: 0
--- !u!1 &5105500663129085745
GameObject:
  m_ObjectHideFlags: 0
  m_CorrespondingSourceObject: {fileID: 0}
  m_PrefabInstance: {fileID: 0}
  m_PrefabAsset: {fileID: 0}
  serializedVersion: 6
  m_Component:
  - component: {fileID: 5105500663129085744}
  m_Layer: 0
  m_Name: Bottom
  m_TagString: Untagged
  m_Icon: {fileID: 0}
  m_NavMeshLayer: 0
  m_StaticEditorFlags: 0
  m_IsActive: 1
--- !u!224 &5105500663129085744
RectTransform:
  m_ObjectHideFlags: 0
  m_CorrespondingSourceObject: {fileID: 0}
  m_PrefabInstance: {fileID: 0}
  m_PrefabAsset: {fileID: 0}
  m_GameObject: {fileID: 5105500663129085745}
  m_LocalRotation: {x: 0, y: 0, z: 0, w: 1}
  m_LocalPosition: {x: 0, y: 0, z: 0}
  m_LocalScale: {x: 1, y: 1, z: 1}
  m_Children:
  - {fileID: 2358554073374189853}
  m_Father: {fileID: 5105500664822952236}
  m_RootOrder: 1
  m_LocalEulerAnglesHint: {x: 0, y: 0, z: 0}
  m_AnchorMin: {x: 0.5, y: 0}
  m_AnchorMax: {x: 0.5, y: 0}
  m_AnchoredPosition: {x: 0, y: 64}
  m_SizeDelta: {x: 256, y: 64}
  m_Pivot: {x: 0.5, y: 0.5}
--- !u!1 &5105500663265469499
GameObject:
  m_ObjectHideFlags: 0
  m_CorrespondingSourceObject: {fileID: 0}
  m_PrefabInstance: {fileID: 0}
  m_PrefabAsset: {fileID: 0}
  serializedVersion: 6
  m_Component:
  - component: {fileID: 5105500663265469498}
  m_Layer: 0
  m_Name: Top
  m_TagString: Untagged
  m_Icon: {fileID: 0}
  m_NavMeshLayer: 0
  m_StaticEditorFlags: 0
  m_IsActive: 1
--- !u!224 &5105500663265469498
RectTransform:
  m_ObjectHideFlags: 0
  m_CorrespondingSourceObject: {fileID: 0}
  m_PrefabInstance: {fileID: 0}
  m_PrefabAsset: {fileID: 0}
  m_GameObject: {fileID: 5105500663265469499}
  m_LocalRotation: {x: 0, y: 0, z: 0, w: 1}
  m_LocalPosition: {x: 0, y: 0, z: 0}
  m_LocalScale: {x: 1, y: 1, z: 1}
  m_Children:
  - {fileID: 3854584330186836740}
  - {fileID: 8967499230733132278}
  m_Father: {fileID: 5105500664822952236}
  m_RootOrder: 0
  m_LocalEulerAnglesHint: {x: 0, y: 0, z: 0}
  m_AnchorMin: {x: 0, y: 1}
  m_AnchorMax: {x: 1, y: 1}
  m_AnchoredPosition: {x: 0, y: -48}
  m_SizeDelta: {x: -48, y: 64}
  m_Pivot: {x: 0.5, y: 0.5}
--- !u!1 &5105500664822952237
GameObject:
  m_ObjectHideFlags: 0
  m_CorrespondingSourceObject: {fileID: 0}
  m_PrefabInstance: {fileID: 0}
  m_PrefabAsset: {fileID: 0}
  serializedVersion: 6
  m_Component:
  - component: {fileID: 5105500664822952236}
  m_Layer: 0
  m_Name: Buttons
  m_TagString: Untagged
  m_Icon: {fileID: 0}
  m_NavMeshLayer: 0
  m_StaticEditorFlags: 0
  m_IsActive: 1
--- !u!224 &5105500664822952236
RectTransform:
  m_ObjectHideFlags: 0
  m_CorrespondingSourceObject: {fileID: 0}
  m_PrefabInstance: {fileID: 0}
  m_PrefabAsset: {fileID: 0}
  m_GameObject: {fileID: 5105500664822952237}
  m_LocalRotation: {x: -0, y: -0, z: -0, w: 1}
  m_LocalPosition: {x: 0, y: 0, z: 0}
  m_LocalScale: {x: 1, y: 1, z: 1}
  m_Children:
  - {fileID: 5105500663265469498}
  - {fileID: 5105500663129085744}
  m_Father: {fileID: 1367588212343262759}
  m_RootOrder: 2
  m_LocalEulerAnglesHint: {x: 0, y: 0, z: 0}
  m_AnchorMin: {x: 0, y: 0}
  m_AnchorMax: {x: 1, y: 1}
  m_AnchoredPosition: {x: 0, y: 0}
  m_SizeDelta: {x: 0, y: 0}
  m_Pivot: {x: 0.5, y: 0.5}
--- !u!1 &5284895479335684212
GameObject:
  m_ObjectHideFlags: 0
  m_CorrespondingSourceObject: {fileID: 0}
  m_PrefabInstance: {fileID: 0}
  m_PrefabAsset: {fileID: 0}
  serializedVersion: 6
  m_Component:
  - component: {fileID: 1411803569071452104}
  - component: {fileID: 9032618472692773533}
  - component: {fileID: 8360914412553996021}
  - component: {fileID: 2351682509616426005}
  m_Layer: 0
  m_Name: Title
  m_TagString: Untagged
  m_Icon: {fileID: 0}
  m_NavMeshLayer: 0
  m_StaticEditorFlags: 0
  m_IsActive: 1
--- !u!224 &1411803569071452104
RectTransform:
  m_ObjectHideFlags: 0
  m_CorrespondingSourceObject: {fileID: 0}
  m_PrefabInstance: {fileID: 0}
  m_PrefabAsset: {fileID: 0}
  m_GameObject: {fileID: 5284895479335684212}
  m_LocalRotation: {x: -0, y: -0, z: -0, w: 1}
  m_LocalPosition: {x: 0, y: 0, z: 0}
  m_LocalScale: {x: 1, y: 1, z: 1}
  m_Children: []
  m_Father: {fileID: 1367588212343262759}
  m_RootOrder: 0
  m_LocalEulerAnglesHint: {x: 0, y: 0, z: 0}
  m_AnchorMin: {x: 0, y: 0}
  m_AnchorMax: {x: 1, y: 0}
  m_AnchoredPosition: {x: 0, y: 320}
  m_SizeDelta: {x: -64, y: 48}
  m_Pivot: {x: 0.5, y: 0}
--- !u!222 &9032618472692773533
CanvasRenderer:
  m_ObjectHideFlags: 0
  m_CorrespondingSourceObject: {fileID: 0}
  m_PrefabInstance: {fileID: 0}
  m_PrefabAsset: {fileID: 0}
  m_GameObject: {fileID: 5284895479335684212}
  m_CullTransparentMesh: 0
--- !u!114 &8360914412553996021
MonoBehaviour:
  m_ObjectHideFlags: 0
  m_CorrespondingSourceObject: {fileID: 0}
  m_PrefabInstance: {fileID: 0}
  m_PrefabAsset: {fileID: 0}
  m_GameObject: {fileID: 5284895479335684212}
  m_Enabled: 1
  m_EditorHideFlags: 0
  m_Script: {fileID: 11500000, guid: f4688fdb7df04437aeb418b961361dc5, type: 3}
  m_Name: 
  m_EditorClassIdentifier: 
  m_Material: {fileID: 0}
  m_Color: {r: 1, g: 1, b: 1, a: 1}
  m_RaycastTarget: 1
  m_OnCullStateChanged:
    m_PersistentCalls:
      m_Calls: []
    m_TypeName: UnityEngine.UI.MaskableGraphic+CullStateChangedEvent, UnityEngine.UI,
      Version=1.0.0.0, Culture=neutral, PublicKeyToken=null
  m_text: Lorem Ipsum
  m_isRightToLeft: 0
  m_fontAsset: {fileID: 11400000, guid: 643aebd7124d3c34bb062c5a60ebb5a8, type: 2}
  m_sharedMaterial: {fileID: 4835089367266696174, guid: 643aebd7124d3c34bb062c5a60ebb5a8,
    type: 2}
  m_fontSharedMaterials: []
  m_fontMaterial: {fileID: 0}
  m_fontMaterials: []
  m_fontColor32:
    serializedVersion: 2
    rgba: 4281807149
  m_fontColor: {r: 0.17911176, g: 0.19398901, b: 0.21698111, a: 1}
  m_enableVertexGradient: 0
  m_colorMode: 3
  m_fontColorGradient:
    topLeft: {r: 1, g: 1, b: 1, a: 1}
    topRight: {r: 1, g: 1, b: 1, a: 1}
    bottomLeft: {r: 1, g: 1, b: 1, a: 1}
    bottomRight: {r: 1, g: 1, b: 1, a: 1}
  m_fontColorGradientPreset: {fileID: 0}
  m_spriteAsset: {fileID: 0}
  m_tintAllSprites: 0
  m_overrideHtmlColors: 0
  m_faceColor:
    serializedVersion: 2
    rgba: 4294967295
  m_outlineColor:
    serializedVersion: 2
    rgba: 4278190080
  m_fontSize: 28
  m_fontSizeBase: 28
  m_fontWeight: 400
  m_enableAutoSizing: 0
  m_fontSizeMin: 12
  m_fontSizeMax: 18
  m_fontStyle: 0
  m_textAlignment: 514
  m_characterSpacing: 0
  m_wordSpacing: 0
  m_lineSpacing: 0
  m_lineSpacingMax: 0
  m_paragraphSpacing: 0
  m_charWidthMaxAdj: 0
  m_enableWordWrapping: 0
  m_wordWrappingRatios: 0.4
  m_overflowMode: 1
  m_firstOverflowCharacterIndex: -1
  m_linkedTextComponent: {fileID: 0}
  m_isLinkedTextComponent: 0
  m_isTextTruncated: 0
  m_enableKerning: 1
  m_enableExtraPadding: 0
  checkPaddingRequired: 0
  m_isRichText: 1
  m_parseCtrlCharacters: 1
  m_isOrthographic: 1
  m_isCullingEnabled: 0
  m_ignoreRectMaskCulling: 0
  m_ignoreCulling: 1
  m_horizontalMapping: 0
  m_verticalMapping: 0
  m_uvLineOffset: 0
  m_geometrySortingOrder: 0
  m_VertexBufferAutoSizeReduction: 1
  m_firstVisibleCharacter: 0
  m_useMaxVisibleDescender: 1
  m_pageToDisplay: 1
  m_margin: {x: 0, y: 0, z: 0, w: 0}
  m_textInfo:
    textComponent: {fileID: 8360914412553996021}
    characterCount: 11
    spriteCount: 0
    spaceCount: 1
    wordCount: 2
    linkCount: 0
    lineCount: 1
    pageCount: 1
    materialCount: 1
  m_isUsingLegacyAnimationComponent: 0
  m_isVolumetricText: 0
  m_spriteAnimator: {fileID: 0}
  m_hasFontAssetChanged: 0
  m_subTextObjects:
  - {fileID: 0}
  - {fileID: 0}
  - {fileID: 0}
  - {fileID: 0}
  - {fileID: 0}
  - {fileID: 0}
  - {fileID: 0}
  - {fileID: 0}
  m_baseMaterial: {fileID: 0}
  m_maskOffset: {x: 0, y: 0, z: 0, w: 0}
--- !u!114 &2351682509616426005
MonoBehaviour:
  m_ObjectHideFlags: 0
  m_CorrespondingSourceObject: {fileID: 0}
  m_PrefabInstance: {fileID: 0}
  m_PrefabAsset: {fileID: 0}
  m_GameObject: {fileID: 5284895479335684212}
  m_Enabled: 1
  m_EditorHideFlags: 0
  m_Script: {fileID: 11500000, guid: 8f34e6c94be345baaafed933eb7531ca, type: 3}
  m_Name: 
  m_EditorClassIdentifier: 
  ThemeIdSerializedGuid: 4970eed67e2b864e9e16a851bb1066cb
  VariantIdSerializedGuid: 
  PropertyIdSerializedGuid: 819655143e83ec45a23d672ee8116674
  TextMeshPro: {fileID: 8360914412553996021}
  OverrideAlpha: 0
  Alpha: 0
--- !u!1001 &131322755122932833
PrefabInstance:
  m_ObjectHideFlags: 0
  serializedVersion: 2
  m_Modification:
    m_TransformParent: {fileID: 1752581995660656739}
    m_Modifications:
    - target: {fileID: 7951284314820628693, guid: 59558fd9fca36f0499038462045dac88,
        type: 3}
      propertyPath: m_Name
      value: Card - Square - 512x512 Out
      objectReference: {fileID: 0}
    - target: {fileID: 6522964431085083634, guid: 59558fd9fca36f0499038462045dac88,
        type: 3}
      propertyPath: m_LocalPosition.x
      value: 0
      objectReference: {fileID: 0}
    - target: {fileID: 6522964431085083634, guid: 59558fd9fca36f0499038462045dac88,
        type: 3}
      propertyPath: m_LocalPosition.y
      value: 0
      objectReference: {fileID: 0}
    - target: {fileID: 6522964431085083634, guid: 59558fd9fca36f0499038462045dac88,
        type: 3}
      propertyPath: m_LocalPosition.z
      value: 0
      objectReference: {fileID: 0}
    - target: {fileID: 6522964431085083634, guid: 59558fd9fca36f0499038462045dac88,
        type: 3}
      propertyPath: m_LocalRotation.x
      value: -0
      objectReference: {fileID: 0}
    - target: {fileID: 6522964431085083634, guid: 59558fd9fca36f0499038462045dac88,
        type: 3}
      propertyPath: m_LocalRotation.y
      value: -0
      objectReference: {fileID: 0}
    - target: {fileID: 6522964431085083634, guid: 59558fd9fca36f0499038462045dac88,
        type: 3}
      propertyPath: m_LocalRotation.z
      value: -0
      objectReference: {fileID: 0}
    - target: {fileID: 6522964431085083634, guid: 59558fd9fca36f0499038462045dac88,
        type: 3}
      propertyPath: m_LocalRotation.w
      value: 1
      objectReference: {fileID: 0}
    - target: {fileID: 6522964431085083634, guid: 59558fd9fca36f0499038462045dac88,
        type: 3}
      propertyPath: m_RootOrder
      value: 0
      objectReference: {fileID: 0}
    - target: {fileID: 6522964431085083634, guid: 59558fd9fca36f0499038462045dac88,
        type: 3}
      propertyPath: m_LocalEulerAnglesHint.x
      value: 0
      objectReference: {fileID: 0}
    - target: {fileID: 6522964431085083634, guid: 59558fd9fca36f0499038462045dac88,
        type: 3}
      propertyPath: m_LocalEulerAnglesHint.y
      value: 0
      objectReference: {fileID: 0}
    - target: {fileID: 6522964431085083634, guid: 59558fd9fca36f0499038462045dac88,
        type: 3}
      propertyPath: m_LocalEulerAnglesHint.z
      value: 0
      objectReference: {fileID: 0}
    - target: {fileID: 6522964431085083634, guid: 59558fd9fca36f0499038462045dac88,
        type: 3}
      propertyPath: m_AnchoredPosition.x
      value: 0
      objectReference: {fileID: 0}
    - target: {fileID: 6522964431085083634, guid: 59558fd9fca36f0499038462045dac88,
        type: 3}
      propertyPath: m_AnchoredPosition.y
      value: 0
      objectReference: {fileID: 0}
    - target: {fileID: 6522964431085083634, guid: 59558fd9fca36f0499038462045dac88,
        type: 3}
      propertyPath: m_SizeDelta.x
      value: 0
      objectReference: {fileID: 0}
    - target: {fileID: 6522964431085083634, guid: 59558fd9fca36f0499038462045dac88,
        type: 3}
      propertyPath: m_SizeDelta.y
      value: 0
      objectReference: {fileID: 0}
    - target: {fileID: 6522964431085083634, guid: 59558fd9fca36f0499038462045dac88,
        type: 3}
      propertyPath: m_AnchorMin.x
      value: 0
      objectReference: {fileID: 0}
    - target: {fileID: 6522964431085083634, guid: 59558fd9fca36f0499038462045dac88,
        type: 3}
      propertyPath: m_AnchorMin.y
      value: 0
      objectReference: {fileID: 0}
    - target: {fileID: 6522964431085083634, guid: 59558fd9fca36f0499038462045dac88,
        type: 3}
      propertyPath: m_AnchorMax.x
      value: 1
      objectReference: {fileID: 0}
    - target: {fileID: 6522964431085083634, guid: 59558fd9fca36f0499038462045dac88,
        type: 3}
      propertyPath: m_AnchorMax.y
      value: 1
      objectReference: {fileID: 0}
    - target: {fileID: 6522964431085083634, guid: 59558fd9fca36f0499038462045dac88,
        type: 3}
      propertyPath: m_Pivot.x
      value: 0.5
      objectReference: {fileID: 0}
    - target: {fileID: 6522964431085083634, guid: 59558fd9fca36f0499038462045dac88,
        type: 3}
      propertyPath: m_Pivot.y
      value: 0.5
      objectReference: {fileID: 0}
    m_RemovedComponents: []
  m_SourcePrefab: {fileID: 100100000, guid: 59558fd9fca36f0499038462045dac88, type: 3}
--- !u!224 &6581083755024398227 stripped
RectTransform:
  m_CorrespondingSourceObject: {fileID: 6522964431085083634, guid: 59558fd9fca36f0499038462045dac88,
    type: 3}
  m_PrefabInstance: {fileID: 131322755122932833}
  m_PrefabAsset: {fileID: 0}
--- !u!1 &537693660195529433 stripped
GameObject:
  m_CorrespondingSourceObject: {fileID: 478728262125096632, guid: 59558fd9fca36f0499038462045dac88,
    type: 3}
  m_PrefabInstance: {fileID: 131322755122932833}
  m_PrefabAsset: {fileID: 0}
--- !u!224 &1367588212343262759 stripped
RectTransform:
  m_CorrespondingSourceObject: {fileID: 1380400986261840454, guid: 59558fd9fca36f0499038462045dac88,
    type: 3}
  m_PrefabInstance: {fileID: 131322755122932833}
  m_PrefabAsset: {fileID: 0}
--- !u!1001 &649507864046105558
PrefabInstance:
  m_ObjectHideFlags: 0
  serializedVersion: 2
  m_Modification:
    m_TransformParent: {fileID: 5105500663265469498}
    m_Modifications:
    - target: {fileID: 2524703514428349326, guid: 841c32878f65851489249f42f7a11b9b,
        type: 3}
      propertyPath: m_Name
      value: Button - B - 160x48 - Circle - Text - Skip
      objectReference: {fileID: 0}
    - target: {fileID: 8462676015886733856, guid: 841c32878f65851489249f42f7a11b9b,
        type: 3}
      propertyPath: m_LocalPosition.x
      value: 0
      objectReference: {fileID: 0}
    - target: {fileID: 8462676015886733856, guid: 841c32878f65851489249f42f7a11b9b,
        type: 3}
      propertyPath: m_LocalPosition.y
      value: 0
      objectReference: {fileID: 0}
    - target: {fileID: 8462676015886733856, guid: 841c32878f65851489249f42f7a11b9b,
        type: 3}
      propertyPath: m_LocalPosition.z
      value: 0
      objectReference: {fileID: 0}
    - target: {fileID: 8462676015886733856, guid: 841c32878f65851489249f42f7a11b9b,
        type: 3}
      propertyPath: m_LocalRotation.x
      value: -0
      objectReference: {fileID: 0}
    - target: {fileID: 8462676015886733856, guid: 841c32878f65851489249f42f7a11b9b,
        type: 3}
      propertyPath: m_LocalRotation.y
      value: -0
      objectReference: {fileID: 0}
    - target: {fileID: 8462676015886733856, guid: 841c32878f65851489249f42f7a11b9b,
        type: 3}
      propertyPath: m_LocalRotation.z
      value: -0
      objectReference: {fileID: 0}
    - target: {fileID: 8462676015886733856, guid: 841c32878f65851489249f42f7a11b9b,
        type: 3}
      propertyPath: m_LocalRotation.w
      value: 1
      objectReference: {fileID: 0}
    - target: {fileID: 8462676015886733856, guid: 841c32878f65851489249f42f7a11b9b,
        type: 3}
      propertyPath: m_RootOrder
      value: 1
      objectReference: {fileID: 0}
    - target: {fileID: 8462676015886733856, guid: 841c32878f65851489249f42f7a11b9b,
        type: 3}
      propertyPath: m_LocalEulerAnglesHint.x
      value: 0
      objectReference: {fileID: 0}
    - target: {fileID: 8462676015886733856, guid: 841c32878f65851489249f42f7a11b9b,
        type: 3}
      propertyPath: m_LocalEulerAnglesHint.y
      value: 0
      objectReference: {fileID: 0}
    - target: {fileID: 8462676015886733856, guid: 841c32878f65851489249f42f7a11b9b,
        type: 3}
      propertyPath: m_LocalEulerAnglesHint.z
      value: 0
      objectReference: {fileID: 0}
    - target: {fileID: 8462676015886733856, guid: 841c32878f65851489249f42f7a11b9b,
        type: 3}
      propertyPath: m_AnchoredPosition.x
      value: -8
      objectReference: {fileID: 0}
    - target: {fileID: 8462676015886733856, guid: 841c32878f65851489249f42f7a11b9b,
        type: 3}
      propertyPath: m_AnchoredPosition.y
      value: 0
      objectReference: {fileID: 0}
    - target: {fileID: 8462676015886733856, guid: 841c32878f65851489249f42f7a11b9b,
        type: 3}
      propertyPath: m_SizeDelta.x
      value: 96
      objectReference: {fileID: 0}
    - target: {fileID: 8462676015886733856, guid: 841c32878f65851489249f42f7a11b9b,
        type: 3}
      propertyPath: m_SizeDelta.y
      value: 48
      objectReference: {fileID: 0}
    - target: {fileID: 8462676015886733856, guid: 841c32878f65851489249f42f7a11b9b,
        type: 3}
      propertyPath: m_AnchorMin.x
      value: 1
      objectReference: {fileID: 0}
    - target: {fileID: 8462676015886733856, guid: 841c32878f65851489249f42f7a11b9b,
        type: 3}
      propertyPath: m_AnchorMin.y
      value: 0.5
      objectReference: {fileID: 0}
    - target: {fileID: 8462676015886733856, guid: 841c32878f65851489249f42f7a11b9b,
        type: 3}
      propertyPath: m_AnchorMax.x
      value: 1
      objectReference: {fileID: 0}
    - target: {fileID: 8462676015886733856, guid: 841c32878f65851489249f42f7a11b9b,
        type: 3}
      propertyPath: m_AnchorMax.y
      value: 0.5
      objectReference: {fileID: 0}
    - target: {fileID: 8462676015886733856, guid: 841c32878f65851489249f42f7a11b9b,
        type: 3}
      propertyPath: m_Pivot.x
      value: 1
      objectReference: {fileID: 0}
    - target: {fileID: 8462676015886733856, guid: 841c32878f65851489249f42f7a11b9b,
        type: 3}
      propertyPath: m_Pivot.y
      value: 0.5
      objectReference: {fileID: 0}
    - target: {fileID: 6752468533115846940, guid: 841c32878f65851489249f42f7a11b9b,
        type: 3}
      propertyPath: m_text
      value: Skip
      objectReference: {fileID: 0}
    - target: {fileID: 6752468533115846940, guid: 841c32878f65851489249f42f7a11b9b,
        type: 3}
      propertyPath: m_sharedMaterial
      value: 
      objectReference: {fileID: 4835089367266696174, guid: 643aebd7124d3c34bb062c5a60ebb5a8,
        type: 2}
    - target: {fileID: 6752468533115846940, guid: 841c32878f65851489249f42f7a11b9b,
        type: 3}
      propertyPath: m_fontColor32.rgba
      value: 4281807149
      objectReference: {fileID: 0}
    - target: {fileID: 6752468533115846940, guid: 841c32878f65851489249f42f7a11b9b,
        type: 3}
      propertyPath: m_fontColor.r
      value: 0.17911176
      objectReference: {fileID: 0}
    - target: {fileID: 6752468533115846940, guid: 841c32878f65851489249f42f7a11b9b,
        type: 3}
      propertyPath: m_fontColor.g
      value: 0.19398901
      objectReference: {fileID: 0}
    - target: {fileID: 6752468533115846940, guid: 841c32878f65851489249f42f7a11b9b,
        type: 3}
      propertyPath: m_fontColor.b
      value: 0.21698111
      objectReference: {fileID: 0}
    - target: {fileID: 6752468533115846940, guid: 841c32878f65851489249f42f7a11b9b,
        type: 3}
      propertyPath: m_textInfo.characterCount
      value: 4
      objectReference: {fileID: 0}
    - target: {fileID: 6752468533115846940, guid: 841c32878f65851489249f42f7a11b9b,
        type: 3}
      propertyPath: m_hasFontAssetChanged
      value: 0
      objectReference: {fileID: 0}
    - target: {fileID: 217955313899920418, guid: 841c32878f65851489249f42f7a11b9b,
        type: 3}
      propertyPath: PropertyIdSerializedGuid.Array.data[0]
      value: 129
      objectReference: {fileID: 0}
    - target: {fileID: 217955313899920418, guid: 841c32878f65851489249f42f7a11b9b,
        type: 3}
      propertyPath: PropertyIdSerializedGuid.Array.data[1]
      value: 150
      objectReference: {fileID: 0}
    - target: {fileID: 217955313899920418, guid: 841c32878f65851489249f42f7a11b9b,
        type: 3}
      propertyPath: PropertyIdSerializedGuid.Array.data[2]
      value: 85
      objectReference: {fileID: 0}
    - target: {fileID: 217955313899920418, guid: 841c32878f65851489249f42f7a11b9b,
        type: 3}
      propertyPath: PropertyIdSerializedGuid.Array.data[3]
      value: 20
      objectReference: {fileID: 0}
    - target: {fileID: 217955313899920418, guid: 841c32878f65851489249f42f7a11b9b,
        type: 3}
      propertyPath: PropertyIdSerializedGuid.Array.data[4]
      value: 62
      objectReference: {fileID: 0}
    - target: {fileID: 217955313899920418, guid: 841c32878f65851489249f42f7a11b9b,
        type: 3}
      propertyPath: PropertyIdSerializedGuid.Array.data[5]
      value: 131
      objectReference: {fileID: 0}
    - target: {fileID: 217955313899920418, guid: 841c32878f65851489249f42f7a11b9b,
        type: 3}
      propertyPath: PropertyIdSerializedGuid.Array.data[6]
      value: 236
      objectReference: {fileID: 0}
    - target: {fileID: 217955313899920418, guid: 841c32878f65851489249f42f7a11b9b,
        type: 3}
      propertyPath: PropertyIdSerializedGuid.Array.data[7]
      value: 69
      objectReference: {fileID: 0}
    - target: {fileID: 217955313899920418, guid: 841c32878f65851489249f42f7a11b9b,
        type: 3}
      propertyPath: PropertyIdSerializedGuid.Array.data[8]
      value: 162
      objectReference: {fileID: 0}
    - target: {fileID: 217955313899920418, guid: 841c32878f65851489249f42f7a11b9b,
        type: 3}
      propertyPath: PropertyIdSerializedGuid.Array.data[9]
      value: 61
      objectReference: {fileID: 0}
    - target: {fileID: 217955313899920418, guid: 841c32878f65851489249f42f7a11b9b,
        type: 3}
      propertyPath: PropertyIdSerializedGuid.Array.data[10]
      value: 103
      objectReference: {fileID: 0}
    - target: {fileID: 217955313899920418, guid: 841c32878f65851489249f42f7a11b9b,
        type: 3}
      propertyPath: PropertyIdSerializedGuid.Array.data[11]
      value: 46
      objectReference: {fileID: 0}
    - target: {fileID: 217955313899920418, guid: 841c32878f65851489249f42f7a11b9b,
        type: 3}
      propertyPath: PropertyIdSerializedGuid.Array.data[12]
      value: 232
      objectReference: {fileID: 0}
    - target: {fileID: 217955313899920418, guid: 841c32878f65851489249f42f7a11b9b,
        type: 3}
      propertyPath: PropertyIdSerializedGuid.Array.data[13]
      value: 17
      objectReference: {fileID: 0}
    - target: {fileID: 217955313899920418, guid: 841c32878f65851489249f42f7a11b9b,
        type: 3}
      propertyPath: PropertyIdSerializedGuid.Array.data[14]
      value: 102
      objectReference: {fileID: 0}
    - target: {fileID: 217955313899920418, guid: 841c32878f65851489249f42f7a11b9b,
        type: 3}
      propertyPath: PropertyIdSerializedGuid.Array.data[15]
      value: 116
      objectReference: {fileID: 0}
    - target: {fileID: 3274134405178737272, guid: 841c32878f65851489249f42f7a11b9b,
        type: 3}
      propertyPath: m_Color.r
      value: 0.17911176
      objectReference: {fileID: 0}
    - target: {fileID: 3274134405178737272, guid: 841c32878f65851489249f42f7a11b9b,
        type: 3}
      propertyPath: m_Color.g
      value: 0.19398901
      objectReference: {fileID: 0}
    - target: {fileID: 3274134405178737272, guid: 841c32878f65851489249f42f7a11b9b,
        type: 3}
      propertyPath: m_Color.b
      value: 0.21698111
      objectReference: {fileID: 0}
    - target: {fileID: 2443876056288730603, guid: 841c32878f65851489249f42f7a11b9b,
        type: 3}
      propertyPath: PropertyIdSerializedGuid.Array.data[0]
      value: 129
      objectReference: {fileID: 0}
    - target: {fileID: 2443876056288730603, guid: 841c32878f65851489249f42f7a11b9b,
        type: 3}
      propertyPath: PropertyIdSerializedGuid.Array.data[1]
      value: 150
      objectReference: {fileID: 0}
    - target: {fileID: 2443876056288730603, guid: 841c32878f65851489249f42f7a11b9b,
        type: 3}
      propertyPath: PropertyIdSerializedGuid.Array.data[2]
      value: 85
      objectReference: {fileID: 0}
    - target: {fileID: 2443876056288730603, guid: 841c32878f65851489249f42f7a11b9b,
        type: 3}
      propertyPath: PropertyIdSerializedGuid.Array.data[3]
      value: 20
      objectReference: {fileID: 0}
    - target: {fileID: 2443876056288730603, guid: 841c32878f65851489249f42f7a11b9b,
        type: 3}
      propertyPath: PropertyIdSerializedGuid.Array.data[4]
      value: 62
      objectReference: {fileID: 0}
    - target: {fileID: 2443876056288730603, guid: 841c32878f65851489249f42f7a11b9b,
        type: 3}
      propertyPath: PropertyIdSerializedGuid.Array.data[5]
      value: 131
      objectReference: {fileID: 0}
    - target: {fileID: 2443876056288730603, guid: 841c32878f65851489249f42f7a11b9b,
        type: 3}
      propertyPath: PropertyIdSerializedGuid.Array.data[6]
      value: 236
      objectReference: {fileID: 0}
    - target: {fileID: 2443876056288730603, guid: 841c32878f65851489249f42f7a11b9b,
        type: 3}
      propertyPath: PropertyIdSerializedGuid.Array.data[7]
      value: 69
      objectReference: {fileID: 0}
    - target: {fileID: 2443876056288730603, guid: 841c32878f65851489249f42f7a11b9b,
        type: 3}
      propertyPath: PropertyIdSerializedGuid.Array.data[8]
      value: 162
      objectReference: {fileID: 0}
    - target: {fileID: 2443876056288730603, guid: 841c32878f65851489249f42f7a11b9b,
        type: 3}
      propertyPath: PropertyIdSerializedGuid.Array.data[9]
      value: 61
      objectReference: {fileID: 0}
    - target: {fileID: 2443876056288730603, guid: 841c32878f65851489249f42f7a11b9b,
        type: 3}
      propertyPath: PropertyIdSerializedGuid.Array.data[10]
      value: 103
      objectReference: {fileID: 0}
    - target: {fileID: 2443876056288730603, guid: 841c32878f65851489249f42f7a11b9b,
        type: 3}
      propertyPath: PropertyIdSerializedGuid.Array.data[11]
      value: 46
      objectReference: {fileID: 0}
    - target: {fileID: 2443876056288730603, guid: 841c32878f65851489249f42f7a11b9b,
        type: 3}
      propertyPath: PropertyIdSerializedGuid.Array.data[12]
      value: 232
      objectReference: {fileID: 0}
    - target: {fileID: 2443876056288730603, guid: 841c32878f65851489249f42f7a11b9b,
        type: 3}
      propertyPath: PropertyIdSerializedGuid.Array.data[13]
      value: 17
      objectReference: {fileID: 0}
    - target: {fileID: 2443876056288730603, guid: 841c32878f65851489249f42f7a11b9b,
        type: 3}
      propertyPath: PropertyIdSerializedGuid.Array.data[14]
      value: 102
      objectReference: {fileID: 0}
    - target: {fileID: 2443876056288730603, guid: 841c32878f65851489249f42f7a11b9b,
        type: 3}
      propertyPath: PropertyIdSerializedGuid.Array.data[15]
      value: 116
      objectReference: {fileID: 0}
    m_RemovedComponents: []
  m_SourcePrefab: {fileID: 100100000, guid: 841c32878f65851489249f42f7a11b9b, type: 3}
--- !u!224 &8967499230733132278 stripped
RectTransform:
  m_CorrespondingSourceObject: {fileID: 8462676015886733856, guid: 841c32878f65851489249f42f7a11b9b,
    type: 3}
  m_PrefabInstance: {fileID: 649507864046105558}
  m_PrefabAsset: {fileID: 0}
--- !u!1001 &925541136596533843
PrefabInstance:
  m_ObjectHideFlags: 0
  serializedVersion: 2
  m_Modification:
    m_TransformParent: {fileID: 5105500663265469498}
    m_Modifications:
    - target: {fileID: 8061135759895216377, guid: f706cba9033ccaa43b73863559a3cd8d,
        type: 3}
      propertyPath: m_Name
      value: Button - C - 32x32 - Icon - Back
      objectReference: {fileID: 0}
    - target: {fileID: 4154028339625707863, guid: f706cba9033ccaa43b73863559a3cd8d,
        type: 3}
      propertyPath: m_LocalPosition.x
      value: 0
      objectReference: {fileID: 0}
    - target: {fileID: 4154028339625707863, guid: f706cba9033ccaa43b73863559a3cd8d,
        type: 3}
      propertyPath: m_LocalPosition.y
      value: 0
      objectReference: {fileID: 0}
    - target: {fileID: 4154028339625707863, guid: f706cba9033ccaa43b73863559a3cd8d,
        type: 3}
      propertyPath: m_LocalPosition.z
      value: 0
      objectReference: {fileID: 0}
    - target: {fileID: 4154028339625707863, guid: f706cba9033ccaa43b73863559a3cd8d,
        type: 3}
      propertyPath: m_LocalRotation.x
      value: -0
      objectReference: {fileID: 0}
    - target: {fileID: 4154028339625707863, guid: f706cba9033ccaa43b73863559a3cd8d,
        type: 3}
      propertyPath: m_LocalRotation.y
      value: -0
      objectReference: {fileID: 0}
    - target: {fileID: 4154028339625707863, guid: f706cba9033ccaa43b73863559a3cd8d,
        type: 3}
      propertyPath: m_LocalRotation.z
      value: -0
      objectReference: {fileID: 0}
    - target: {fileID: 4154028339625707863, guid: f706cba9033ccaa43b73863559a3cd8d,
        type: 3}
      propertyPath: m_LocalRotation.w
      value: 1
      objectReference: {fileID: 0}
    - target: {fileID: 4154028339625707863, guid: f706cba9033ccaa43b73863559a3cd8d,
        type: 3}
      propertyPath: m_RootOrder
      value: 0
      objectReference: {fileID: 0}
    - target: {fileID: 4154028339625707863, guid: f706cba9033ccaa43b73863559a3cd8d,
        type: 3}
      propertyPath: m_LocalEulerAnglesHint.x
      value: 0
      objectReference: {fileID: 0}
    - target: {fileID: 4154028339625707863, guid: f706cba9033ccaa43b73863559a3cd8d,
        type: 3}
      propertyPath: m_LocalEulerAnglesHint.y
      value: 0
      objectReference: {fileID: 0}
    - target: {fileID: 4154028339625707863, guid: f706cba9033ccaa43b73863559a3cd8d,
        type: 3}
      propertyPath: m_LocalEulerAnglesHint.z
      value: 0
      objectReference: {fileID: 0}
    - target: {fileID: 4154028339625707863, guid: f706cba9033ccaa43b73863559a3cd8d,
        type: 3}
      propertyPath: m_AnchoredPosition.x
      value: 8
      objectReference: {fileID: 0}
    - target: {fileID: 4154028339625707863, guid: f706cba9033ccaa43b73863559a3cd8d,
        type: 3}
      propertyPath: m_AnchoredPosition.y
      value: 0
      objectReference: {fileID: 0}
    - target: {fileID: 4154028339625707863, guid: f706cba9033ccaa43b73863559a3cd8d,
        type: 3}
      propertyPath: m_SizeDelta.x
      value: 32
      objectReference: {fileID: 0}
    - target: {fileID: 4154028339625707863, guid: f706cba9033ccaa43b73863559a3cd8d,
        type: 3}
      propertyPath: m_SizeDelta.y
      value: 32
      objectReference: {fileID: 0}
    - target: {fileID: 4154028339625707863, guid: f706cba9033ccaa43b73863559a3cd8d,
        type: 3}
      propertyPath: m_AnchorMin.x
      value: 0
      objectReference: {fileID: 0}
    - target: {fileID: 4154028339625707863, guid: f706cba9033ccaa43b73863559a3cd8d,
        type: 3}
      propertyPath: m_AnchorMin.y
      value: 0.5
      objectReference: {fileID: 0}
    - target: {fileID: 4154028339625707863, guid: f706cba9033ccaa43b73863559a3cd8d,
        type: 3}
      propertyPath: m_AnchorMax.x
      value: 0
      objectReference: {fileID: 0}
    - target: {fileID: 4154028339625707863, guid: f706cba9033ccaa43b73863559a3cd8d,
        type: 3}
      propertyPath: m_AnchorMax.y
      value: 0.5
      objectReference: {fileID: 0}
    - target: {fileID: 4154028339625707863, guid: f706cba9033ccaa43b73863559a3cd8d,
        type: 3}
      propertyPath: m_Pivot.x
      value: 0
      objectReference: {fileID: 0}
    - target: {fileID: 4154028339625707863, guid: f706cba9033ccaa43b73863559a3cd8d,
        type: 3}
      propertyPath: m_Pivot.y
      value: 0.5
      objectReference: {fileID: 0}
    - target: {fileID: 7036711549217413391, guid: f706cba9033ccaa43b73863559a3cd8d,
        type: 3}
      propertyPath: m_Color.r
      value: 0.17911176
      objectReference: {fileID: 0}
    - target: {fileID: 7036711549217413391, guid: f706cba9033ccaa43b73863559a3cd8d,
        type: 3}
      propertyPath: m_Color.g
      value: 0.19398901
      objectReference: {fileID: 0}
    - target: {fileID: 7036711549217413391, guid: f706cba9033ccaa43b73863559a3cd8d,
        type: 3}
      propertyPath: m_Color.b
      value: 0.21698111
      objectReference: {fileID: 0}
    - target: {fileID: 7036711549217413391, guid: f706cba9033ccaa43b73863559a3cd8d,
        type: 3}
      propertyPath: m_Sprite
      value: 
      objectReference: {fileID: 21300000, guid: 59de81ae75f656e48aef16e5ea2a0b6f,
        type: 3}
    - target: {fileID: 7871448174420969116, guid: f706cba9033ccaa43b73863559a3cd8d,
        type: 3}
      propertyPath: PropertyIdSerializedGuid.Array.data[0]
      value: 129
      objectReference: {fileID: 0}
    - target: {fileID: 7871448174420969116, guid: f706cba9033ccaa43b73863559a3cd8d,
        type: 3}
      propertyPath: PropertyIdSerializedGuid.Array.data[1]
      value: 150
      objectReference: {fileID: 0}
    - target: {fileID: 7871448174420969116, guid: f706cba9033ccaa43b73863559a3cd8d,
        type: 3}
      propertyPath: PropertyIdSerializedGuid.Array.data[2]
      value: 85
      objectReference: {fileID: 0}
    - target: {fileID: 7871448174420969116, guid: f706cba9033ccaa43b73863559a3cd8d,
        type: 3}
      propertyPath: PropertyIdSerializedGuid.Array.data[3]
      value: 20
      objectReference: {fileID: 0}
    - target: {fileID: 7871448174420969116, guid: f706cba9033ccaa43b73863559a3cd8d,
        type: 3}
      propertyPath: PropertyIdSerializedGuid.Array.data[4]
      value: 62
      objectReference: {fileID: 0}
    - target: {fileID: 7871448174420969116, guid: f706cba9033ccaa43b73863559a3cd8d,
        type: 3}
      propertyPath: PropertyIdSerializedGuid.Array.data[5]
      value: 131
      objectReference: {fileID: 0}
    - target: {fileID: 7871448174420969116, guid: f706cba9033ccaa43b73863559a3cd8d,
        type: 3}
      propertyPath: PropertyIdSerializedGuid.Array.data[6]
      value: 236
      objectReference: {fileID: 0}
    - target: {fileID: 7871448174420969116, guid: f706cba9033ccaa43b73863559a3cd8d,
        type: 3}
      propertyPath: PropertyIdSerializedGuid.Array.data[7]
      value: 69
      objectReference: {fileID: 0}
    - target: {fileID: 7871448174420969116, guid: f706cba9033ccaa43b73863559a3cd8d,
        type: 3}
      propertyPath: PropertyIdSerializedGuid.Array.data[8]
      value: 162
      objectReference: {fileID: 0}
    - target: {fileID: 7871448174420969116, guid: f706cba9033ccaa43b73863559a3cd8d,
        type: 3}
      propertyPath: PropertyIdSerializedGuid.Array.data[9]
      value: 61
      objectReference: {fileID: 0}
    - target: {fileID: 7871448174420969116, guid: f706cba9033ccaa43b73863559a3cd8d,
        type: 3}
      propertyPath: PropertyIdSerializedGuid.Array.data[10]
      value: 103
      objectReference: {fileID: 0}
    - target: {fileID: 7871448174420969116, guid: f706cba9033ccaa43b73863559a3cd8d,
        type: 3}
      propertyPath: PropertyIdSerializedGuid.Array.data[11]
      value: 46
      objectReference: {fileID: 0}
    - target: {fileID: 7871448174420969116, guid: f706cba9033ccaa43b73863559a3cd8d,
        type: 3}
      propertyPath: PropertyIdSerializedGuid.Array.data[12]
      value: 232
      objectReference: {fileID: 0}
    - target: {fileID: 7871448174420969116, guid: f706cba9033ccaa43b73863559a3cd8d,
        type: 3}
      propertyPath: PropertyIdSerializedGuid.Array.data[13]
      value: 17
      objectReference: {fileID: 0}
    - target: {fileID: 7871448174420969116, guid: f706cba9033ccaa43b73863559a3cd8d,
        type: 3}
      propertyPath: PropertyIdSerializedGuid.Array.data[14]
      value: 102
      objectReference: {fileID: 0}
    - target: {fileID: 7871448174420969116, guid: f706cba9033ccaa43b73863559a3cd8d,
        type: 3}
      propertyPath: PropertyIdSerializedGuid.Array.data[15]
      value: 116
      objectReference: {fileID: 0}
    - target: {fileID: 5087694194728089296, guid: f706cba9033ccaa43b73863559a3cd8d,
        type: 3}
      propertyPath: m_Sprite
      value: 
      objectReference: {fileID: 21300000, guid: 59de81ae75f656e48aef16e5ea2a0b6f,
        type: 3}
    m_RemovedComponents: []
  m_SourcePrefab: {fileID: 100100000, guid: f706cba9033ccaa43b73863559a3cd8d, type: 3}
--- !u!224 &3854584330186836740 stripped
RectTransform:
  m_CorrespondingSourceObject: {fileID: 4154028339625707863, guid: f706cba9033ccaa43b73863559a3cd8d,
    type: 3}
  m_PrefabInstance: {fileID: 925541136596533843}
  m_PrefabAsset: {fileID: 0}
--- !u!1001 &1752581996980915352
PrefabInstance:
  m_ObjectHideFlags: 0
  serializedVersion: 2
  m_Modification:
    m_TransformParent: {fileID: 6581083755024398227}
    m_Modifications:
    - target: {fileID: 3412777236948340991, guid: aceb95766e178524e8747b764134ad3d,
        type: 3}
      propertyPath: m_Name
      value: Stroke - Square 4
      objectReference: {fileID: 0}
    - target: {fileID: 4943362255888483617, guid: aceb95766e178524e8747b764134ad3d,
        type: 3}
      propertyPath: m_LocalPosition.x
      value: 0
      objectReference: {fileID: 0}
    - target: {fileID: 4943362255888483617, guid: aceb95766e178524e8747b764134ad3d,
        type: 3}
      propertyPath: m_LocalPosition.y
      value: 0
      objectReference: {fileID: 0}
    - target: {fileID: 4943362255888483617, guid: aceb95766e178524e8747b764134ad3d,
        type: 3}
      propertyPath: m_LocalPosition.z
      value: 90
      objectReference: {fileID: 0}
    - target: {fileID: 4943362255888483617, guid: aceb95766e178524e8747b764134ad3d,
        type: 3}
      propertyPath: m_LocalRotation.x
      value: -0
      objectReference: {fileID: 0}
    - target: {fileID: 4943362255888483617, guid: aceb95766e178524e8747b764134ad3d,
        type: 3}
      propertyPath: m_LocalRotation.y
      value: -0
      objectReference: {fileID: 0}
    - target: {fileID: 4943362255888483617, guid: aceb95766e178524e8747b764134ad3d,
        type: 3}
      propertyPath: m_LocalRotation.z
      value: -0
      objectReference: {fileID: 0}
    - target: {fileID: 4943362255888483617, guid: aceb95766e178524e8747b764134ad3d,
        type: 3}
      propertyPath: m_LocalRotation.w
      value: 1
      objectReference: {fileID: 0}
    - target: {fileID: 4943362255888483617, guid: aceb95766e178524e8747b764134ad3d,
        type: 3}
      propertyPath: m_RootOrder
      value: 3
      objectReference: {fileID: 0}
    - target: {fileID: 4943362255888483617, guid: aceb95766e178524e8747b764134ad3d,
        type: 3}
      propertyPath: m_LocalEulerAnglesHint.x
      value: 0
      objectReference: {fileID: 0}
    - target: {fileID: 4943362255888483617, guid: aceb95766e178524e8747b764134ad3d,
        type: 3}
      propertyPath: m_LocalEulerAnglesHint.y
      value: 0
      objectReference: {fileID: 0}
    - target: {fileID: 4943362255888483617, guid: aceb95766e178524e8747b764134ad3d,
        type: 3}
      propertyPath: m_LocalEulerAnglesHint.z
      value: 0
      objectReference: {fileID: 0}
    - target: {fileID: 4943362255888483617, guid: aceb95766e178524e8747b764134ad3d,
        type: 3}
      propertyPath: m_AnchoredPosition.x
      value: 0
      objectReference: {fileID: 0}
    - target: {fileID: 4943362255888483617, guid: aceb95766e178524e8747b764134ad3d,
        type: 3}
      propertyPath: m_AnchoredPosition.y
      value: 0
      objectReference: {fileID: 0}
    - target: {fileID: 4943362255888483617, guid: aceb95766e178524e8747b764134ad3d,
        type: 3}
      propertyPath: m_SizeDelta.x
      value: 0
      objectReference: {fileID: 0}
    - target: {fileID: 4943362255888483617, guid: aceb95766e178524e8747b764134ad3d,
        type: 3}
      propertyPath: m_SizeDelta.y
      value: 0
      objectReference: {fileID: 0}
    - target: {fileID: 4943362255888483617, guid: aceb95766e178524e8747b764134ad3d,
        type: 3}
      propertyPath: m_AnchorMin.x
      value: 0
      objectReference: {fileID: 0}
    - target: {fileID: 4943362255888483617, guid: aceb95766e178524e8747b764134ad3d,
        type: 3}
      propertyPath: m_AnchorMin.y
      value: 0
      objectReference: {fileID: 0}
    - target: {fileID: 4943362255888483617, guid: aceb95766e178524e8747b764134ad3d,
        type: 3}
      propertyPath: m_AnchorMax.x
      value: 1
      objectReference: {fileID: 0}
    - target: {fileID: 4943362255888483617, guid: aceb95766e178524e8747b764134ad3d,
        type: 3}
      propertyPath: m_AnchorMax.y
      value: 1
      objectReference: {fileID: 0}
    - target: {fileID: 4943362255888483617, guid: aceb95766e178524e8747b764134ad3d,
        type: 3}
      propertyPath: m_Pivot.x
      value: 0.5
      objectReference: {fileID: 0}
    - target: {fileID: 4943362255888483617, guid: aceb95766e178524e8747b764134ad3d,
        type: 3}
      propertyPath: m_Pivot.y
      value: 0.5
      objectReference: {fileID: 0}
    - target: {fileID: 8955943543763894806, guid: aceb95766e178524e8747b764134ad3d,
        type: 3}
      propertyPath: m_Sprite
      value: 
      objectReference: {fileID: 21300000, guid: 2be54e7d3b8b45949a3d46c206dfdbb7,
        type: 3}
    m_RemovedComponents: []
  m_SourcePrefab: {fileID: 100100000, guid: aceb95766e178524e8747b764134ad3d, type: 3}
--- !u!1001 &4464556936126191604
PrefabInstance:
  m_ObjectHideFlags: 0
  serializedVersion: 2
  m_Modification:
    m_TransformParent: {fileID: 1367588212343262759}
    m_Modifications:
    - target: {fileID: 1492904470961484596, guid: d8a641716ea7b304ca6e9420899479d8,
        type: 3}
      propertyPath: m_Name
      value: Card - Square - 256x256 Out - Image
      objectReference: {fileID: 0}
    - target: {fileID: 2335476870563313683, guid: d8a641716ea7b304ca6e9420899479d8,
        type: 3}
      propertyPath: m_LocalPosition.x
      value: 0
      objectReference: {fileID: 0}
    - target: {fileID: 2335476870563313683, guid: d8a641716ea7b304ca6e9420899479d8,
        type: 3}
      propertyPath: m_LocalPosition.y
      value: 0
      objectReference: {fileID: 0}
    - target: {fileID: 2335476870563313683, guid: d8a641716ea7b304ca6e9420899479d8,
        type: 3}
      propertyPath: m_LocalPosition.z
      value: 0
      objectReference: {fileID: 0}
    - target: {fileID: 2335476870563313683, guid: d8a641716ea7b304ca6e9420899479d8,
        type: 3}
      propertyPath: m_LocalRotation.x
      value: -0
      objectReference: {fileID: 0}
    - target: {fileID: 2335476870563313683, guid: d8a641716ea7b304ca6e9420899479d8,
        type: 3}
      propertyPath: m_LocalRotation.y
      value: -0
      objectReference: {fileID: 0}
    - target: {fileID: 2335476870563313683, guid: d8a641716ea7b304ca6e9420899479d8,
        type: 3}
      propertyPath: m_LocalRotation.z
      value: -0
      objectReference: {fileID: 0}
    - target: {fileID: 2335476870563313683, guid: d8a641716ea7b304ca6e9420899479d8,
        type: 3}
      propertyPath: m_LocalRotation.w
      value: 1
      objectReference: {fileID: 0}
    - target: {fileID: 2335476870563313683, guid: d8a641716ea7b304ca6e9420899479d8,
        type: 3}
      propertyPath: m_RootOrder
      value: 3
      objectReference: {fileID: 0}
    - target: {fileID: 2335476870563313683, guid: d8a641716ea7b304ca6e9420899479d8,
        type: 3}
      propertyPath: m_LocalEulerAnglesHint.x
      value: 0
      objectReference: {fileID: 0}
    - target: {fileID: 2335476870563313683, guid: d8a641716ea7b304ca6e9420899479d8,
        type: 3}
      propertyPath: m_LocalEulerAnglesHint.y
      value: 0
      objectReference: {fileID: 0}
    - target: {fileID: 2335476870563313683, guid: d8a641716ea7b304ca6e9420899479d8,
        type: 3}
      propertyPath: m_LocalEulerAnglesHint.z
      value: 0
      objectReference: {fileID: 0}
    - target: {fileID: 2335476870563313683, guid: d8a641716ea7b304ca6e9420899479d8,
        type: 3}
      propertyPath: m_AnchoredPosition.x
      value: 0
      objectReference: {fileID: 0}
    - target: {fileID: 2335476870563313683, guid: d8a641716ea7b304ca6e9420899479d8,
        type: 3}
      propertyPath: m_AnchoredPosition.y
      value: -128
      objectReference: {fileID: 0}
    - target: {fileID: 2335476870563313683, guid: d8a641716ea7b304ca6e9420899479d8,
        type: 3}
      propertyPath: m_SizeDelta.x
      value: 256
      objectReference: {fileID: 0}
    - target: {fileID: 2335476870563313683, guid: d8a641716ea7b304ca6e9420899479d8,
        type: 3}
      propertyPath: m_SizeDelta.y
      value: 256
      objectReference: {fileID: 0}
    - target: {fileID: 2335476870563313683, guid: d8a641716ea7b304ca6e9420899479d8,
        type: 3}
      propertyPath: m_AnchorMin.x
      value: 0.5
      objectReference: {fileID: 0}
    - target: {fileID: 2335476870563313683, guid: d8a641716ea7b304ca6e9420899479d8,
        type: 3}
      propertyPath: m_AnchorMin.y
      value: 1
      objectReference: {fileID: 0}
    - target: {fileID: 2335476870563313683, guid: d8a641716ea7b304ca6e9420899479d8,
        type: 3}
      propertyPath: m_AnchorMax.x
      value: 0.5
      objectReference: {fileID: 0}
    - target: {fileID: 2335476870563313683, guid: d8a641716ea7b304ca6e9420899479d8,
        type: 3}
      propertyPath: m_AnchorMax.y
      value: 1
      objectReference: {fileID: 0}
    - target: {fileID: 2335476870563313683, guid: d8a641716ea7b304ca6e9420899479d8,
        type: 3}
      propertyPath: m_Pivot.x
      value: 0.5
      objectReference: {fileID: 0}
    - target: {fileID: 2335476870563313683, guid: d8a641716ea7b304ca6e9420899479d8,
        type: 3}
      propertyPath: m_Pivot.y
      value: 1
      objectReference: {fileID: 0}
    - target: {fileID: 1671921605227010052, guid: d8a641716ea7b304ca6e9420899479d8,
        type: 3}
      propertyPath: m_AnchorMax.x
      value: 0
      objectReference: {fileID: 0}
    - target: {fileID: 1671921605227010052, guid: d8a641716ea7b304ca6e9420899479d8,
        type: 3}
      propertyPath: m_AnchorMax.y
      value: 0
      objectReference: {fileID: 0}
    - target: {fileID: 1671921605227010052, guid: d8a641716ea7b304ca6e9420899479d8,
        type: 3}
      propertyPath: m_SizeDelta.x
      value: 0
      objectReference: {fileID: 0}
    - target: {fileID: 6981888928202998916, guid: d8a641716ea7b304ca6e9420899479d8,
        type: 3}
      propertyPath: m_Sprite
      value: 
      objectReference: {fileID: 21300000, guid: c4b2c30d4bd65ad439a3903bb4f9abb5,
        type: 3}
    m_RemovedComponents: []
  m_SourcePrefab: {fileID: 100100000, guid: d8a641716ea7b304ca6e9420899479d8, type: 3}
--- !u!1001 &7709204506885097677
PrefabInstance:
  m_ObjectHideFlags: 0
  serializedVersion: 2
  m_Modification:
    m_TransformParent: {fileID: 5105500663129085744}
    m_Modifications:
    - target: {fileID: 2035387673148254334, guid: 0ee98456a8e642d45b81aaec6abfe482,
        type: 3}
      propertyPath: m_Name
      value: Button - B - 128x32 - Square - Text
      objectReference: {fileID: 0}
    - target: {fileID: 5352489440595861968, guid: 0ee98456a8e642d45b81aaec6abfe482,
        type: 3}
      propertyPath: m_LocalPosition.x
      value: 0
      objectReference: {fileID: 0}
    - target: {fileID: 5352489440595861968, guid: 0ee98456a8e642d45b81aaec6abfe482,
        type: 3}
      propertyPath: m_LocalPosition.y
      value: 0
      objectReference: {fileID: 0}
    - target: {fileID: 5352489440595861968, guid: 0ee98456a8e642d45b81aaec6abfe482,
        type: 3}
      propertyPath: m_LocalPosition.z
      value: 0
      objectReference: {fileID: 0}
    - target: {fileID: 5352489440595861968, guid: 0ee98456a8e642d45b81aaec6abfe482,
        type: 3}
      propertyPath: m_LocalRotation.x
      value: 0
      objectReference: {fileID: 0}
    - target: {fileID: 5352489440595861968, guid: 0ee98456a8e642d45b81aaec6abfe482,
        type: 3}
      propertyPath: m_LocalRotation.y
      value: 0
      objectReference: {fileID: 0}
    - target: {fileID: 5352489440595861968, guid: 0ee98456a8e642d45b81aaec6abfe482,
        type: 3}
      propertyPath: m_LocalRotation.z
      value: 0
      objectReference: {fileID: 0}
    - target: {fileID: 5352489440595861968, guid: 0ee98456a8e642d45b81aaec6abfe482,
        type: 3}
      propertyPath: m_LocalRotation.w
      value: 1
      objectReference: {fileID: 0}
    - target: {fileID: 5352489440595861968, guid: 0ee98456a8e642d45b81aaec6abfe482,
        type: 3}
      propertyPath: m_RootOrder
      value: 0
      objectReference: {fileID: 0}
    - target: {fileID: 5352489440595861968, guid: 0ee98456a8e642d45b81aaec6abfe482,
        type: 3}
      propertyPath: m_LocalEulerAnglesHint.x
      value: 0
      objectReference: {fileID: 0}
    - target: {fileID: 5352489440595861968, guid: 0ee98456a8e642d45b81aaec6abfe482,
        type: 3}
      propertyPath: m_LocalEulerAnglesHint.y
      value: 0
      objectReference: {fileID: 0}
    - target: {fileID: 5352489440595861968, guid: 0ee98456a8e642d45b81aaec6abfe482,
        type: 3}
      propertyPath: m_LocalEulerAnglesHint.z
      value: 0
      objectReference: {fileID: 0}
    - target: {fileID: 5352489440595861968, guid: 0ee98456a8e642d45b81aaec6abfe482,
        type: 3}
      propertyPath: m_AnchoredPosition.x
      value: 0
      objectReference: {fileID: 0}
    - target: {fileID: 5352489440595861968, guid: 0ee98456a8e642d45b81aaec6abfe482,
        type: 3}
      propertyPath: m_AnchoredPosition.y
      value: 0
      objectReference: {fileID: 0}
    - target: {fileID: 5352489440595861968, guid: 0ee98456a8e642d45b81aaec6abfe482,
        type: 3}
      propertyPath: m_SizeDelta.x
      value: 0
      objectReference: {fileID: 0}
    - target: {fileID: 5352489440595861968, guid: 0ee98456a8e642d45b81aaec6abfe482,
        type: 3}
      propertyPath: m_SizeDelta.y
      value: 0
      objectReference: {fileID: 0}
    - target: {fileID: 5352489440595861968, guid: 0ee98456a8e642d45b81aaec6abfe482,
        type: 3}
      propertyPath: m_AnchorMin.x
      value: 0
      objectReference: {fileID: 0}
    - target: {fileID: 5352489440595861968, guid: 0ee98456a8e642d45b81aaec6abfe482,
        type: 3}
      propertyPath: m_AnchorMin.y
      value: 0
      objectReference: {fileID: 0}
    - target: {fileID: 5352489440595861968, guid: 0ee98456a8e642d45b81aaec6abfe482,
        type: 3}
      propertyPath: m_AnchorMax.x
      value: 1
      objectReference: {fileID: 0}
    - target: {fileID: 5352489440595861968, guid: 0ee98456a8e642d45b81aaec6abfe482,
        type: 3}
      propertyPath: m_AnchorMax.y
      value: 1
      objectReference: {fileID: 0}
    - target: {fileID: 5352489440595861968, guid: 0ee98456a8e642d45b81aaec6abfe482,
        type: 3}
      propertyPath: m_Pivot.x
      value: 0.5
      objectReference: {fileID: 0}
    - target: {fileID: 5352489440595861968, guid: 0ee98456a8e642d45b81aaec6abfe482,
        type: 3}
      propertyPath: m_Pivot.y
      value: 0.5
      objectReference: {fileID: 0}
    - target: {fileID: 7098583874833543916, guid: 0ee98456a8e642d45b81aaec6abfe482,
        type: 3}
      propertyPath: m_text
      value: Get Started
      objectReference: {fileID: 0}
    - target: {fileID: 7098583874833543916, guid: 0ee98456a8e642d45b81aaec6abfe482,
        type: 3}
      propertyPath: m_sharedMaterial
      value: 
      objectReference: {fileID: 4835089367266696174, guid: 643aebd7124d3c34bb062c5a60ebb5a8,
        type: 2}
    - target: {fileID: 7098583874833543916, guid: 0ee98456a8e642d45b81aaec6abfe482,
        type: 3}
      propertyPath: m_fontColor32.rgba
      value: 4281807149
      objectReference: {fileID: 0}
    - target: {fileID: 7098583874833543916, guid: 0ee98456a8e642d45b81aaec6abfe482,
        type: 3}
      propertyPath: m_fontColor.r
      value: 0.17911176
      objectReference: {fileID: 0}
    - target: {fileID: 7098583874833543916, guid: 0ee98456a8e642d45b81aaec6abfe482,
        type: 3}
      propertyPath: m_fontColor.g
      value: 0.19398901
      objectReference: {fileID: 0}
    - target: {fileID: 7098583874833543916, guid: 0ee98456a8e642d45b81aaec6abfe482,
        type: 3}
      propertyPath: m_fontColor.b
      value: 0.21698111
      objectReference: {fileID: 0}
    - target: {fileID: 7098583874833543916, guid: 0ee98456a8e642d45b81aaec6abfe482,
        type: 3}
      propertyPath: m_fontSize
      value: 20
      objectReference: {fileID: 0}
    - target: {fileID: 7098583874833543916, guid: 0ee98456a8e642d45b81aaec6abfe482,
        type: 3}
      propertyPath: m_fontSizeMax
      value: 20
      objectReference: {fileID: 0}
    - target: {fileID: 7098583874833543916, guid: 0ee98456a8e642d45b81aaec6abfe482,
        type: 3}
      propertyPath: m_textInfo.characterCount
      value: 11
      objectReference: {fileID: 0}
    - target: {fileID: 7098583874833543916, guid: 0ee98456a8e642d45b81aaec6abfe482,
        type: 3}
      propertyPath: m_textInfo.spaceCount
      value: 1
      objectReference: {fileID: 0}
    - target: {fileID: 7098583874833543916, guid: 0ee98456a8e642d45b81aaec6abfe482,
        type: 3}
      propertyPath: m_textInfo.wordCount
      value: 2
      objectReference: {fileID: 0}
    - target: {fileID: 7098583874833543916, guid: 0ee98456a8e642d45b81aaec6abfe482,
        type: 3}
      propertyPath: m_hasFontAssetChanged
      value: 0
      objectReference: {fileID: 0}
    - target: {fileID: 4337246826545721298, guid: 0ee98456a8e642d45b81aaec6abfe482,
        type: 3}
      propertyPath: PropertyIdSerializedGuid.Array.data[0]
      value: 129
      objectReference: {fileID: 0}
    - target: {fileID: 4337246826545721298, guid: 0ee98456a8e642d45b81aaec6abfe482,
        type: 3}
      propertyPath: PropertyIdSerializedGuid.Array.data[1]
      value: 150
      objectReference: {fileID: 0}
    - target: {fileID: 4337246826545721298, guid: 0ee98456a8e642d45b81aaec6abfe482,
        type: 3}
      propertyPath: PropertyIdSerializedGuid.Array.data[2]
      value: 85
      objectReference: {fileID: 0}
    - target: {fileID: 4337246826545721298, guid: 0ee98456a8e642d45b81aaec6abfe482,
        type: 3}
      propertyPath: PropertyIdSerializedGuid.Array.data[3]
      value: 20
      objectReference: {fileID: 0}
    - target: {fileID: 4337246826545721298, guid: 0ee98456a8e642d45b81aaec6abfe482,
        type: 3}
      propertyPath: PropertyIdSerializedGuid.Array.data[4]
      value: 62
      objectReference: {fileID: 0}
    - target: {fileID: 4337246826545721298, guid: 0ee98456a8e642d45b81aaec6abfe482,
        type: 3}
      propertyPath: PropertyIdSerializedGuid.Array.data[5]
      value: 131
      objectReference: {fileID: 0}
    - target: {fileID: 4337246826545721298, guid: 0ee98456a8e642d45b81aaec6abfe482,
        type: 3}
      propertyPath: PropertyIdSerializedGuid.Array.data[6]
      value: 236
      objectReference: {fileID: 0}
    - target: {fileID: 4337246826545721298, guid: 0ee98456a8e642d45b81aaec6abfe482,
        type: 3}
      propertyPath: PropertyIdSerializedGuid.Array.data[7]
      value: 69
      objectReference: {fileID: 0}
    - target: {fileID: 4337246826545721298, guid: 0ee98456a8e642d45b81aaec6abfe482,
        type: 3}
      propertyPath: PropertyIdSerializedGuid.Array.data[8]
      value: 162
      objectReference: {fileID: 0}
    - target: {fileID: 4337246826545721298, guid: 0ee98456a8e642d45b81aaec6abfe482,
        type: 3}
      propertyPath: PropertyIdSerializedGuid.Array.data[9]
      value: 61
      objectReference: {fileID: 0}
    - target: {fileID: 4337246826545721298, guid: 0ee98456a8e642d45b81aaec6abfe482,
        type: 3}
      propertyPath: PropertyIdSerializedGuid.Array.data[10]
      value: 103
      objectReference: {fileID: 0}
    - target: {fileID: 4337246826545721298, guid: 0ee98456a8e642d45b81aaec6abfe482,
        type: 3}
      propertyPath: PropertyIdSerializedGuid.Array.data[11]
      value: 46
      objectReference: {fileID: 0}
    - target: {fileID: 4337246826545721298, guid: 0ee98456a8e642d45b81aaec6abfe482,
        type: 3}
      propertyPath: PropertyIdSerializedGuid.Array.data[12]
      value: 232
      objectReference: {fileID: 0}
    - target: {fileID: 4337246826545721298, guid: 0ee98456a8e642d45b81aaec6abfe482,
        type: 3}
      propertyPath: PropertyIdSerializedGuid.Array.data[13]
      value: 17
      objectReference: {fileID: 0}
    - target: {fileID: 4337246826545721298, guid: 0ee98456a8e642d45b81aaec6abfe482,
        type: 3}
      propertyPath: PropertyIdSerializedGuid.Array.data[14]
      value: 102
      objectReference: {fileID: 0}
    - target: {fileID: 4337246826545721298, guid: 0ee98456a8e642d45b81aaec6abfe482,
        type: 3}
      propertyPath: PropertyIdSerializedGuid.Array.data[15]
      value: 116
      objectReference: {fileID: 0}
    m_RemovedComponents: []
  m_SourcePrefab: {fileID: 100100000, guid: 0ee98456a8e642d45b81aaec6abfe482, type: 3}
--- !u!224 &2358554073374189853 stripped
RectTransform:
  m_CorrespondingSourceObject: {fileID: 5352489440595861968, guid: 0ee98456a8e642d45b81aaec6abfe482,
    type: 3}
  m_PrefabInstance: {fileID: 7709204506885097677}
  m_PrefabAsset: {fileID: 0}
