%YAML 1.1
%TAG !u! tag:unity3d.com,2011:
--- !u!1 &3685069959178534542
GameObject:
  m_ObjectHideFlags: 0
  m_CorrespondingSourceObject: {fileID: 0}
  m_PrefabInstance: {fileID: 0}
  m_PrefabAsset: {fileID: 0}
  serializedVersion: 6
  m_Component:
  - component: {fileID: 3685069959178534537}
  m_Layer: 0
  m_Name: Content
  m_TagString: Untagged
  m_Icon: {fileID: 0}
  m_NavMeshLayer: 0
  m_StaticEditorFlags: 0
  m_IsActive: 1
--- !u!224 &3685069959178534537
RectTransform:
  m_ObjectHideFlags: 0
  m_CorrespondingSourceObject: {fileID: 0}
  m_PrefabInstance: {fileID: 0}
  m_PrefabAsset: {fileID: 0}
  m_GameObject: {fileID: 3685069959178534542}
  m_LocalRotation: {x: -0, y: -0, z: -0, w: 1}
  m_LocalPosition: {x: 0, y: 0, z: 0}
  m_LocalScale: {x: 1, y: 1, z: 1}
  m_Children:
  - {fileID: 7392113557079441848}
  - {fileID: 3685069959967487767}
  - {fileID: 3685069959577266458}
  m_Father: {fileID: 1999462159230297543}
  m_RootOrder: 0
  m_LocalEulerAnglesHint: {x: 0, y: 0, z: 0}
  m_AnchorMin: {x: 0, y: 0}
  m_AnchorMax: {x: 1, y: 1}
  m_AnchoredPosition: {x: 0, y: 0}
  m_SizeDelta: {x: 0, y: -192}
  m_Pivot: {x: 0.5, y: 0.5}
--- !u!114 &3685069959452752794
MonoBehaviour:
  m_ObjectHideFlags: 0
  m_CorrespondingSourceObject: {fileID: 0}
  m_PrefabInstance: {fileID: 0}
  m_PrefabAsset: {fileID: 0}
  m_GameObject: {fileID: 7807614222112088532}
  m_Enabled: 1
  m_EditorHideFlags: 0
  m_Script: {fileID: -1200242548, guid: f70555f144d8491a825f0804e09c671c, type: 3}
  m_Name: 
  m_EditorClassIdentifier: 
  m_ShowMaskGraphic: 1
--- !u!1 &3685069959577266459
GameObject:
  m_ObjectHideFlags: 0
  m_CorrespondingSourceObject: {fileID: 0}
  m_PrefabInstance: {fileID: 0}
  m_PrefabAsset: {fileID: 0}
  serializedVersion: 6
  m_Component:
  - component: {fileID: 3685069959577266458}
  - component: {fileID: 3685069959577266439}
  - component: {fileID: 3685069959577266436}
  - component: {fileID: 3685069959577266437}
  m_Layer: 0
  m_Name: Subtitle
  m_TagString: Untagged
  m_Icon: {fileID: 0}
  m_NavMeshLayer: 0
  m_StaticEditorFlags: 0
  m_IsActive: 1
--- !u!224 &3685069959577266458
RectTransform:
  m_ObjectHideFlags: 0
  m_CorrespondingSourceObject: {fileID: 0}
  m_PrefabInstance: {fileID: 0}
  m_PrefabAsset: {fileID: 0}
  m_GameObject: {fileID: 3685069959577266459}
  m_LocalRotation: {x: -0, y: -0, z: -0, w: 1}
  m_LocalPosition: {x: 0, y: 0, z: 0}
  m_LocalScale: {x: 1, y: 1, z: 1}
  m_Children: []
  m_Father: {fileID: 3685069959178534537}
  m_RootOrder: 2
  m_LocalEulerAnglesHint: {x: 0, y: 0, z: 0}
  m_AnchorMin: {x: 0, y: 0}
  m_AnchorMax: {x: 1, y: 0}
  m_AnchoredPosition: {x: 0, y: 112}
  m_SizeDelta: {x: -64, y: 208}
  m_Pivot: {x: 0.5, y: 0.5}
--- !u!222 &3685069959577266439
CanvasRenderer:
  m_ObjectHideFlags: 0
  m_CorrespondingSourceObject: {fileID: 0}
  m_PrefabInstance: {fileID: 0}
  m_PrefabAsset: {fileID: 0}
  m_GameObject: {fileID: 3685069959577266459}
  m_CullTransparentMesh: 0
--- !u!114 &3685069959577266436
MonoBehaviour:
  m_ObjectHideFlags: 0
  m_CorrespondingSourceObject: {fileID: 0}
  m_PrefabInstance: {fileID: 0}
  m_PrefabAsset: {fileID: 0}
  m_GameObject: {fileID: 3685069959577266459}
  m_Enabled: 1
  m_EditorHideFlags: 0
  m_Script: {fileID: 11500000, guid: f4688fdb7df04437aeb418b961361dc5, type: 3}
  m_Name: 
  m_EditorClassIdentifier: 
  m_Material: {fileID: 0}
  m_Color: {r: 1, g: 1, b: 1, a: 1}
  m_RaycastTarget: 1
  m_OnCullStateChanged:
    m_PersistentCalls:
      m_Calls: []
    m_TypeName: UnityEngine.UI.MaskableGraphic+CullStateChangedEvent, UnityEngine.UI,
      Version=1.0.0.0, Culture=neutral, PublicKeyToken=null
  m_text: Fusce aliquam diam ut felis lobortis rutrum. Vivamus tristique justo in
    turpis tristique maximus. Praesent bibendum ligula vitae mauris tristique volutpat.
    Maecenas semper lacus id enim dictum gravida.
  m_isRightToLeft: 0
  m_fontAsset: {fileID: 11400000, guid: 643aebd7124d3c34bb062c5a60ebb5a8, type: 2}
  m_sharedMaterial: {fileID: 4835089367266696174, guid: 643aebd7124d3c34bb062c5a60ebb5a8,
    type: 2}
  m_fontSharedMaterials: []
  m_fontMaterial: {fileID: 0}
  m_fontMaterials: []
  m_fontColor32:
    serializedVersion: 2
    rgba: 4288646787
  m_fontColor: {r: 0.5137255, g: 0.5568628, b: 0.62352943, a: 1}
  m_enableVertexGradient: 0
  m_colorMode: 3
  m_fontColorGradient:
    topLeft: {r: 1, g: 1, b: 1, a: 1}
    topRight: {r: 1, g: 1, b: 1, a: 1}
    bottomLeft: {r: 1, g: 1, b: 1, a: 1}
    bottomRight: {r: 1, g: 1, b: 1, a: 1}
  m_fontColorGradientPreset: {fileID: 0}
  m_spriteAsset: {fileID: 0}
  m_tintAllSprites: 0
  m_overrideHtmlColors: 0
  m_faceColor:
    serializedVersion: 2
    rgba: 4294967295
  m_outlineColor:
    serializedVersion: 2
    rgba: 4278190080
  m_fontSize: 16
  m_fontSizeBase: 16
  m_fontWeight: 400
  m_enableAutoSizing: 0
  m_fontSizeMin: 8
  m_fontSizeMax: 16
  m_fontStyle: 0
  m_textAlignment: 264
  m_characterSpacing: 0
  m_wordSpacing: 0
  m_lineSpacing: 0
  m_lineSpacingMax: 0
  m_paragraphSpacing: 0
  m_charWidthMaxAdj: 0
  m_enableWordWrapping: 1
  m_wordWrappingRatios: 0.4
  m_overflowMode: 1
  m_firstOverflowCharacterIndex: -1
  m_linkedTextComponent: {fileID: 0}
  m_isLinkedTextComponent: 0
  m_isTextTruncated: 0
  m_enableKerning: 1
  m_enableExtraPadding: 0
  checkPaddingRequired: 0
  m_isRichText: 1
  m_parseCtrlCharacters: 1
  m_isOrthographic: 1
  m_isCullingEnabled: 0
  m_ignoreRectMaskCulling: 0
  m_ignoreCulling: 1
  m_horizontalMapping: 0
  m_verticalMapping: 0
  m_uvLineOffset: 0
  m_geometrySortingOrder: 0
  m_VertexBufferAutoSizeReduction: 1
  m_firstVisibleCharacter: 0
  m_useMaxVisibleDescender: 1
  m_pageToDisplay: 1
  m_margin: {x: 0, y: 0, z: 0, w: 0}
  m_textInfo:
    textComponent: {fileID: 3685069959577266436}
    characterCount: 201
    spriteCount: 0
    spaceCount: 27
    wordCount: 28
    linkCount: 0
    lineCount: 4
    pageCount: 1
    materialCount: 1
  m_isUsingLegacyAnimationComponent: 0
  m_isVolumetricText: 0
  m_spriteAnimator: {fileID: 0}
  m_hasFontAssetChanged: 0
  m_subTextObjects:
  - {fileID: 0}
  - {fileID: 0}
  - {fileID: 0}
  - {fileID: 0}
  - {fileID: 0}
  - {fileID: 0}
  - {fileID: 0}
  - {fileID: 0}
  m_baseMaterial: {fileID: 0}
  m_maskOffset: {x: 0, y: 0, z: 0, w: 0}
--- !u!114 &3685069959577266437
MonoBehaviour:
  m_ObjectHideFlags: 0
  m_CorrespondingSourceObject: {fileID: 0}
  m_PrefabInstance: {fileID: 0}
  m_PrefabAsset: {fileID: 0}
  m_GameObject: {fileID: 3685069959577266459}
  m_Enabled: 1
  m_EditorHideFlags: 0
  m_Script: {fileID: 11500000, guid: 8f34e6c94be345baaafed933eb7531ca, type: 3}
  m_Name: 
  m_EditorClassIdentifier: 
  ThemeIdSerializedGuid: 4970eed67e2b864e9e16a851bb1066cb
  VariantIdSerializedGuid: 
  PropertyIdSerializedGuid: 2c3d61b82e5f674f9dab31c31fe71403
  TextMeshPro: {fileID: 3685069959577266436}
  OverrideAlpha: 0
  Alpha: 0
--- !u!1 &3685069959919533900
GameObject:
  m_ObjectHideFlags: 0
  m_CorrespondingSourceObject: {fileID: 0}
  m_PrefabInstance: {fileID: 0}
  m_PrefabAsset: {fileID: 0}
  serializedVersion: 6
  m_Component:
  - component: {fileID: 3685069959919533903}
  m_Layer: 0
  m_Name: Buttons
  m_TagString: Untagged
  m_Icon: {fileID: 0}
  m_NavMeshLayer: 0
  m_StaticEditorFlags: 0
  m_IsActive: 1
--- !u!224 &3685069959919533903
RectTransform:
  m_ObjectHideFlags: 0
  m_CorrespondingSourceObject: {fileID: 0}
  m_PrefabInstance: {fileID: 0}
  m_PrefabAsset: {fileID: 0}
  m_GameObject: {fileID: 3685069959919533900}
  m_LocalRotation: {x: -0, y: -0, z: -0, w: 1}
  m_LocalPosition: {x: 0, y: 0, z: 0}
  m_LocalScale: {x: 1, y: 1, z: 1}
  m_Children:
  - {fileID: 3685069960981342305}
  - {fileID: 3685069960165804414}
  m_Father: {fileID: 1999462159230297543}
  m_RootOrder: 1
  m_LocalEulerAnglesHint: {x: 0, y: 0, z: 0}
  m_AnchorMin: {x: 0, y: 0}
  m_AnchorMax: {x: 1, y: 1}
  m_AnchoredPosition: {x: 0, y: 0}
  m_SizeDelta: {x: 0, y: 0}
  m_Pivot: {x: 0.5, y: 0.5}
--- !u!1 &3685069959967487764
GameObject:
  m_ObjectHideFlags: 0
  m_CorrespondingSourceObject: {fileID: 0}
  m_PrefabInstance: {fileID: 0}
  m_PrefabAsset: {fileID: 0}
  serializedVersion: 6
  m_Component:
  - component: {fileID: 3685069959967487767}
  - component: {fileID: 3685069959967487760}
  - component: {fileID: 3685069959967487761}
  - component: {fileID: 3685069959967487766}
  m_Layer: 0
  m_Name: Title
  m_TagString: Untagged
  m_Icon: {fileID: 0}
  m_NavMeshLayer: 0
  m_StaticEditorFlags: 0
  m_IsActive: 1
--- !u!224 &3685069959967487767
RectTransform:
  m_ObjectHideFlags: 0
  m_CorrespondingSourceObject: {fileID: 0}
  m_PrefabInstance: {fileID: 0}
  m_PrefabAsset: {fileID: 0}
  m_GameObject: {fileID: 3685069959967487764}
  m_LocalRotation: {x: -0, y: -0, z: -0, w: 1}
  m_LocalPosition: {x: 0, y: 0, z: 0}
  m_LocalScale: {x: 1, y: 1, z: 1}
  m_Children: []
  m_Father: {fileID: 3685069959178534537}
  m_RootOrder: 1
  m_LocalEulerAnglesHint: {x: 0, y: 0, z: 0}
  m_AnchorMin: {x: 0, y: 0}
  m_AnchorMax: {x: 1, y: 0}
  m_AnchoredPosition: {x: 0, y: 224}
  m_SizeDelta: {x: -64, y: 48}
  m_Pivot: {x: 0.5, y: 0}
--- !u!222 &3685069959967487760
CanvasRenderer:
  m_ObjectHideFlags: 0
  m_CorrespondingSourceObject: {fileID: 0}
  m_PrefabInstance: {fileID: 0}
  m_PrefabAsset: {fileID: 0}
  m_GameObject: {fileID: 3685069959967487764}
  m_CullTransparentMesh: 0
--- !u!114 &3685069959967487761
MonoBehaviour:
  m_ObjectHideFlags: 0
  m_CorrespondingSourceObject: {fileID: 0}
  m_PrefabInstance: {fileID: 0}
  m_PrefabAsset: {fileID: 0}
  m_GameObject: {fileID: 3685069959967487764}
  m_Enabled: 1
  m_EditorHideFlags: 0
  m_Script: {fileID: 11500000, guid: f4688fdb7df04437aeb418b961361dc5, type: 3}
  m_Name: 
  m_EditorClassIdentifier: 
  m_Material: {fileID: 0}
  m_Color: {r: 1, g: 1, b: 1, a: 1}
  m_RaycastTarget: 1
  m_OnCullStateChanged:
    m_PersistentCalls:
      m_Calls: []
    m_TypeName: UnityEngine.UI.MaskableGraphic+CullStateChangedEvent, UnityEngine.UI,
      Version=1.0.0.0, Culture=neutral, PublicKeyToken=null
  m_text: Lorem Ipsum
  m_isRightToLeft: 0
  m_fontAsset: {fileID: 11400000, guid: 643aebd7124d3c34bb062c5a60ebb5a8, type: 2}
  m_sharedMaterial: {fileID: 4835089367266696174, guid: 643aebd7124d3c34bb062c5a60ebb5a8,
    type: 2}
  m_fontSharedMaterials: []
  m_fontMaterial: {fileID: 0}
  m_fontMaterials: []
  m_fontColor32:
    serializedVersion: 2
    rgba: 4281807149
  m_fontColor: {r: 0.17911176, g: 0.19398901, b: 0.21698111, a: 1}
  m_enableVertexGradient: 0
  m_colorMode: 3
  m_fontColorGradient:
    topLeft: {r: 1, g: 1, b: 1, a: 1}
    topRight: {r: 1, g: 1, b: 1, a: 1}
    bottomLeft: {r: 1, g: 1, b: 1, a: 1}
    bottomRight: {r: 1, g: 1, b: 1, a: 1}
  m_fontColorGradientPreset: {fileID: 0}
  m_spriteAsset: {fileID: 0}
  m_tintAllSprites: 0
  m_overrideHtmlColors: 0
  m_faceColor:
    serializedVersion: 2
    rgba: 4294967295
  m_outlineColor:
    serializedVersion: 2
    rgba: 4278190080
  m_fontSize: 28
  m_fontSizeBase: 28
  m_fontWeight: 400
  m_enableAutoSizing: 0
  m_fontSizeMin: 12
  m_fontSizeMax: 18
  m_fontStyle: 0
  m_textAlignment: 514
  m_characterSpacing: 0
  m_wordSpacing: 0
  m_lineSpacing: 0
  m_lineSpacingMax: 0
  m_paragraphSpacing: 0
  m_charWidthMaxAdj: 0
  m_enableWordWrapping: 0
  m_wordWrappingRatios: 0.4
  m_overflowMode: 1
  m_firstOverflowCharacterIndex: -1
  m_linkedTextComponent: {fileID: 0}
  m_isLinkedTextComponent: 0
  m_isTextTruncated: 0
  m_enableKerning: 1
  m_enableExtraPadding: 0
  checkPaddingRequired: 0
  m_isRichText: 1
  m_parseCtrlCharacters: 1
  m_isOrthographic: 1
  m_isCullingEnabled: 0
  m_ignoreRectMaskCulling: 0
  m_ignoreCulling: 1
  m_horizontalMapping: 0
  m_verticalMapping: 0
  m_uvLineOffset: 0
  m_geometrySortingOrder: 0
  m_VertexBufferAutoSizeReduction: 1
  m_firstVisibleCharacter: 0
  m_useMaxVisibleDescender: 1
  m_pageToDisplay: 1
  m_margin: {x: 0, y: 0, z: 0, w: 0}
  m_textInfo:
    textComponent: {fileID: 3685069959967487761}
    characterCount: 11
    spriteCount: 0
    spaceCount: 1
    wordCount: 2
    linkCount: 0
    lineCount: 1
    pageCount: 1
    materialCount: 1
  m_isUsingLegacyAnimationComponent: 0
  m_isVolumetricText: 0
  m_spriteAnimator: {fileID: 0}
  m_hasFontAssetChanged: 0
  m_subTextObjects:
  - {fileID: 0}
  - {fileID: 0}
  - {fileID: 0}
  - {fileID: 0}
  - {fileID: 0}
  - {fileID: 0}
  - {fileID: 0}
  - {fileID: 0}
  m_baseMaterial: {fileID: 0}
  m_maskOffset: {x: 0, y: 0, z: 0, w: 0}
--- !u!114 &3685069959967487766
MonoBehaviour:
  m_ObjectHideFlags: 0
  m_CorrespondingSourceObject: {fileID: 0}
  m_PrefabInstance: {fileID: 0}
  m_PrefabAsset: {fileID: 0}
  m_GameObject: {fileID: 3685069959967487764}
  m_Enabled: 1
  m_EditorHideFlags: 0
  m_Script: {fileID: 11500000, guid: 8f34e6c94be345baaafed933eb7531ca, type: 3}
  m_Name: 
  m_EditorClassIdentifier: 
  ThemeIdSerializedGuid: 4970eed67e2b864e9e16a851bb1066cb
  VariantIdSerializedGuid: 
  PropertyIdSerializedGuid: 819655143e83ec45a23d672ee8116674
  TextMeshPro: {fileID: 3685069959967487761}
  OverrideAlpha: 0
  Alpha: 0
--- !u!1 &3685069960165804415
GameObject:
  m_ObjectHideFlags: 0
  m_CorrespondingSourceObject: {fileID: 0}
  m_PrefabInstance: {fileID: 0}
  m_PrefabAsset: {fileID: 0}
  serializedVersion: 6
  m_Component:
  - component: {fileID: 3685069960165804414}
  m_Layer: 0
  m_Name: Bottom
  m_TagString: Untagged
  m_Icon: {fileID: 0}
  m_NavMeshLayer: 0
  m_StaticEditorFlags: 0
  m_IsActive: 1
--- !u!224 &3685069960165804414
RectTransform:
  m_ObjectHideFlags: 0
  m_CorrespondingSourceObject: {fileID: 0}
  m_PrefabInstance: {fileID: 0}
  m_PrefabAsset: {fileID: 0}
  m_GameObject: {fileID: 3685069960165804415}
  m_LocalRotation: {x: 0, y: 0, z: 0, w: 1}
  m_LocalPosition: {x: 0, y: 0, z: 0}
  m_LocalScale: {x: 1, y: 1, z: 1}
  m_Children:
  - {fileID: 6523639483864464492}
  m_Father: {fileID: 3685069959919533903}
  m_RootOrder: 1
  m_LocalEulerAnglesHint: {x: 0, y: 0, z: 0}
  m_AnchorMin: {x: 0.5, y: 0}
  m_AnchorMax: {x: 0.5, y: 0}
  m_AnchoredPosition: {x: 0, y: 64}
  m_SizeDelta: {x: 256, y: 64}
  m_Pivot: {x: 0.5, y: 0.5}
--- !u!1 &3685069960400505610
GameObject:
  m_ObjectHideFlags: 0
  m_CorrespondingSourceObject: {fileID: 0}
  m_PrefabInstance: {fileID: 0}
  m_PrefabAsset: {fileID: 0}
  serializedVersion: 6
  m_Component:
  - component: {fileID: 3685069960400505845}
  - component: {fileID: 3685069960400505842}
  - component: {fileID: 3685069960400505843}
  - component: {fileID: 3685069960400505840}
  - component: {fileID: 3685069960400505841}
  - component: {fileID: 3685069960400505846}
  - component: {fileID: 3685069960400505847}
  - component: {fileID: 3685069960400505844}
  m_Layer: 0
  m_Name: View - 12
  m_TagString: Untagged
  m_Icon: {fileID: 0}
  m_NavMeshLayer: 0
  m_StaticEditorFlags: 0
  m_IsActive: 1
--- !u!224 &3685069960400505845
RectTransform:
  m_ObjectHideFlags: 0
  m_CorrespondingSourceObject: {fileID: 0}
  m_PrefabInstance: {fileID: 0}
  m_PrefabAsset: {fileID: 0}
  m_GameObject: {fileID: 3685069960400505610}
  m_LocalRotation: {x: 0, y: 0, z: 0, w: 1}
  m_LocalPosition: {x: 0, y: 0, z: 0}
  m_LocalScale: {x: 1, y: 1, z: 1}
  m_Children:
  - {fileID: 2761452332420761165}
  - {fileID: 3492759776414856350}
  m_Father: {fileID: 0}
  m_RootOrder: 0
  m_LocalEulerAnglesHint: {x: 0, y: 0, z: 0}
  m_AnchorMin: {x: 0, y: 0}
  m_AnchorMax: {x: 1, y: 1}
  m_AnchoredPosition: {x: 0, y: 0}
  m_SizeDelta: {x: -1496, y: -320}
  m_Pivot: {x: 0.5, y: 0.5}
--- !u!223 &3685069960400505842
Canvas:
  m_ObjectHideFlags: 0
  m_CorrespondingSourceObject: {fileID: 0}
  m_PrefabInstance: {fileID: 0}
  m_PrefabAsset: {fileID: 0}
  m_GameObject: {fileID: 3685069960400505610}
  m_Enabled: 1
  serializedVersion: 3
  m_RenderMode: 2
  m_Camera: {fileID: 0}
  m_PlaneDistance: 100
  m_PixelPerfect: 0
  m_ReceivesEvents: 1
  m_OverrideSorting: 0
  m_OverridePixelPerfect: 0
  m_SortingBucketNormalizedSize: 0
  m_AdditionalShaderChannelsFlag: 25
  m_SortingLayerID: 0
  m_SortingOrder: 0
  m_TargetDisplay: 0
--- !u!114 &3685069960400505843
MonoBehaviour:
  m_ObjectHideFlags: 0
  m_CorrespondingSourceObject: {fileID: 0}
  m_PrefabInstance: {fileID: 0}
  m_PrefabAsset: {fileID: 0}
  m_GameObject: {fileID: 3685069960400505610}
  m_Enabled: 1
  m_EditorHideFlags: 0
  m_Script: {fileID: 1301386320, guid: f70555f144d8491a825f0804e09c671c, type: 3}
  m_Name: 
  m_EditorClassIdentifier: 
  m_IgnoreReversedGraphics: 1
  m_BlockingObjects: 0
  m_BlockingMask:
    serializedVersion: 2
    m_Bits: 4294967295
--- !u!225 &3685069960400505840
CanvasGroup:
  m_ObjectHideFlags: 0
  m_CorrespondingSourceObject: {fileID: 0}
  m_PrefabInstance: {fileID: 0}
  m_PrefabAsset: {fileID: 0}
  m_GameObject: {fileID: 3685069960400505610}
  m_Enabled: 1
  m_Alpha: 1
  m_Interactable: 1
  m_BlocksRaycasts: 1
  m_IgnoreParentGroups: 0
--- !u!114 &3685069960400505841
MonoBehaviour:
  m_ObjectHideFlags: 0
  m_CorrespondingSourceObject: {fileID: 0}
  m_PrefabInstance: {fileID: 0}
  m_PrefabAsset: {fileID: 0}
  m_GameObject: {fileID: 3685069960400505610}
  m_Enabled: 1
  m_EditorHideFlags: 0
  m_Script: {fileID: 11500000, guid: 314affd16bceddb4c99fbaa07de901d9, type: 3}
  m_Name: 
  m_EditorClassIdentifier: 
  DebugMode: 0
  StartPosition: {x: 0, y: 0, z: 0}
  StartRotation: {x: -0, y: 0, z: 0}
  StartScale: {x: 1, y: 1, z: 1}
  StartAlpha: 1
  AutoHideAfterShow: 0
  AutoHideAfterShowDelay: 3
  AutoSelectButtonAfterShow: 0
  BehaviorAtStart: 1
  CustomStartAnchoredPosition: {x: 0, y: 0, z: 0}
  DeselectAnyButtonSelectedOnHide: 0
  DeselectAnyButtonSelectedOnShow: 0
  DisableCanvasWhenHidden: 1
  DisableGameObjectWhenHidden: 1
  DisableGraphicRaycasterWhenHidden: 1
  HideBehavior:
    Animation:
      AnimationType: 2
      Move:
        AnimationType: 2
        Enabled: 1
        From: {x: 0, y: 0, z: 0}
        To: {x: 0, y: 0, z: 0}
        By: {x: 0, y: 0, z: 0}
        UseCustomFromAndTo: 0
        Vibrato: 10
        Elasticity: 1
        NumberOfLoops: -1
        LoopType: 1
        Direction: 0
        CustomPosition: {x: 0, y: 0, z: 0}
        EaseType: 0
        Ease: 6
        AnimationCurve:
          serializedVersion: 2
          m_Curve: []
          m_PreInfinity: 2
          m_PostInfinity: 2
          m_RotationOrder: 4
        StartDelay: 0
        Duration: 0.2
      Rotate:
        AnimationType: 2
        Enabled: 0
        From: {x: 0, y: 0, z: 0}
        To: {x: 0, y: 0, z: 0}
        By: {x: 0, y: 0, z: 0}
        UseCustomFromAndTo: 0
        Vibrato: 10
        Elasticity: 1
        NumberOfLoops: -1
        LoopType: 1
        RotateMode: 1
        EaseType: 0
        Ease: 1
        AnimationCurve:
          serializedVersion: 2
          m_Curve: []
          m_PreInfinity: 2
          m_PostInfinity: 2
          m_RotationOrder: 4
        StartDelay: 0
        Duration: 1
      Scale:
        AnimationType: 2
        Enabled: 0
        From: {x: 0, y: 0, z: 0}
        To: {x: 0, y: 0, z: 0}
        By: {x: 0, y: 0, z: 0}
        UseCustomFromAndTo: 0
        Vibrato: 10
        Elasticity: 1
        NumberOfLoops: -1
        LoopType: 1
        EaseType: 0
        Ease: 1
        AnimationCurve:
          serializedVersion: 2
          m_Curve: []
          m_PreInfinity: 2
          m_PostInfinity: 2
          m_RotationOrder: 4
        StartDelay: 0
        Duration: 1
      Fade:
        AnimationType: 2
        Enabled: 1
        From: 0
        To: 0
        By: 0.5
        UseCustomFromAndTo: 0
        NumberOfLoops: -1
        LoopType: 1
        EaseType: 0
        Ease: 1
        AnimationCurve:
          serializedVersion: 2
          m_Curve: []
          m_PreInfinity: 2
          m_PostInfinity: 2
          m_RotationOrder: 4
        StartDelay: 0.1
        Duration: 0.2
    AutoStartLoopAnimation: 1
    LoadSelectedPresetAtRuntime: 0
    InstantAnimation: 0
    OnFinished:
      AnimatorEvents: []
      Effect:
        AutoSort: 1
        Behavior: 0
        CustomSortingOrder: 0
        SortingSteps: 1
        ParticleSystem: {fileID: 0}
        StopBehavior: 1
        CustomSortingLayer: Default
      Event:
        m_PersistentCalls:
          m_Calls: []
        m_TypeName: UnityEngine.Events.UnityEvent, UnityEngine.CoreModule, Version=0.0.0.0,
          Culture=neutral, PublicKeyToken=null
      GameEvents: []
      SoundData:
        SoundSource: 0
        DatabaseName: General
        SoundName: No Sound
        AudioClip: {fileID: 0}
        OutputAudioMixerGroup: {fileID: 0}
    OnStart:
      AnimatorEvents: []
      Effect:
        AutoSort: 1
        Behavior: 0
        CustomSortingOrder: 0
        SortingSteps: 1
        ParticleSystem: {fileID: 0}
        StopBehavior: 1
        CustomSortingLayer: Default
      Event:
        m_PersistentCalls:
          m_Calls: []
        m_TypeName: UnityEngine.Events.UnityEvent, UnityEngine.CoreModule, Version=0.0.0.0,
          Culture=neutral, PublicKeyToken=null
      GameEvents: []
      SoundData:
        SoundSource: 0
        DatabaseName: General
        SoundName: No Sound
        AudioClip: {fileID: 0}
        OutputAudioMixerGroup: {fileID: 0}
    PresetCategory: Uncategorized
    PresetName: Default
  HideProgressor: {fileID: 3685069960400505844}
  LoopBehavior:
    Animation:
      AnimationType: 3
      Move:
        AnimationType: 3
        Enabled: 0
        From: {x: 0, y: 0, z: 0}
        To: {x: 0, y: 0, z: 0}
        By: {x: 0, y: 0, z: 0}
        UseCustomFromAndTo: 0
        Vibrato: 10
        Elasticity: 1
        NumberOfLoops: -1
        LoopType: 1
        Direction: 0
        CustomPosition: {x: 0, y: 0, z: 0}
        EaseType: 0
        Ease: 1
        AnimationCurve:
          serializedVersion: 2
          m_Curve: []
          m_PreInfinity: 2
          m_PostInfinity: 2
          m_RotationOrder: 4
        StartDelay: 0
        Duration: 1
      Rotate:
        AnimationType: 3
        Enabled: 0
        From: {x: 0, y: 0, z: 0}
        To: {x: 0, y: 0, z: 0}
        By: {x: 0, y: 0, z: 0}
        UseCustomFromAndTo: 0
        Vibrato: 10
        Elasticity: 1
        NumberOfLoops: -1
        LoopType: 1
        RotateMode: 1
        EaseType: 0
        Ease: 1
        AnimationCurve:
          serializedVersion: 2
          m_Curve: []
          m_PreInfinity: 2
          m_PostInfinity: 2
          m_RotationOrder: 4
        StartDelay: 0
        Duration: 1
      Scale:
        AnimationType: 3
        Enabled: 0
        From: {x: 0, y: 0, z: 0}
        To: {x: 0, y: 0, z: 0}
        By: {x: 0, y: 0, z: 0}
        UseCustomFromAndTo: 0
        Vibrato: 10
        Elasticity: 1
        NumberOfLoops: -1
        LoopType: 1
        EaseType: 0
        Ease: 1
        AnimationCurve:
          serializedVersion: 2
          m_Curve: []
          m_PreInfinity: 2
          m_PostInfinity: 2
          m_RotationOrder: 4
        StartDelay: 0
        Duration: 1
      Fade:
        AnimationType: 3
        Enabled: 0
        From: 0
        To: 0
        By: 0.5
        UseCustomFromAndTo: 0
        NumberOfLoops: -1
        LoopType: 1
        EaseType: 0
        Ease: 1
        AnimationCurve:
          serializedVersion: 2
          m_Curve: []
          m_PreInfinity: 2
          m_PostInfinity: 2
          m_RotationOrder: 4
        StartDelay: 0
        Duration: 1
    AutoStartLoopAnimation: 1
    LoadSelectedPresetAtRuntime: 0
    InstantAnimation: 0
    OnFinished:
      AnimatorEvents: []
      Effect:
        AutoSort: 1
        Behavior: 0
        CustomSortingOrder: 0
        SortingSteps: 1
        ParticleSystem: {fileID: 0}
        StopBehavior: 1
        CustomSortingLayer: Default
      Event:
        m_PersistentCalls:
          m_Calls: []
        m_TypeName: UnityEngine.Events.UnityEvent, UnityEngine.CoreModule, Version=0.0.0.0,
          Culture=neutral, PublicKeyToken=null
      GameEvents: []
      SoundData:
        SoundSource: 0
        DatabaseName: General
        SoundName: No Sound
        AudioClip: {fileID: 0}
        OutputAudioMixerGroup: {fileID: 0}
    OnStart:
      AnimatorEvents: []
      Effect:
        AutoSort: 1
        Behavior: 0
        CustomSortingOrder: 0
        SortingSteps: 1
        ParticleSystem: {fileID: 0}
        StopBehavior: 1
        CustomSortingLayer: Default
      Event:
        m_PersistentCalls:
          m_Calls: []
        m_TypeName: UnityEngine.Events.UnityEvent, UnityEngine.CoreModule, Version=0.0.0.0,
          Culture=neutral, PublicKeyToken=null
      GameEvents: []
      SoundData:
        SoundSource: 0
        DatabaseName: General
        SoundName: No Sound
        AudioClip: {fileID: 0}
        OutputAudioMixerGroup: {fileID: 0}
    PresetCategory: Uncategorized
    PresetName: Default
  OnInverseVisibilityChanged:
    m_PersistentCalls:
      m_Calls: []
    m_TypeName: Doozy.Engine.Progress.ProgressEvent, Assembly-CSharp, Version=0.0.0.0,
      Culture=neutral, PublicKeyToken=null
  OnVisibilityChanged:
    m_PersistentCalls:
      m_Calls: []
    m_TypeName: Doozy.Engine.Progress.ProgressEvent, Assembly-CSharp, Version=0.0.0.0,
      Culture=neutral, PublicKeyToken=null
  SelectedButton: {fileID: 0}
  ShowBehavior:
    Animation:
      AnimationType: 1
      Move:
        AnimationType: 1
        Enabled: 1
        From: {x: 0, y: 0, z: 0}
        To: {x: 0, y: 0, z: 0}
        By: {x: 0, y: 0, z: 0}
        UseCustomFromAndTo: 0
        Vibrato: 10
        Elasticity: 1
        NumberOfLoops: -1
        LoopType: 1
        Direction: 0
        CustomPosition: {x: 0, y: 0, z: 0}
        EaseType: 0
        Ease: 5
        AnimationCurve:
          serializedVersion: 2
          m_Curve: []
          m_PreInfinity: 2
          m_PostInfinity: 2
          m_RotationOrder: 4
        StartDelay: 0
        Duration: 0.2
      Rotate:
        AnimationType: 1
        Enabled: 0
        From: {x: 0, y: 0, z: 0}
        To: {x: 0, y: 0, z: 0}
        By: {x: 0, y: 0, z: 0}
        UseCustomFromAndTo: 0
        Vibrato: 10
        Elasticity: 1
        NumberOfLoops: -1
        LoopType: 1
        RotateMode: 1
        EaseType: 0
        Ease: 1
        AnimationCurve:
          serializedVersion: 2
          m_Curve: []
          m_PreInfinity: 2
          m_PostInfinity: 2
          m_RotationOrder: 4
        StartDelay: 0
        Duration: 1
      Scale:
        AnimationType: 1
        Enabled: 0
        From: {x: 0, y: 0, z: 0}
        To: {x: 0, y: 0, z: 0}
        By: {x: 0, y: 0, z: 0}
        UseCustomFromAndTo: 0
        Vibrato: 10
        Elasticity: 1
        NumberOfLoops: -1
        LoopType: 1
        EaseType: 0
        Ease: 1
        AnimationCurve:
          serializedVersion: 2
          m_Curve: []
          m_PreInfinity: 2
          m_PostInfinity: 2
          m_RotationOrder: 4
        StartDelay: 0
        Duration: 1
      Fade:
        AnimationType: 1
        Enabled: 1
        From: 0
        To: 0
        By: 0.5
        UseCustomFromAndTo: 0
        NumberOfLoops: -1
        LoopType: 1
        EaseType: 0
        Ease: 1
        AnimationCurve:
          serializedVersion: 2
          m_Curve: []
          m_PreInfinity: 2
          m_PostInfinity: 2
          m_RotationOrder: 4
        StartDelay: 0
        Duration: 0.4
    AutoStartLoopAnimation: 1
    LoadSelectedPresetAtRuntime: 0
    InstantAnimation: 0
    OnFinished:
      AnimatorEvents: []
      Effect:
        AutoSort: 1
        Behavior: 0
        CustomSortingOrder: 0
        SortingSteps: 1
        ParticleSystem: {fileID: 0}
        StopBehavior: 1
        CustomSortingLayer: Default
      Event:
        m_PersistentCalls:
          m_Calls: []
        m_TypeName: UnityEngine.Events.UnityEvent, UnityEngine.CoreModule, Version=0.0.0.0,
          Culture=neutral, PublicKeyToken=null
      GameEvents: []
      SoundData:
        SoundSource: 0
        DatabaseName: General
        SoundName: No Sound
        AudioClip: {fileID: 0}
        OutputAudioMixerGroup: {fileID: 0}
    OnStart:
      AnimatorEvents: []
      Effect:
        AutoSort: 1
        Behavior: 0
        CustomSortingOrder: 0
        SortingSteps: 1
        ParticleSystem: {fileID: 0}
        StopBehavior: 1
        CustomSortingLayer: Default
      Event:
        m_PersistentCalls:
          m_Calls: []
        m_TypeName: UnityEngine.Events.UnityEvent, UnityEngine.CoreModule, Version=0.0.0.0,
          Culture=neutral, PublicKeyToken=null
      GameEvents: []
      SoundData:
        SoundSource: 0
        DatabaseName: General
        SoundName: No Sound
        AudioClip: {fileID: 0}
        OutputAudioMixerGroup: {fileID: 0}
    PresetCategory: Uncategorized
    PresetName: Default
  ShowProgressor: {fileID: 0}
  TargetOrientation: 2
  UpdateHideProgressorOnShow: 1
  UpdateShowProgressorOnHide: 0
  UseCustomStartAnchoredPosition: 1
  ViewCategory: General
  ViewName: Unnamed
--- !u!95 &3685069960400505846
Animator:
  serializedVersion: 3
  m_ObjectHideFlags: 0
  m_CorrespondingSourceObject: {fileID: 0}
  m_PrefabInstance: {fileID: 0}
  m_PrefabAsset: {fileID: 0}
  m_GameObject: {fileID: 3685069960400505610}
  m_Enabled: 1
  m_Avatar: {fileID: 0}
  m_Controller: {fileID: 9100000, guid: 43315fdaa57dd044ea0b2283ce4c52d2, type: 2}
  m_CullingMode: 0
  m_UpdateMode: 0
  m_ApplyRootMotion: 0
  m_LinearVelocityBlending: 0
  m_WarningMessage: 
  m_HasTransformHierarchy: 1
  m_AllowConstantClipSamplingOptimization: 1
  m_KeepAnimatorControllerStateOnDisable: 0
--- !u!114 &3685069960400505847
MonoBehaviour:
  m_ObjectHideFlags: 0
  m_CorrespondingSourceObject: {fileID: 0}
  m_PrefabInstance: {fileID: 0}
  m_PrefabAsset: {fileID: 0}
  m_GameObject: {fileID: 3685069960400505610}
  m_Enabled: 1
  m_EditorHideFlags: 0
  m_Script: {fileID: 11500000, guid: 779d2338e8d61bc4f9e65969cd74fb0f, type: 3}
  m_Name: 
  m_EditorClassIdentifier: 
  Animator: {fileID: 3685069960400505846}
  ParameterName: Progress
  TargetProgress: 0
--- !u!114 &3685069960400505844
MonoBehaviour:
  m_ObjectHideFlags: 0
  m_CorrespondingSourceObject: {fileID: 0}
  m_PrefabInstance: {fileID: 0}
  m_PrefabAsset: {fileID: 0}
  m_GameObject: {fileID: 3685069960400505610}
  m_Enabled: 1
  m_EditorHideFlags: 0
  m_Script: {fileID: 11500000, guid: 0dd4fcd1a439fed4084f8b519848b636, type: 3}
  m_Name: 
  m_EditorClassIdentifier: 
  DebugMode: 0
  ProgressTargets:
  - {fileID: 3685069960400505847}
  AnimateValue: 0
  AnimationDuration: 0.5
  AnimationEase: 1
  AnimationIgnoresUnityTimescale: 1
  OnEnableResetValue: 1
  OnDisableResetValue: 0
  CustomResetValue: 0
  OnValueChanged:
    m_PersistentCalls:
      m_Calls: []
    m_TypeName: Doozy.Engine.Progress.ProgressEvent, Assembly-CSharp, Version=0.0.0.0,
      Culture=neutral, PublicKeyToken=null
  OnProgressChanged:
    m_PersistentCalls:
      m_Calls: []
    m_TypeName: Doozy.Engine.Progress.ProgressEvent, Assembly-CSharp, Version=0.0.0.0,
      Culture=neutral, PublicKeyToken=null
  OnInverseProgressChanged:
    m_PersistentCalls:
      m_Calls: []
    m_TypeName: Doozy.Engine.Progress.ProgressEvent, Assembly-CSharp, Version=0.0.0.0,
      Culture=neutral, PublicKeyToken=null
  m_minValue: 0
  m_maxValue: 1
  m_wholeNumbers: 0
  m_currentValue: 0
--- !u!225 &3685069960657164337
CanvasGroup:
  m_ObjectHideFlags: 0
  m_CorrespondingSourceObject: {fileID: 0}
  m_PrefabInstance: {fileID: 0}
  m_PrefabAsset: {fileID: 0}
  m_GameObject: {fileID: 1336510397511650666}
  m_Enabled: 1
  m_Alpha: 0
  m_Interactable: 1
  m_BlocksRaycasts: 1
  m_IgnoreParentGroups: 0
--- !u!1 &3685069960981342310
GameObject:
  m_ObjectHideFlags: 0
  m_CorrespondingSourceObject: {fileID: 0}
  m_PrefabInstance: {fileID: 0}
  m_PrefabAsset: {fileID: 0}
  serializedVersion: 6
  m_Component:
  - component: {fileID: 3685069960981342305}
  m_Layer: 0
  m_Name: Top
  m_TagString: Untagged
  m_Icon: {fileID: 0}
  m_NavMeshLayer: 0
  m_StaticEditorFlags: 0
  m_IsActive: 1
--- !u!224 &3685069960981342305
RectTransform:
  m_ObjectHideFlags: 0
  m_CorrespondingSourceObject: {fileID: 0}
  m_PrefabInstance: {fileID: 0}
  m_PrefabAsset: {fileID: 0}
  m_GameObject: {fileID: 3685069960981342310}
  m_LocalRotation: {x: 0, y: 0, z: 0, w: 1}
  m_LocalPosition: {x: 0, y: 0, z: 0}
  m_LocalScale: {x: 1, y: 1, z: 1}
  m_Children:
  - {fileID: 758273103186876484}
  m_Father: {fileID: 3685069959919533903}
  m_RootOrder: 0
  m_LocalEulerAnglesHint: {x: 0, y: 0, z: 0}
  m_AnchorMin: {x: 0, y: 1}
  m_AnchorMax: {x: 1, y: 1}
  m_AnchoredPosition: {x: 0, y: -48}
  m_SizeDelta: {x: -64, y: 64}
  m_Pivot: {x: 0.5, y: 0.5}
--- !u!225 &3685069961304176015
CanvasGroup:
  m_ObjectHideFlags: 0
  m_CorrespondingSourceObject: {fileID: 0}
  m_PrefabInstance: {fileID: 0}
  m_PrefabAsset: {fileID: 0}
  m_GameObject: {fileID: 335058444286148537}
  m_Enabled: 1
  m_Alpha: 1
  m_Interactable: 1
  m_BlocksRaycasts: 1
  m_IgnoreParentGroups: 0
--- !u!1001 &3685069959613221163
PrefabInstance:
  m_ObjectHideFlags: 0
  serializedVersion: 2
  m_Modification:
    m_TransformParent: {fileID: 3685069960400505845}
    m_Modifications:
    - target: {fileID: 2427372830467933249, guid: a1ec10527f4fca84ba9f9f31842c07cc,
        type: 3}
      propertyPath: m_Name
      value: Card - Rounded - 256x256 In
      objectReference: {fileID: 0}
    - target: {fileID: 2427372830467933249, guid: a1ec10527f4fca84ba9f9f31842c07cc,
        type: 3}
      propertyPath: m_IsActive
      value: 1
      objectReference: {fileID: 0}
    - target: {fileID: 1545114937337614182, guid: a1ec10527f4fca84ba9f9f31842c07cc,
        type: 3}
      propertyPath: m_LocalPosition.x
      value: 0
      objectReference: {fileID: 0}
    - target: {fileID: 1545114937337614182, guid: a1ec10527f4fca84ba9f9f31842c07cc,
        type: 3}
      propertyPath: m_LocalPosition.y
      value: 0
      objectReference: {fileID: 0}
    - target: {fileID: 1545114937337614182, guid: a1ec10527f4fca84ba9f9f31842c07cc,
        type: 3}
      propertyPath: m_LocalPosition.z
      value: 0
      objectReference: {fileID: 0}
    - target: {fileID: 1545114937337614182, guid: a1ec10527f4fca84ba9f9f31842c07cc,
        type: 3}
      propertyPath: m_LocalRotation.x
      value: -0
      objectReference: {fileID: 0}
    - target: {fileID: 1545114937337614182, guid: a1ec10527f4fca84ba9f9f31842c07cc,
        type: 3}
      propertyPath: m_LocalRotation.y
      value: -0
      objectReference: {fileID: 0}
    - target: {fileID: 1545114937337614182, guid: a1ec10527f4fca84ba9f9f31842c07cc,
        type: 3}
      propertyPath: m_LocalRotation.z
      value: -0
      objectReference: {fileID: 0}
    - target: {fileID: 1545114937337614182, guid: a1ec10527f4fca84ba9f9f31842c07cc,
        type: 3}
      propertyPath: m_LocalRotation.w
      value: 1
      objectReference: {fileID: 0}
    - target: {fileID: 1545114937337614182, guid: a1ec10527f4fca84ba9f9f31842c07cc,
        type: 3}
      propertyPath: m_RootOrder
      value: 0
      objectReference: {fileID: 0}
    - target: {fileID: 1545114937337614182, guid: a1ec10527f4fca84ba9f9f31842c07cc,
        type: 3}
      propertyPath: m_LocalEulerAnglesHint.x
      value: 0
      objectReference: {fileID: 0}
    - target: {fileID: 1545114937337614182, guid: a1ec10527f4fca84ba9f9f31842c07cc,
        type: 3}
      propertyPath: m_LocalEulerAnglesHint.y
      value: 0
      objectReference: {fileID: 0}
    - target: {fileID: 1545114937337614182, guid: a1ec10527f4fca84ba9f9f31842c07cc,
        type: 3}
      propertyPath: m_LocalEulerAnglesHint.z
      value: 0
      objectReference: {fileID: 0}
    - target: {fileID: 1545114937337614182, guid: a1ec10527f4fca84ba9f9f31842c07cc,
        type: 3}
      propertyPath: m_AnchoredPosition.x
      value: 0
      objectReference: {fileID: 0}
    - target: {fileID: 1545114937337614182, guid: a1ec10527f4fca84ba9f9f31842c07cc,
        type: 3}
      propertyPath: m_AnchoredPosition.y
      value: 0
      objectReference: {fileID: 0}
    - target: {fileID: 1545114937337614182, guid: a1ec10527f4fca84ba9f9f31842c07cc,
        type: 3}
      propertyPath: m_SizeDelta.x
      value: 0
      objectReference: {fileID: 0}
    - target: {fileID: 1545114937337614182, guid: a1ec10527f4fca84ba9f9f31842c07cc,
        type: 3}
      propertyPath: m_SizeDelta.y
      value: 0
      objectReference: {fileID: 0}
    - target: {fileID: 1545114937337614182, guid: a1ec10527f4fca84ba9f9f31842c07cc,
        type: 3}
      propertyPath: m_AnchorMin.x
      value: 0
      objectReference: {fileID: 0}
    - target: {fileID: 1545114937337614182, guid: a1ec10527f4fca84ba9f9f31842c07cc,
        type: 3}
      propertyPath: m_AnchorMin.y
      value: 0
      objectReference: {fileID: 0}
    - target: {fileID: 1545114937337614182, guid: a1ec10527f4fca84ba9f9f31842c07cc,
        type: 3}
      propertyPath: m_AnchorMax.x
      value: 1
      objectReference: {fileID: 0}
    - target: {fileID: 1545114937337614182, guid: a1ec10527f4fca84ba9f9f31842c07cc,
        type: 3}
      propertyPath: m_AnchorMax.y
      value: 1
      objectReference: {fileID: 0}
    - target: {fileID: 1545114937337614182, guid: a1ec10527f4fca84ba9f9f31842c07cc,
        type: 3}
      propertyPath: m_Pivot.x
      value: 0.5
      objectReference: {fileID: 0}
    - target: {fileID: 1545114937337614182, guid: a1ec10527f4fca84ba9f9f31842c07cc,
        type: 3}
      propertyPath: m_Pivot.y
      value: 0.5
      objectReference: {fileID: 0}
    m_RemovedComponents: []
  m_SourcePrefab: {fileID: 100100000, guid: a1ec10527f4fca84ba9f9f31842c07cc, type: 3}
--- !u!224 &2761452332420761165 stripped
RectTransform:
  m_CorrespondingSourceObject: {fileID: 1545114937337614182, guid: a1ec10527f4fca84ba9f9f31842c07cc,
    type: 3}
  m_PrefabInstance: {fileID: 3685069959613221163}
  m_PrefabAsset: {fileID: 0}
--- !u!1 &1336510397511650666 stripped
GameObject:
  m_CorrespondingSourceObject: {fileID: 2427372830467933249, guid: a1ec10527f4fca84ba9f9f31842c07cc,
    type: 3}
  m_PrefabInstance: {fileID: 3685069959613221163}
  m_PrefabAsset: {fileID: 0}
--- !u!1001 &3685069959990013179
PrefabInstance:
  m_ObjectHideFlags: 0
  serializedVersion: 2
  m_Modification:
    m_TransformParent: {fileID: 3685069960400505845}
    m_Modifications:
    - target: {fileID: 2926349818553633084, guid: 03567e31e051a2d429ffbc68dd07fd27,
        type: 3}
      propertyPath: m_AnchoredPosition.x
      value: 0
      objectReference: {fileID: 0}
    - target: {fileID: 2926349818553633084, guid: 03567e31e051a2d429ffbc68dd07fd27,
        type: 3}
      propertyPath: m_SizeDelta.x
      value: 0
      objectReference: {fileID: 0}
    - target: {fileID: 241849782103971941, guid: 03567e31e051a2d429ffbc68dd07fd27,
        type: 3}
      propertyPath: m_LocalPosition.x
      value: 0
      objectReference: {fileID: 0}
    - target: {fileID: 241849782103971941, guid: 03567e31e051a2d429ffbc68dd07fd27,
        type: 3}
      propertyPath: m_LocalPosition.y
      value: 0
      objectReference: {fileID: 0}
    - target: {fileID: 241849782103971941, guid: 03567e31e051a2d429ffbc68dd07fd27,
        type: 3}
      propertyPath: m_LocalPosition.z
      value: 0
      objectReference: {fileID: 0}
    - target: {fileID: 241849782103971941, guid: 03567e31e051a2d429ffbc68dd07fd27,
        type: 3}
      propertyPath: m_LocalRotation.x
      value: 0
      objectReference: {fileID: 0}
    - target: {fileID: 241849782103971941, guid: 03567e31e051a2d429ffbc68dd07fd27,
        type: 3}
      propertyPath: m_LocalRotation.y
      value: 0
      objectReference: {fileID: 0}
    - target: {fileID: 241849782103971941, guid: 03567e31e051a2d429ffbc68dd07fd27,
        type: 3}
      propertyPath: m_LocalRotation.z
      value: 0
      objectReference: {fileID: 0}
    - target: {fileID: 241849782103971941, guid: 03567e31e051a2d429ffbc68dd07fd27,
        type: 3}
      propertyPath: m_LocalRotation.w
      value: 1
      objectReference: {fileID: 0}
    - target: {fileID: 241849782103971941, guid: 03567e31e051a2d429ffbc68dd07fd27,
        type: 3}
      propertyPath: m_RootOrder
      value: 1
      objectReference: {fileID: 0}
    - target: {fileID: 241849782103971941, guid: 03567e31e051a2d429ffbc68dd07fd27,
        type: 3}
      propertyPath: m_LocalEulerAnglesHint.x
      value: 0
      objectReference: {fileID: 0}
    - target: {fileID: 241849782103971941, guid: 03567e31e051a2d429ffbc68dd07fd27,
        type: 3}
      propertyPath: m_LocalEulerAnglesHint.y
      value: 0
      objectReference: {fileID: 0}
    - target: {fileID: 241849782103971941, guid: 03567e31e051a2d429ffbc68dd07fd27,
        type: 3}
      propertyPath: m_LocalEulerAnglesHint.z
      value: 0
      objectReference: {fileID: 0}
    - target: {fileID: 241849782103971941, guid: 03567e31e051a2d429ffbc68dd07fd27,
        type: 3}
      propertyPath: m_AnchoredPosition.x
      value: 0
      objectReference: {fileID: 0}
    - target: {fileID: 241849782103971941, guid: 03567e31e051a2d429ffbc68dd07fd27,
        type: 3}
      propertyPath: m_AnchoredPosition.y
      value: 0
      objectReference: {fileID: 0}
    - target: {fileID: 241849782103971941, guid: 03567e31e051a2d429ffbc68dd07fd27,
        type: 3}
      propertyPath: m_SizeDelta.x
      value: 0
      objectReference: {fileID: 0}
    - target: {fileID: 241849782103971941, guid: 03567e31e051a2d429ffbc68dd07fd27,
        type: 3}
      propertyPath: m_SizeDelta.y
      value: 0
      objectReference: {fileID: 0}
    - target: {fileID: 241849782103971941, guid: 03567e31e051a2d429ffbc68dd07fd27,
        type: 3}
      propertyPath: m_AnchorMin.x
      value: 0
      objectReference: {fileID: 0}
    - target: {fileID: 241849782103971941, guid: 03567e31e051a2d429ffbc68dd07fd27,
        type: 3}
      propertyPath: m_AnchorMin.y
      value: 0
      objectReference: {fileID: 0}
    - target: {fileID: 241849782103971941, guid: 03567e31e051a2d429ffbc68dd07fd27,
        type: 3}
      propertyPath: m_AnchorMax.x
      value: 1
      objectReference: {fileID: 0}
    - target: {fileID: 241849782103971941, guid: 03567e31e051a2d429ffbc68dd07fd27,
        type: 3}
      propertyPath: m_AnchorMax.y
      value: 1
      objectReference: {fileID: 0}
    - target: {fileID: 241849782103971941, guid: 03567e31e051a2d429ffbc68dd07fd27,
        type: 3}
      propertyPath: m_Pivot.x
      value: 0.5
      objectReference: {fileID: 0}
    - target: {fileID: 241849782103971941, guid: 03567e31e051a2d429ffbc68dd07fd27,
        type: 3}
      propertyPath: m_Pivot.y
      value: 0.5
      objectReference: {fileID: 0}
    - target: {fileID: 4000782495552459586, guid: 03567e31e051a2d429ffbc68dd07fd27,
        type: 3}
      propertyPath: m_Name
      value: Card - Rounded - 256x256 Out
      objectReference: {fileID: 0}
    m_RemovedComponents: []
  m_SourcePrefab: {fileID: 100100000, guid: 03567e31e051a2d429ffbc68dd07fd27, type: 3}
--- !u!1 &7807614222112088532 stripped
GameObject:
  m_CorrespondingSourceObject: {fileID: 6879750212071296303, guid: 03567e31e051a2d429ffbc68dd07fd27,
    type: 3}
  m_PrefabInstance: {fileID: 3685069959990013179}
  m_PrefabAsset: {fileID: 0}
--- !u!224 &3492759776414856350 stripped
RectTransform:
  m_CorrespondingSourceObject: {fileID: 241849782103971941, guid: 03567e31e051a2d429ffbc68dd07fd27,
    type: 3}
  m_PrefabInstance: {fileID: 3685069959990013179}
  m_PrefabAsset: {fileID: 0}
--- !u!224 &1999462159230297543 stripped
RectTransform:
  m_CorrespondingSourceObject: {fileID: 2926349818553633084, guid: 03567e31e051a2d429ffbc68dd07fd27,
    type: 3}
  m_PrefabInstance: {fileID: 3685069959990013179}
  m_PrefabAsset: {fileID: 0}
--- !u!1 &335058444286148537 stripped
GameObject:
  m_CorrespondingSourceObject: {fileID: 4000782495552459586, guid: 03567e31e051a2d429ffbc68dd07fd27,
    type: 3}
  m_PrefabInstance: {fileID: 3685069959990013179}
  m_PrefabAsset: {fileID: 0}
--- !u!1001 &3685069960169918739
PrefabInstance:
  m_ObjectHideFlags: 0
  serializedVersion: 2
  m_Modification:
    m_TransformParent: {fileID: 3685069960981342305}
    m_Modifications:
    - target: {fileID: 4154028339625707863, guid: f706cba9033ccaa43b73863559a3cd8d,
        type: 3}
      propertyPath: m_LocalPosition.x
      value: 0
      objectReference: {fileID: 0}
    - target: {fileID: 4154028339625707863, guid: f706cba9033ccaa43b73863559a3cd8d,
        type: 3}
      propertyPath: m_LocalPosition.y
      value: 0
      objectReference: {fileID: 0}
    - target: {fileID: 4154028339625707863, guid: f706cba9033ccaa43b73863559a3cd8d,
        type: 3}
      propertyPath: m_LocalPosition.z
      value: 0
      objectReference: {fileID: 0}
    - target: {fileID: 4154028339625707863, guid: f706cba9033ccaa43b73863559a3cd8d,
        type: 3}
      propertyPath: m_LocalRotation.x
      value: 0
      objectReference: {fileID: 0}
    - target: {fileID: 4154028339625707863, guid: f706cba9033ccaa43b73863559a3cd8d,
        type: 3}
      propertyPath: m_LocalRotation.y
      value: 0
      objectReference: {fileID: 0}
    - target: {fileID: 4154028339625707863, guid: f706cba9033ccaa43b73863559a3cd8d,
        type: 3}
      propertyPath: m_LocalRotation.z
      value: 0
      objectReference: {fileID: 0}
    - target: {fileID: 4154028339625707863, guid: f706cba9033ccaa43b73863559a3cd8d,
        type: 3}
      propertyPath: m_LocalRotation.w
      value: 1
      objectReference: {fileID: 0}
    - target: {fileID: 4154028339625707863, guid: f706cba9033ccaa43b73863559a3cd8d,
        type: 3}
      propertyPath: m_RootOrder
      value: 0
      objectReference: {fileID: 0}
    - target: {fileID: 4154028339625707863, guid: f706cba9033ccaa43b73863559a3cd8d,
        type: 3}
      propertyPath: m_LocalEulerAnglesHint.x
      value: 0
      objectReference: {fileID: 0}
    - target: {fileID: 4154028339625707863, guid: f706cba9033ccaa43b73863559a3cd8d,
        type: 3}
      propertyPath: m_LocalEulerAnglesHint.y
      value: 0
      objectReference: {fileID: 0}
    - target: {fileID: 4154028339625707863, guid: f706cba9033ccaa43b73863559a3cd8d,
        type: 3}
      propertyPath: m_LocalEulerAnglesHint.z
      value: 0
      objectReference: {fileID: 0}
    - target: {fileID: 4154028339625707863, guid: f706cba9033ccaa43b73863559a3cd8d,
        type: 3}
      propertyPath: m_AnchoredPosition.x
      value: 0
      objectReference: {fileID: 0}
    - target: {fileID: 4154028339625707863, guid: f706cba9033ccaa43b73863559a3cd8d,
        type: 3}
      propertyPath: m_AnchoredPosition.y
      value: 0
      objectReference: {fileID: 0}
    - target: {fileID: 4154028339625707863, guid: f706cba9033ccaa43b73863559a3cd8d,
        type: 3}
      propertyPath: m_SizeDelta.x
      value: 32
      objectReference: {fileID: 0}
    - target: {fileID: 4154028339625707863, guid: f706cba9033ccaa43b73863559a3cd8d,
        type: 3}
      propertyPath: m_SizeDelta.y
      value: 32
      objectReference: {fileID: 0}
    - target: {fileID: 4154028339625707863, guid: f706cba9033ccaa43b73863559a3cd8d,
        type: 3}
      propertyPath: m_AnchorMin.x
      value: 0
      objectReference: {fileID: 0}
    - target: {fileID: 4154028339625707863, guid: f706cba9033ccaa43b73863559a3cd8d,
        type: 3}
      propertyPath: m_AnchorMin.y
      value: 0.5
      objectReference: {fileID: 0}
    - target: {fileID: 4154028339625707863, guid: f706cba9033ccaa43b73863559a3cd8d,
        type: 3}
      propertyPath: m_AnchorMax.x
      value: 0
      objectReference: {fileID: 0}
    - target: {fileID: 4154028339625707863, guid: f706cba9033ccaa43b73863559a3cd8d,
        type: 3}
      propertyPath: m_AnchorMax.y
      value: 0.5
      objectReference: {fileID: 0}
    - target: {fileID: 4154028339625707863, guid: f706cba9033ccaa43b73863559a3cd8d,
        type: 3}
      propertyPath: m_Pivot.x
      value: 0
      objectReference: {fileID: 0}
    - target: {fileID: 4154028339625707863, guid: f706cba9033ccaa43b73863559a3cd8d,
        type: 3}
      propertyPath: m_Pivot.y
      value: 0.5
      objectReference: {fileID: 0}
    - target: {fileID: 8061135759895216377, guid: f706cba9033ccaa43b73863559a3cd8d,
        type: 3}
      propertyPath: m_Name
      value: Button - C - 32x32 - Icon - Back
      objectReference: {fileID: 0}
    - target: {fileID: 5087694194728089296, guid: f706cba9033ccaa43b73863559a3cd8d,
        type: 3}
      propertyPath: m_Color.a
      value: 0
      objectReference: {fileID: 0}
    - target: {fileID: 5087694194728089296, guid: f706cba9033ccaa43b73863559a3cd8d,
        type: 3}
      propertyPath: m_Sprite
      value: 
      objectReference: {fileID: 21300000, guid: 59de81ae75f656e48aef16e5ea2a0b6f,
        type: 3}
    - target: {fileID: 5087694194728089296, guid: f706cba9033ccaa43b73863559a3cd8d,
        type: 3}
      propertyPath: m_Color.r
      value: 0.17911176
      objectReference: {fileID: 0}
    - target: {fileID: 5087694194728089296, guid: f706cba9033ccaa43b73863559a3cd8d,
        type: 3}
      propertyPath: m_Color.g
      value: 0.19398901
      objectReference: {fileID: 0}
    - target: {fileID: 5087694194728089296, guid: f706cba9033ccaa43b73863559a3cd8d,
        type: 3}
      propertyPath: m_Color.b
      value: 0.21698111
      objectReference: {fileID: 0}
    - target: {fileID: 7036711549217413391, guid: f706cba9033ccaa43b73863559a3cd8d,
        type: 3}
      propertyPath: m_Color.r
      value: 0.17911176
      objectReference: {fileID: 0}
    - target: {fileID: 7036711549217413391, guid: f706cba9033ccaa43b73863559a3cd8d,
        type: 3}
      propertyPath: m_Color.g
      value: 0.19398901
      objectReference: {fileID: 0}
    - target: {fileID: 7036711549217413391, guid: f706cba9033ccaa43b73863559a3cd8d,
        type: 3}
      propertyPath: m_Color.b
      value: 0.21698111
      objectReference: {fileID: 0}
    - target: {fileID: 7036711549217413391, guid: f706cba9033ccaa43b73863559a3cd8d,
        type: 3}
      propertyPath: m_Sprite
      value: 
      objectReference: {fileID: 21300000, guid: 59de81ae75f656e48aef16e5ea2a0b6f,
        type: 3}
    - target: {fileID: 7871448174420969116, guid: f706cba9033ccaa43b73863559a3cd8d,
        type: 3}
      propertyPath: PropertyIdSerializedGuid.Array.data[0]
      value: 129
      objectReference: {fileID: 0}
    - target: {fileID: 7871448174420969116, guid: f706cba9033ccaa43b73863559a3cd8d,
        type: 3}
      propertyPath: PropertyIdSerializedGuid.Array.data[1]
      value: 150
      objectReference: {fileID: 0}
    - target: {fileID: 7871448174420969116, guid: f706cba9033ccaa43b73863559a3cd8d,
        type: 3}
      propertyPath: PropertyIdSerializedGuid.Array.data[2]
      value: 85
      objectReference: {fileID: 0}
    - target: {fileID: 7871448174420969116, guid: f706cba9033ccaa43b73863559a3cd8d,
        type: 3}
      propertyPath: PropertyIdSerializedGuid.Array.data[3]
      value: 20
      objectReference: {fileID: 0}
    - target: {fileID: 7871448174420969116, guid: f706cba9033ccaa43b73863559a3cd8d,
        type: 3}
      propertyPath: PropertyIdSerializedGuid.Array.data[4]
      value: 62
      objectReference: {fileID: 0}
    - target: {fileID: 7871448174420969116, guid: f706cba9033ccaa43b73863559a3cd8d,
        type: 3}
      propertyPath: PropertyIdSerializedGuid.Array.data[5]
      value: 131
      objectReference: {fileID: 0}
    - target: {fileID: 7871448174420969116, guid: f706cba9033ccaa43b73863559a3cd8d,
        type: 3}
      propertyPath: PropertyIdSerializedGuid.Array.data[6]
      value: 236
      objectReference: {fileID: 0}
    - target: {fileID: 7871448174420969116, guid: f706cba9033ccaa43b73863559a3cd8d,
        type: 3}
      propertyPath: PropertyIdSerializedGuid.Array.data[7]
      value: 69
      objectReference: {fileID: 0}
    - target: {fileID: 7871448174420969116, guid: f706cba9033ccaa43b73863559a3cd8d,
        type: 3}
      propertyPath: PropertyIdSerializedGuid.Array.data[8]
      value: 162
      objectReference: {fileID: 0}
    - target: {fileID: 7871448174420969116, guid: f706cba9033ccaa43b73863559a3cd8d,
        type: 3}
      propertyPath: PropertyIdSerializedGuid.Array.data[9]
      value: 61
      objectReference: {fileID: 0}
    - target: {fileID: 7871448174420969116, guid: f706cba9033ccaa43b73863559a3cd8d,
        type: 3}
      propertyPath: PropertyIdSerializedGuid.Array.data[10]
      value: 103
      objectReference: {fileID: 0}
    - target: {fileID: 7871448174420969116, guid: f706cba9033ccaa43b73863559a3cd8d,
        type: 3}
      propertyPath: PropertyIdSerializedGuid.Array.data[11]
      value: 46
      objectReference: {fileID: 0}
    - target: {fileID: 7871448174420969116, guid: f706cba9033ccaa43b73863559a3cd8d,
        type: 3}
      propertyPath: PropertyIdSerializedGuid.Array.data[12]
      value: 232
      objectReference: {fileID: 0}
    - target: {fileID: 7871448174420969116, guid: f706cba9033ccaa43b73863559a3cd8d,
        type: 3}
      propertyPath: PropertyIdSerializedGuid.Array.data[13]
      value: 17
      objectReference: {fileID: 0}
    - target: {fileID: 7871448174420969116, guid: f706cba9033ccaa43b73863559a3cd8d,
        type: 3}
      propertyPath: PropertyIdSerializedGuid.Array.data[14]
      value: 102
      objectReference: {fileID: 0}
    - target: {fileID: 7871448174420969116, guid: f706cba9033ccaa43b73863559a3cd8d,
        type: 3}
      propertyPath: PropertyIdSerializedGuid.Array.data[15]
      value: 116
      objectReference: {fileID: 0}
    - target: {fileID: 5637918917200603125, guid: f706cba9033ccaa43b73863559a3cd8d,
        type: 3}
      propertyPath: m_Color.r
      value: 0.8784314
      objectReference: {fileID: 0}
    - target: {fileID: 5637918917200603125, guid: f706cba9033ccaa43b73863559a3cd8d,
        type: 3}
      propertyPath: m_Color.g
      value: 0.8980392
      objectReference: {fileID: 0}
    - target: {fileID: 5637918917200603125, guid: f706cba9033ccaa43b73863559a3cd8d,
        type: 3}
      propertyPath: m_Color.b
      value: 0.9254902
      objectReference: {fileID: 0}
    - target: {fileID: 1252830145110202987, guid: f706cba9033ccaa43b73863559a3cd8d,
        type: 3}
      propertyPath: m_fontColor.r
      value: 0.5137255
      objectReference: {fileID: 0}
    - target: {fileID: 1252830145110202987, guid: f706cba9033ccaa43b73863559a3cd8d,
        type: 3}
      propertyPath: m_fontColor.g
      value: 0.5568628
      objectReference: {fileID: 0}
    - target: {fileID: 1252830145110202987, guid: f706cba9033ccaa43b73863559a3cd8d,
        type: 3}
      propertyPath: m_fontColor.b
      value: 0.62352943
      objectReference: {fileID: 0}
    - target: {fileID: 3190940112900657615, guid: f706cba9033ccaa43b73863559a3cd8d,
        type: 3}
      propertyPath: m_Color.r
      value: 0.5137255
      objectReference: {fileID: 0}
    - target: {fileID: 3190940112900657615, guid: f706cba9033ccaa43b73863559a3cd8d,
        type: 3}
      propertyPath: m_Color.g
      value: 0.5568628
      objectReference: {fileID: 0}
    - target: {fileID: 3190940112900657615, guid: f706cba9033ccaa43b73863559a3cd8d,
        type: 3}
      propertyPath: m_Color.b
      value: 0.62352943
      objectReference: {fileID: 0}
    - target: {fileID: 6231168300462417736, guid: f706cba9033ccaa43b73863559a3cd8d,
        type: 3}
      propertyPath: m_Color.r
      value: 0.6392157
      objectReference: {fileID: 0}
    - target: {fileID: 6231168300462417736, guid: f706cba9033ccaa43b73863559a3cd8d,
        type: 3}
      propertyPath: m_Color.g
      value: 0.69411767
      objectReference: {fileID: 0}
    - target: {fileID: 6231168300462417736, guid: f706cba9033ccaa43b73863559a3cd8d,
        type: 3}
      propertyPath: m_Color.b
      value: 0.7764706
      objectReference: {fileID: 0}
    - target: {fileID: 783941294587824157, guid: f706cba9033ccaa43b73863559a3cd8d,
        type: 3}
      propertyPath: m_Color.r
      value: 1
      objectReference: {fileID: 0}
    - target: {fileID: 783941294587824157, guid: f706cba9033ccaa43b73863559a3cd8d,
        type: 3}
      propertyPath: m_Color.g
      value: 1
      objectReference: {fileID: 0}
    - target: {fileID: 783941294587824157, guid: f706cba9033ccaa43b73863559a3cd8d,
        type: 3}
      propertyPath: m_Color.b
      value: 1
      objectReference: {fileID: 0}
    - target: {fileID: 6340942390891345139, guid: f706cba9033ccaa43b73863559a3cd8d,
        type: 3}
      propertyPath: m_Color.r
      value: 0.9198113
      objectReference: {fileID: 0}
    - target: {fileID: 6340942390891345139, guid: f706cba9033ccaa43b73863559a3cd8d,
        type: 3}
      propertyPath: m_Color.g
      value: 0.9495108
      objectReference: {fileID: 0}
    - target: {fileID: 6340942390891345139, guid: f706cba9033ccaa43b73863559a3cd8d,
        type: 3}
      propertyPath: m_Color.b
      value: 1
      objectReference: {fileID: 0}
    - target: {fileID: 2830679671712407371, guid: f706cba9033ccaa43b73863559a3cd8d,
        type: 3}
      propertyPath: m_Color.r
      value: 0.6392157
      objectReference: {fileID: 0}
    - target: {fileID: 2830679671712407371, guid: f706cba9033ccaa43b73863559a3cd8d,
        type: 3}
      propertyPath: m_Color.g
      value: 0.69411767
      objectReference: {fileID: 0}
    - target: {fileID: 2830679671712407371, guid: f706cba9033ccaa43b73863559a3cd8d,
        type: 3}
      propertyPath: m_Color.b
      value: 0.7764706
      objectReference: {fileID: 0}
    - target: {fileID: 8797239811594570672, guid: f706cba9033ccaa43b73863559a3cd8d,
        type: 3}
      propertyPath: m_Color.r
      value: 1
      objectReference: {fileID: 0}
    - target: {fileID: 8797239811594570672, guid: f706cba9033ccaa43b73863559a3cd8d,
        type: 3}
      propertyPath: m_Color.g
      value: 1
      objectReference: {fileID: 0}
    - target: {fileID: 8797239811594570672, guid: f706cba9033ccaa43b73863559a3cd8d,
        type: 3}
      propertyPath: m_Color.b
      value: 1
      objectReference: {fileID: 0}
    m_RemovedComponents: []
  m_SourcePrefab: {fileID: 100100000, guid: f706cba9033ccaa43b73863559a3cd8d, type: 3}
--- !u!224 &758273103186876484 stripped
RectTransform:
  m_CorrespondingSourceObject: {fileID: 4154028339625707863, guid: f706cba9033ccaa43b73863559a3cd8d,
    type: 3}
  m_PrefabInstance: {fileID: 3685069960169918739}
  m_PrefabAsset: {fileID: 0}
--- !u!1001 &3685069960186655615
PrefabInstance:
  m_ObjectHideFlags: 0
  serializedVersion: 2
  m_Modification:
    m_TransformParent: {fileID: 3685069960165804414}
    m_Modifications:
    - target: {fileID: 7614285222256267027, guid: dd0f23a7e423e984d8dbf8ebcc8372f0,
        type: 3}
      propertyPath: m_LocalPosition.x
      value: 0
      objectReference: {fileID: 0}
    - target: {fileID: 7614285222256267027, guid: dd0f23a7e423e984d8dbf8ebcc8372f0,
        type: 3}
      propertyPath: m_LocalPosition.y
      value: 0
      objectReference: {fileID: 0}
    - target: {fileID: 7614285222256267027, guid: dd0f23a7e423e984d8dbf8ebcc8372f0,
        type: 3}
      propertyPath: m_LocalPosition.z
      value: 0
      objectReference: {fileID: 0}
    - target: {fileID: 7614285222256267027, guid: dd0f23a7e423e984d8dbf8ebcc8372f0,
        type: 3}
      propertyPath: m_LocalRotation.x
      value: 0
      objectReference: {fileID: 0}
    - target: {fileID: 7614285222256267027, guid: dd0f23a7e423e984d8dbf8ebcc8372f0,
        type: 3}
      propertyPath: m_LocalRotation.y
      value: 0
      objectReference: {fileID: 0}
    - target: {fileID: 7614285222256267027, guid: dd0f23a7e423e984d8dbf8ebcc8372f0,
        type: 3}
      propertyPath: m_LocalRotation.z
      value: 0
      objectReference: {fileID: 0}
    - target: {fileID: 7614285222256267027, guid: dd0f23a7e423e984d8dbf8ebcc8372f0,
        type: 3}
      propertyPath: m_LocalRotation.w
      value: 1
      objectReference: {fileID: 0}
    - target: {fileID: 7614285222256267027, guid: dd0f23a7e423e984d8dbf8ebcc8372f0,
        type: 3}
      propertyPath: m_RootOrder
      value: 0
      objectReference: {fileID: 0}
    - target: {fileID: 7614285222256267027, guid: dd0f23a7e423e984d8dbf8ebcc8372f0,
        type: 3}
      propertyPath: m_LocalEulerAnglesHint.x
      value: 0
      objectReference: {fileID: 0}
    - target: {fileID: 7614285222256267027, guid: dd0f23a7e423e984d8dbf8ebcc8372f0,
        type: 3}
      propertyPath: m_LocalEulerAnglesHint.y
      value: 0
      objectReference: {fileID: 0}
    - target: {fileID: 7614285222256267027, guid: dd0f23a7e423e984d8dbf8ebcc8372f0,
        type: 3}
      propertyPath: m_LocalEulerAnglesHint.z
      value: 0
      objectReference: {fileID: 0}
    - target: {fileID: 7614285222256267027, guid: dd0f23a7e423e984d8dbf8ebcc8372f0,
        type: 3}
      propertyPath: m_AnchoredPosition.x
      value: 0
      objectReference: {fileID: 0}
    - target: {fileID: 7614285222256267027, guid: dd0f23a7e423e984d8dbf8ebcc8372f0,
        type: 3}
      propertyPath: m_AnchoredPosition.y
      value: 0
      objectReference: {fileID: 0}
    - target: {fileID: 7614285222256267027, guid: dd0f23a7e423e984d8dbf8ebcc8372f0,
        type: 3}
      propertyPath: m_SizeDelta.x
      value: 0
      objectReference: {fileID: 0}
    - target: {fileID: 7614285222256267027, guid: dd0f23a7e423e984d8dbf8ebcc8372f0,
        type: 3}
      propertyPath: m_SizeDelta.y
      value: 0
      objectReference: {fileID: 0}
    - target: {fileID: 7614285222256267027, guid: dd0f23a7e423e984d8dbf8ebcc8372f0,
        type: 3}
      propertyPath: m_AnchorMin.x
      value: 0
      objectReference: {fileID: 0}
    - target: {fileID: 7614285222256267027, guid: dd0f23a7e423e984d8dbf8ebcc8372f0,
        type: 3}
      propertyPath: m_AnchorMin.y
      value: 0
      objectReference: {fileID: 0}
    - target: {fileID: 7614285222256267027, guid: dd0f23a7e423e984d8dbf8ebcc8372f0,
        type: 3}
      propertyPath: m_AnchorMax.x
      value: 1
      objectReference: {fileID: 0}
    - target: {fileID: 7614285222256267027, guid: dd0f23a7e423e984d8dbf8ebcc8372f0,
        type: 3}
      propertyPath: m_AnchorMax.y
      value: 1
      objectReference: {fileID: 0}
    - target: {fileID: 7614285222256267027, guid: dd0f23a7e423e984d8dbf8ebcc8372f0,
        type: 3}
      propertyPath: m_Pivot.x
      value: 0.5
      objectReference: {fileID: 0}
    - target: {fileID: 7614285222256267027, guid: dd0f23a7e423e984d8dbf8ebcc8372f0,
        type: 3}
      propertyPath: m_Pivot.y
      value: 0.5
      objectReference: {fileID: 0}
    - target: {fileID: 4599189617262741181, guid: dd0f23a7e423e984d8dbf8ebcc8372f0,
        type: 3}
      propertyPath: m_Name
      value: Button - B - 128x32 - Circle - Text - Get Started
      objectReference: {fileID: 0}
    - target: {fileID: 4715128846577130543, guid: dd0f23a7e423e984d8dbf8ebcc8372f0,
        type: 3}
      propertyPath: m_textInfo.characterCount
      value: 11
      objectReference: {fileID: 0}
    - target: {fileID: 4715128846577130543, guid: dd0f23a7e423e984d8dbf8ebcc8372f0,
        type: 3}
      propertyPath: m_textInfo.wordCount
      value: 2
      objectReference: {fileID: 0}
    - target: {fileID: 4715128846577130543, guid: dd0f23a7e423e984d8dbf8ebcc8372f0,
        type: 3}
      propertyPath: m_textInfo.lineCount
      value: 1
      objectReference: {fileID: 0}
    - target: {fileID: 4715128846577130543, guid: dd0f23a7e423e984d8dbf8ebcc8372f0,
        type: 3}
      propertyPath: m_textInfo.pageCount
      value: 1
      objectReference: {fileID: 0}
    - target: {fileID: 4715128846577130543, guid: dd0f23a7e423e984d8dbf8ebcc8372f0,
        type: 3}
      propertyPath: m_fontSizeMax
      value: 20
      objectReference: {fileID: 0}
    - target: {fileID: 4715128846577130543, guid: dd0f23a7e423e984d8dbf8ebcc8372f0,
        type: 3}
      propertyPath: m_fontSize
      value: 20
      objectReference: {fileID: 0}
    - target: {fileID: 4715128846577130543, guid: dd0f23a7e423e984d8dbf8ebcc8372f0,
        type: 3}
      propertyPath: m_text
      value: Get Started
      objectReference: {fileID: 0}
    - target: {fileID: 4715128846577130543, guid: dd0f23a7e423e984d8dbf8ebcc8372f0,
        type: 3}
      propertyPath: m_sharedMaterial
      value: 
      objectReference: {fileID: 4835089367266696174, guid: 643aebd7124d3c34bb062c5a60ebb5a8,
        type: 2}
    - target: {fileID: 4715128846577130543, guid: dd0f23a7e423e984d8dbf8ebcc8372f0,
        type: 3}
      propertyPath: m_hasFontAssetChanged
      value: 0
      objectReference: {fileID: 0}
    - target: {fileID: 4715128846577130543, guid: dd0f23a7e423e984d8dbf8ebcc8372f0,
        type: 3}
      propertyPath: m_textInfo.spaceCount
      value: 1
      objectReference: {fileID: 0}
    - target: {fileID: 4715128846577130543, guid: dd0f23a7e423e984d8dbf8ebcc8372f0,
        type: 3}
      propertyPath: m_fontColor32.rgba
      value: 4281807149
      objectReference: {fileID: 0}
    - target: {fileID: 4715128846577130543, guid: dd0f23a7e423e984d8dbf8ebcc8372f0,
        type: 3}
      propertyPath: m_fontColor.r
      value: 0.17911176
      objectReference: {fileID: 0}
    - target: {fileID: 4715128846577130543, guid: dd0f23a7e423e984d8dbf8ebcc8372f0,
        type: 3}
      propertyPath: m_fontColor.g
      value: 0.19398901
      objectReference: {fileID: 0}
    - target: {fileID: 4715128846577130543, guid: dd0f23a7e423e984d8dbf8ebcc8372f0,
        type: 3}
      propertyPath: m_fontColor.b
      value: 0.21698111
      objectReference: {fileID: 0}
    - target: {fileID: 2295784516164976913, guid: dd0f23a7e423e984d8dbf8ebcc8372f0,
        type: 3}
      propertyPath: PropertyIdSerializedGuid.Array.data[0]
      value: 129
      objectReference: {fileID: 0}
    - target: {fileID: 2295784516164976913, guid: dd0f23a7e423e984d8dbf8ebcc8372f0,
        type: 3}
      propertyPath: PropertyIdSerializedGuid.Array.data[1]
      value: 150
      objectReference: {fileID: 0}
    - target: {fileID: 2295784516164976913, guid: dd0f23a7e423e984d8dbf8ebcc8372f0,
        type: 3}
      propertyPath: PropertyIdSerializedGuid.Array.data[2]
      value: 85
      objectReference: {fileID: 0}
    - target: {fileID: 2295784516164976913, guid: dd0f23a7e423e984d8dbf8ebcc8372f0,
        type: 3}
      propertyPath: PropertyIdSerializedGuid.Array.data[3]
      value: 20
      objectReference: {fileID: 0}
    - target: {fileID: 2295784516164976913, guid: dd0f23a7e423e984d8dbf8ebcc8372f0,
        type: 3}
      propertyPath: PropertyIdSerializedGuid.Array.data[4]
      value: 62
      objectReference: {fileID: 0}
    - target: {fileID: 2295784516164976913, guid: dd0f23a7e423e984d8dbf8ebcc8372f0,
        type: 3}
      propertyPath: PropertyIdSerializedGuid.Array.data[5]
      value: 131
      objectReference: {fileID: 0}
    - target: {fileID: 2295784516164976913, guid: dd0f23a7e423e984d8dbf8ebcc8372f0,
        type: 3}
      propertyPath: PropertyIdSerializedGuid.Array.data[6]
      value: 236
      objectReference: {fileID: 0}
    - target: {fileID: 2295784516164976913, guid: dd0f23a7e423e984d8dbf8ebcc8372f0,
        type: 3}
      propertyPath: PropertyIdSerializedGuid.Array.data[7]
      value: 69
      objectReference: {fileID: 0}
    - target: {fileID: 2295784516164976913, guid: dd0f23a7e423e984d8dbf8ebcc8372f0,
        type: 3}
      propertyPath: PropertyIdSerializedGuid.Array.data[8]
      value: 162
      objectReference: {fileID: 0}
    - target: {fileID: 2295784516164976913, guid: dd0f23a7e423e984d8dbf8ebcc8372f0,
        type: 3}
      propertyPath: PropertyIdSerializedGuid.Array.data[9]
      value: 61
      objectReference: {fileID: 0}
    - target: {fileID: 2295784516164976913, guid: dd0f23a7e423e984d8dbf8ebcc8372f0,
        type: 3}
      propertyPath: PropertyIdSerializedGuid.Array.data[10]
      value: 103
      objectReference: {fileID: 0}
    - target: {fileID: 2295784516164976913, guid: dd0f23a7e423e984d8dbf8ebcc8372f0,
        type: 3}
      propertyPath: PropertyIdSerializedGuid.Array.data[11]
      value: 46
      objectReference: {fileID: 0}
    - target: {fileID: 2295784516164976913, guid: dd0f23a7e423e984d8dbf8ebcc8372f0,
        type: 3}
      propertyPath: PropertyIdSerializedGuid.Array.data[12]
      value: 232
      objectReference: {fileID: 0}
    - target: {fileID: 2295784516164976913, guid: dd0f23a7e423e984d8dbf8ebcc8372f0,
        type: 3}
      propertyPath: PropertyIdSerializedGuid.Array.data[13]
      value: 17
      objectReference: {fileID: 0}
    - target: {fileID: 2295784516164976913, guid: dd0f23a7e423e984d8dbf8ebcc8372f0,
        type: 3}
      propertyPath: PropertyIdSerializedGuid.Array.data[14]
      value: 102
      objectReference: {fileID: 0}
    - target: {fileID: 2295784516164976913, guid: dd0f23a7e423e984d8dbf8ebcc8372f0,
        type: 3}
      propertyPath: PropertyIdSerializedGuid.Array.data[15]
      value: 116
      objectReference: {fileID: 0}
    - target: {fileID: 2175409830526640561, guid: dd0f23a7e423e984d8dbf8ebcc8372f0,
        type: 3}
      propertyPath: m_Color.r
      value: 0.8784314
      objectReference: {fileID: 0}
    - target: {fileID: 2175409830526640561, guid: dd0f23a7e423e984d8dbf8ebcc8372f0,
        type: 3}
      propertyPath: m_Color.g
      value: 0.8980392
      objectReference: {fileID: 0}
    - target: {fileID: 2175409830526640561, guid: dd0f23a7e423e984d8dbf8ebcc8372f0,
        type: 3}
      propertyPath: m_Color.b
      value: 0.9254902
      objectReference: {fileID: 0}
    - target: {fileID: 8954578780175832971, guid: dd0f23a7e423e984d8dbf8ebcc8372f0,
        type: 3}
      propertyPath: m_Color.r
      value: 0.5137255
      objectReference: {fileID: 0}
    - target: {fileID: 8954578780175832971, guid: dd0f23a7e423e984d8dbf8ebcc8372f0,
        type: 3}
      propertyPath: m_Color.g
      value: 0.5568628
      objectReference: {fileID: 0}
    - target: {fileID: 8954578780175832971, guid: dd0f23a7e423e984d8dbf8ebcc8372f0,
        type: 3}
      propertyPath: m_Color.b
      value: 0.62352943
      objectReference: {fileID: 0}
    - target: {fileID: 6551730998373404249, guid: dd0f23a7e423e984d8dbf8ebcc8372f0,
        type: 3}
      propertyPath: m_Color.r
      value: 1
      objectReference: {fileID: 0}
    - target: {fileID: 6551730998373404249, guid: dd0f23a7e423e984d8dbf8ebcc8372f0,
        type: 3}
      propertyPath: m_Color.g
      value: 1
      objectReference: {fileID: 0}
    - target: {fileID: 6551730998373404249, guid: dd0f23a7e423e984d8dbf8ebcc8372f0,
        type: 3}
      propertyPath: m_Color.b
      value: 1
      objectReference: {fileID: 0}
    - target: {fileID: 3578700386328026955, guid: dd0f23a7e423e984d8dbf8ebcc8372f0,
        type: 3}
      propertyPath: m_Color.r
      value: 0.5137255
      objectReference: {fileID: 0}
    - target: {fileID: 3578700386328026955, guid: dd0f23a7e423e984d8dbf8ebcc8372f0,
        type: 3}
      propertyPath: m_Color.g
      value: 0.5568628
      objectReference: {fileID: 0}
    - target: {fileID: 3578700386328026955, guid: dd0f23a7e423e984d8dbf8ebcc8372f0,
        type: 3}
      propertyPath: m_Color.b
      value: 0.62352943
      objectReference: {fileID: 0}
    - target: {fileID: 465274130604761356, guid: dd0f23a7e423e984d8dbf8ebcc8372f0,
        type: 3}
      propertyPath: m_Color.r
      value: 0.6392157
      objectReference: {fileID: 0}
    - target: {fileID: 465274130604761356, guid: dd0f23a7e423e984d8dbf8ebcc8372f0,
        type: 3}
      propertyPath: m_Color.g
      value: 0.69411767
      objectReference: {fileID: 0}
    - target: {fileID: 465274130604761356, guid: dd0f23a7e423e984d8dbf8ebcc8372f0,
        type: 3}
      propertyPath: m_Color.b
      value: 0.7764706
      objectReference: {fileID: 0}
    - target: {fileID: 572800853620552375, guid: dd0f23a7e423e984d8dbf8ebcc8372f0,
        type: 3}
      propertyPath: m_Color.r
      value: 0.9198113
      objectReference: {fileID: 0}
    - target: {fileID: 572800853620552375, guid: dd0f23a7e423e984d8dbf8ebcc8372f0,
        type: 3}
      propertyPath: m_Color.g
      value: 0.9495108
      objectReference: {fileID: 0}
    - target: {fileID: 572800853620552375, guid: dd0f23a7e423e984d8dbf8ebcc8372f0,
        type: 3}
      propertyPath: m_Color.b
      value: 1
      objectReference: {fileID: 0}
    - target: {fileID: 8594533834644183311, guid: dd0f23a7e423e984d8dbf8ebcc8372f0,
        type: 3}
      propertyPath: m_Color.r
      value: 0.6392157
      objectReference: {fileID: 0}
    - target: {fileID: 8594533834644183311, guid: dd0f23a7e423e984d8dbf8ebcc8372f0,
        type: 3}
      propertyPath: m_Color.g
      value: 0.69411767
      objectReference: {fileID: 0}
    - target: {fileID: 8594533834644183311, guid: dd0f23a7e423e984d8dbf8ebcc8372f0,
        type: 3}
      propertyPath: m_Color.b
      value: 0.7764706
      objectReference: {fileID: 0}
    - target: {fileID: 3034124511350377972, guid: dd0f23a7e423e984d8dbf8ebcc8372f0,
        type: 3}
      propertyPath: m_Color.r
      value: 1
      objectReference: {fileID: 0}
    - target: {fileID: 3034124511350377972, guid: dd0f23a7e423e984d8dbf8ebcc8372f0,
        type: 3}
      propertyPath: m_Color.g
      value: 1
      objectReference: {fileID: 0}
    - target: {fileID: 3034124511350377972, guid: dd0f23a7e423e984d8dbf8ebcc8372f0,
        type: 3}
      propertyPath: m_Color.b
      value: 1
      objectReference: {fileID: 0}
    m_RemovedComponents: []
  m_SourcePrefab: {fileID: 100100000, guid: dd0f23a7e423e984d8dbf8ebcc8372f0, type: 3}
--- !u!224 &6523639483864464492 stripped
RectTransform:
  m_CorrespondingSourceObject: {fileID: 7614285222256267027, guid: dd0f23a7e423e984d8dbf8ebcc8372f0,
    type: 3}
  m_PrefabInstance: {fileID: 3685069960186655615}
  m_PrefabAsset: {fileID: 0}
--- !u!1001 &3685069960595921001
PrefabInstance:
  m_ObjectHideFlags: 0
  serializedVersion: 2
  m_Modification:
    m_TransformParent: {fileID: 3685069959178534537}
    m_Modifications:
    - target: {fileID: 6744247367178827410, guid: 3082d67c3c76da6489dcd1d8ffd37576,
        type: 3}
      propertyPath: m_Name
      value: Card - Circle - 256x256 Out - Image
      objectReference: {fileID: 0}
    - target: {fileID: 6176105829806741969, guid: 3082d67c3c76da6489dcd1d8ffd37576,
        type: 3}
      propertyPath: m_LocalPosition.x
      value: 0
      objectReference: {fileID: 0}
    - target: {fileID: 6176105829806741969, guid: 3082d67c3c76da6489dcd1d8ffd37576,
        type: 3}
      propertyPath: m_LocalPosition.y
      value: 0
      objectReference: {fileID: 0}
    - target: {fileID: 6176105829806741969, guid: 3082d67c3c76da6489dcd1d8ffd37576,
        type: 3}
      propertyPath: m_LocalPosition.z
      value: 0
      objectReference: {fileID: 0}
    - target: {fileID: 6176105829806741969, guid: 3082d67c3c76da6489dcd1d8ffd37576,
        type: 3}
      propertyPath: m_LocalRotation.x
      value: 0
      objectReference: {fileID: 0}
    - target: {fileID: 6176105829806741969, guid: 3082d67c3c76da6489dcd1d8ffd37576,
        type: 3}
      propertyPath: m_LocalRotation.y
      value: 0
      objectReference: {fileID: 0}
    - target: {fileID: 6176105829806741969, guid: 3082d67c3c76da6489dcd1d8ffd37576,
        type: 3}
      propertyPath: m_LocalRotation.z
      value: 0
      objectReference: {fileID: 0}
    - target: {fileID: 6176105829806741969, guid: 3082d67c3c76da6489dcd1d8ffd37576,
        type: 3}
      propertyPath: m_LocalRotation.w
      value: 1
      objectReference: {fileID: 0}
    - target: {fileID: 6176105829806741969, guid: 3082d67c3c76da6489dcd1d8ffd37576,
        type: 3}
      propertyPath: m_RootOrder
      value: 0
      objectReference: {fileID: 0}
    - target: {fileID: 6176105829806741969, guid: 3082d67c3c76da6489dcd1d8ffd37576,
        type: 3}
      propertyPath: m_LocalEulerAnglesHint.x
      value: 0
      objectReference: {fileID: 0}
    - target: {fileID: 6176105829806741969, guid: 3082d67c3c76da6489dcd1d8ffd37576,
        type: 3}
      propertyPath: m_LocalEulerAnglesHint.y
      value: 0
      objectReference: {fileID: 0}
    - target: {fileID: 6176105829806741969, guid: 3082d67c3c76da6489dcd1d8ffd37576,
        type: 3}
      propertyPath: m_LocalEulerAnglesHint.z
      value: 0
      objectReference: {fileID: 0}
    - target: {fileID: 6176105829806741969, guid: 3082d67c3c76da6489dcd1d8ffd37576,
        type: 3}
      propertyPath: m_AnchoredPosition.x
      value: 0
      objectReference: {fileID: 0}
    - target: {fileID: 6176105829806741969, guid: 3082d67c3c76da6489dcd1d8ffd37576,
        type: 3}
      propertyPath: m_AnchoredPosition.y
      value: -32
      objectReference: {fileID: 0}
    - target: {fileID: 6176105829806741969, guid: 3082d67c3c76da6489dcd1d8ffd37576,
        type: 3}
      propertyPath: m_SizeDelta.x
      value: 256
      objectReference: {fileID: 0}
    - target: {fileID: 6176105829806741969, guid: 3082d67c3c76da6489dcd1d8ffd37576,
        type: 3}
      propertyPath: m_SizeDelta.y
      value: 256
      objectReference: {fileID: 0}
    - target: {fileID: 6176105829806741969, guid: 3082d67c3c76da6489dcd1d8ffd37576,
        type: 3}
      propertyPath: m_AnchorMin.x
      value: 0.5
      objectReference: {fileID: 0}
    - target: {fileID: 6176105829806741969, guid: 3082d67c3c76da6489dcd1d8ffd37576,
        type: 3}
      propertyPath: m_AnchorMin.y
      value: 1
      objectReference: {fileID: 0}
    - target: {fileID: 6176105829806741969, guid: 3082d67c3c76da6489dcd1d8ffd37576,
        type: 3}
      propertyPath: m_AnchorMax.x
      value: 0.5
      objectReference: {fileID: 0}
    - target: {fileID: 6176105829806741969, guid: 3082d67c3c76da6489dcd1d8ffd37576,
        type: 3}
      propertyPath: m_AnchorMax.y
      value: 1
      objectReference: {fileID: 0}
    - target: {fileID: 6176105829806741969, guid: 3082d67c3c76da6489dcd1d8ffd37576,
        type: 3}
      propertyPath: m_Pivot.x
      value: 0.5
      objectReference: {fileID: 0}
    - target: {fileID: 6176105829806741969, guid: 3082d67c3c76da6489dcd1d8ffd37576,
        type: 3}
      propertyPath: m_Pivot.y
      value: 1
      objectReference: {fileID: 0}
    - target: {fileID: 8448770396108320176, guid: 3082d67c3c76da6489dcd1d8ffd37576,
        type: 3}
      propertyPath: m_AnchorMax.x
      value: 0
      objectReference: {fileID: 0}
    - target: {fileID: 8448770396108320176, guid: 3082d67c3c76da6489dcd1d8ffd37576,
        type: 3}
      propertyPath: m_AnchorMax.y
      value: 0
      objectReference: {fileID: 0}
    - target: {fileID: 8448770396108320176, guid: 3082d67c3c76da6489dcd1d8ffd37576,
        type: 3}
      propertyPath: m_SizeDelta.x
      value: 0
      objectReference: {fileID: 0}
    - target: {fileID: 8448770396108320176, guid: 3082d67c3c76da6489dcd1d8ffd37576,
        type: 3}
      propertyPath: m_SizeDelta.y
      value: 0
      objectReference: {fileID: 0}
    - target: {fileID: 186744091432841520, guid: 3082d67c3c76da6489dcd1d8ffd37576,
        type: 3}
      propertyPath: m_Sprite
      value: 
      objectReference: {fileID: 21300000, guid: e210e391f60369a4bbfd6d0141652920,
        type: 3}
    - target: {fileID: 194984505426309568, guid: 3082d67c3c76da6489dcd1d8ffd37576,
        type: 3}
      propertyPath: m_Color.r
      value: 0.8784314
      objectReference: {fileID: 0}
    - target: {fileID: 194984505426309568, guid: 3082d67c3c76da6489dcd1d8ffd37576,
        type: 3}
      propertyPath: m_Color.g
      value: 0.8980392
      objectReference: {fileID: 0}
    - target: {fileID: 194984505426309568, guid: 3082d67c3c76da6489dcd1d8ffd37576,
        type: 3}
      propertyPath: m_Color.b
      value: 0.9254902
      objectReference: {fileID: 0}
    - target: {fileID: 434786066974657125, guid: 3082d67c3c76da6489dcd1d8ffd37576,
        type: 3}
      propertyPath: m_Color.r
      value: 1
      objectReference: {fileID: 0}
    - target: {fileID: 434786066974657125, guid: 3082d67c3c76da6489dcd1d8ffd37576,
        type: 3}
      propertyPath: m_Color.g
      value: 1
      objectReference: {fileID: 0}
    - target: {fileID: 434786066974657125, guid: 3082d67c3c76da6489dcd1d8ffd37576,
        type: 3}
      propertyPath: m_Color.b
      value: 1
      objectReference: {fileID: 0}
    - target: {fileID: 7563194092590454419, guid: 3082d67c3c76da6489dcd1d8ffd37576,
        type: 3}
      propertyPath: m_Color.r
      value: 0.8784314
      objectReference: {fileID: 0}
    - target: {fileID: 7563194092590454419, guid: 3082d67c3c76da6489dcd1d8ffd37576,
        type: 3}
      propertyPath: m_Color.g
      value: 0.8980392
      objectReference: {fileID: 0}
    - target: {fileID: 7563194092590454419, guid: 3082d67c3c76da6489dcd1d8ffd37576,
        type: 3}
      propertyPath: m_Color.b
      value: 0.9254902
      objectReference: {fileID: 0}
    - target: {fileID: 5837360027650963615, guid: 3082d67c3c76da6489dcd1d8ffd37576,
        type: 3}
      propertyPath: m_Color.r
      value: 0.6392157
      objectReference: {fileID: 0}
    - target: {fileID: 5837360027650963615, guid: 3082d67c3c76da6489dcd1d8ffd37576,
        type: 3}
      propertyPath: m_Color.g
      value: 0.69411767
      objectReference: {fileID: 0}
    - target: {fileID: 5837360027650963615, guid: 3082d67c3c76da6489dcd1d8ffd37576,
        type: 3}
      propertyPath: m_Color.b
      value: 0.7764706
      objectReference: {fileID: 0}
    m_RemovedComponents: []
  m_SourcePrefab: {fileID: 100100000, guid: 3082d67c3c76da6489dcd1d8ffd37576, type: 3}
--- !u!224 &7392113557079441848 stripped
RectTransform:
  m_CorrespondingSourceObject: {fileID: 6176105829806741969, guid: 3082d67c3c76da6489dcd1d8ffd37576,
    type: 3}
  m_PrefabInstance: {fileID: 3685069960595921001}
  m_PrefabAsset: {fileID: 0}
