%YAML 1.1
%TAG !u! tag:unity3d.com,2011:
--- !u!1 &1049707759144358071
GameObject:
  m_ObjectHideFlags: 0
  m_CorrespondingSourceObject: {fileID: 0}
  m_PrefabInstance: {fileID: 0}
  m_PrefabAsset: {fileID: 0}
  serializedVersion: 6
  m_Component:
  - component: {fileID: 8121596309977642838}
  - component: {fileID: 6710479395474275600}
  - component: {fileID: 145135281457287882}
  - component: {fileID: 2416516868695278858}
  - component: {fileID: 3788107541034702823}
  m_Layer: 0
  m_Name: Fill
  m_TagString: Untagged
  m_Icon: {fileID: 0}
  m_NavMeshLayer: 0
  m_StaticEditorFlags: 0
  m_IsActive: 1
--- !u!224 &8121596309977642838
RectTransform:
  m_ObjectHideFlags: 0
  m_CorrespondingSourceObject: {fileID: 0}
  m_PrefabInstance: {fileID: 0}
  m_PrefabAsset: {fileID: 0}
  m_GameObject: {fileID: 1049707759144358071}
  m_LocalRotation: {x: 0, y: 0, z: 0, w: 1}
  m_LocalPosition: {x: 0, y: 0, z: 0}
  m_LocalScale: {x: 1, y: 1, z: 1}
  m_Children:
  - {fileID: 8751897452103324836}
  m_Father: {fileID: 5959316615575684605}
  m_RootOrder: 3
  m_LocalEulerAnglesHint: {x: 0, y: 0, z: 0}
  m_AnchorMin: {x: 0, y: 0}
  m_AnchorMax: {x: 1, y: 1}
  m_AnchoredPosition: {x: 0, y: 0}
  m_SizeDelta: {x: -4, y: -4}
  m_Pivot: {x: 0.5, y: 0.5}
--- !u!222 &6710479395474275600
CanvasRenderer:
  m_ObjectHideFlags: 0
  m_CorrespondingSourceObject: {fileID: 0}
  m_PrefabInstance: {fileID: 0}
  m_PrefabAsset: {fileID: 0}
  m_GameObject: {fileID: 1049707759144358071}
  m_CullTransparentMesh: 0
--- !u!114 &145135281457287882
MonoBehaviour:
  m_ObjectHideFlags: 0
  m_CorrespondingSourceObject: {fileID: 0}
  m_PrefabInstance: {fileID: 0}
  m_PrefabAsset: {fileID: 0}
  m_GameObject: {fileID: 1049707759144358071}
  m_Enabled: 1
  m_EditorHideFlags: 0
  m_Script: {fileID: -765806418, guid: f70555f144d8491a825f0804e09c671c, type: 3}
  m_Name: 
  m_EditorClassIdentifier: 
  m_Material: {fileID: 0}
  m_Color: {r: 0.8784314, g: 0.8980392, b: 0.9254902, a: 1}
  m_RaycastTarget: 1
  m_OnCullStateChanged:
    m_PersistentCalls:
      m_Calls: []
    m_TypeName: UnityEngine.UI.MaskableGraphic+CullStateChangedEvent, UnityEngine.UI,
      Version=1.0.0.0, Culture=neutral, PublicKeyToken=null
  m_Sprite: {fileID: 21300000, guid: a7be14d263a7d14499c3ca0ef8a869ba, type: 3}
  m_Type: 1
  m_PreserveAspect: 0
  m_FillCenter: 1
  m_FillMethod: 4
  m_FillAmount: 1
  m_FillClockwise: 1
  m_FillOrigin: 0
  m_UseSpriteMesh: 0
--- !u!114 &2416516868695278858
MonoBehaviour:
  m_ObjectHideFlags: 0
  m_CorrespondingSourceObject: {fileID: 0}
  m_PrefabInstance: {fileID: 0}
  m_PrefabAsset: {fileID: 0}
  m_GameObject: {fileID: 1049707759144358071}
  m_Enabled: 1
  m_EditorHideFlags: 0
  m_Script: {fileID: 11500000, guid: 54cf8c4b916540e6abe8991db870c45f, type: 3}
  m_Name: 
  m_EditorClassIdentifier: 
  ThemeIdSerializedGuid: 4970eed67e2b864e9e16a851bb1066cb
  VariantIdSerializedGuid: 
  PropertyIdSerializedGuid: b877d9291556af45abccf231c9d58bb9
  Image: {fileID: 145135281457287882}
  OverrideAlpha: 0
  Alpha: 1
--- !u!114 &3788107541034702823
MonoBehaviour:
  m_ObjectHideFlags: 0
  m_CorrespondingSourceObject: {fileID: 0}
  m_PrefabInstance: {fileID: 0}
  m_PrefabAsset: {fileID: 0}
  m_GameObject: {fileID: 1049707759144358071}
  m_Enabled: 1
  m_EditorHideFlags: 0
  m_Script: {fileID: -1200242548, guid: f70555f144d8491a825f0804e09c671c, type: 3}
  m_Name: 
  m_EditorClassIdentifier: 
  m_ShowMaskGraphic: 1
--- !u!1 &1788598591736636259
GameObject:
  m_ObjectHideFlags: 0
  m_CorrespondingSourceObject: {fileID: 0}
  m_PrefabInstance: {fileID: 0}
  m_PrefabAsset: {fileID: 0}
  serializedVersion: 6
  m_Component:
  - component: {fileID: 985552914913244886}
  - component: {fileID: 4119441133049508818}
  - component: {fileID: 6695348009083654602}
  - component: {fileID: 3169532608809601502}
  m_Layer: 0
  m_Name: Foreground
  m_TagString: Untagged
  m_Icon: {fileID: 0}
  m_NavMeshLayer: 0
  m_StaticEditorFlags: 0
  m_IsActive: 1
--- !u!224 &985552914913244886
RectTransform:
  m_ObjectHideFlags: 0
  m_CorrespondingSourceObject: {fileID: 0}
  m_PrefabInstance: {fileID: 0}
  m_PrefabAsset: {fileID: 0}
  m_GameObject: {fileID: 1788598591736636259}
  m_LocalRotation: {x: -0, y: -0, z: -0, w: 1}
  m_LocalPosition: {x: 0, y: 0, z: 0}
  m_LocalScale: {x: 1, y: 1, z: 1}
  m_Children:
  - {fileID: 7365318973216392646}
  m_Father: {fileID: 8751897452103324836}
  m_RootOrder: 1
  m_LocalEulerAnglesHint: {x: 0, y: 0, z: 0}
  m_AnchorMin: {x: 0, y: 0}
  m_AnchorMax: {x: 1, y: 0}
  m_AnchoredPosition: {x: 0, y: 0}
  m_SizeDelta: {x: 0, y: 238}
  m_Pivot: {x: 0.5, y: 0}
--- !u!222 &4119441133049508818
CanvasRenderer:
  m_ObjectHideFlags: 0
  m_CorrespondingSourceObject: {fileID: 0}
  m_PrefabInstance: {fileID: 0}
  m_PrefabAsset: {fileID: 0}
  m_GameObject: {fileID: 1788598591736636259}
  m_CullTransparentMesh: 0
--- !u!114 &6695348009083654602
MonoBehaviour:
  m_ObjectHideFlags: 0
  m_CorrespondingSourceObject: {fileID: 0}
  m_PrefabInstance: {fileID: 0}
  m_PrefabAsset: {fileID: 0}
  m_GameObject: {fileID: 1788598591736636259}
  m_Enabled: 1
  m_EditorHideFlags: 0
  m_Script: {fileID: -765806418, guid: f70555f144d8491a825f0804e09c671c, type: 3}
  m_Name: 
  m_EditorClassIdentifier: 
  m_Material: {fileID: 0}
  m_Color: {r: 0.8784314, g: 0.8980392, b: 0.9254902, a: 1}
  m_RaycastTarget: 1
  m_OnCullStateChanged:
    m_PersistentCalls:
      m_Calls: []
    m_TypeName: UnityEngine.UI.MaskableGraphic+CullStateChangedEvent, UnityEngine.UI,
      Version=1.0.0.0, Culture=neutral, PublicKeyToken=null
  m_Sprite: {fileID: 0}
  m_Type: 0
  m_PreserveAspect: 0
  m_FillCenter: 1
  m_FillMethod: 4
  m_FillAmount: 1
  m_FillClockwise: 1
  m_FillOrigin: 0
  m_UseSpriteMesh: 0
--- !u!114 &3169532608809601502
MonoBehaviour:
  m_ObjectHideFlags: 0
  m_CorrespondingSourceObject: {fileID: 0}
  m_PrefabInstance: {fileID: 0}
  m_PrefabAsset: {fileID: 0}
  m_GameObject: {fileID: 1788598591736636259}
  m_Enabled: 1
  m_EditorHideFlags: 0
  m_Script: {fileID: 11500000, guid: 54cf8c4b916540e6abe8991db870c45f, type: 3}
  m_Name: 
  m_EditorClassIdentifier: 
  ThemeIdSerializedGuid: 4970eed67e2b864e9e16a851bb1066cb
  VariantIdSerializedGuid: 
  PropertyIdSerializedGuid: b877d9291556af45abccf231c9d58bb9
  Image: {fileID: 6695348009083654602}
  OverrideAlpha: 0
  Alpha: 0
--- !u!1 &2078509006750435563
GameObject:
  m_ObjectHideFlags: 0
  m_CorrespondingSourceObject: {fileID: 0}
  m_PrefabInstance: {fileID: 0}
  m_PrefabAsset: {fileID: 0}
  serializedVersion: 6
  m_Component:
  - component: {fileID: 7446556292153170028}
  - component: {fileID: 6909569990884433364}
  - component: {fileID: 365442209910800041}
  - component: {fileID: 3593466246407238094}
  m_Layer: 0
  m_Name: Dark - Shadow - Out
  m_TagString: Untagged
  m_Icon: {fileID: 0}
  m_NavMeshLayer: 0
  m_StaticEditorFlags: 0
  m_IsActive: 1
--- !u!224 &7446556292153170028
RectTransform:
  m_ObjectHideFlags: 0
  m_CorrespondingSourceObject: {fileID: 0}
  m_PrefabInstance: {fileID: 0}
  m_PrefabAsset: {fileID: 0}
  m_GameObject: {fileID: 2078509006750435563}
  m_LocalRotation: {x: 0, y: 0, z: 0, w: 1}
  m_LocalPosition: {x: 0, y: 0, z: 0}
  m_LocalScale: {x: 1, y: 1, z: 1}
  m_Children: []
  m_Father: {fileID: 5959316615575684605}
  m_RootOrder: 1
  m_LocalEulerAnglesHint: {x: 0, y: 0, z: 0}
  m_AnchorMin: {x: 0, y: 0}
  m_AnchorMax: {x: 1, y: 1}
  m_AnchoredPosition: {x: 8, y: -8}
  m_SizeDelta: {x: 16, y: 16}
  m_Pivot: {x: 0.5, y: 0.5}
--- !u!222 &6909569990884433364
CanvasRenderer:
  m_ObjectHideFlags: 0
  m_CorrespondingSourceObject: {fileID: 0}
  m_PrefabInstance: {fileID: 0}
  m_PrefabAsset: {fileID: 0}
  m_GameObject: {fileID: 2078509006750435563}
  m_CullTransparentMesh: 0
--- !u!114 &365442209910800041
MonoBehaviour:
  m_ObjectHideFlags: 0
  m_CorrespondingSourceObject: {fileID: 0}
  m_PrefabInstance: {fileID: 0}
  m_PrefabAsset: {fileID: 0}
  m_GameObject: {fileID: 2078509006750435563}
  m_Enabled: 1
  m_EditorHideFlags: 0
  m_Script: {fileID: -765806418, guid: f70555f144d8491a825f0804e09c671c, type: 3}
  m_Name: 
  m_EditorClassIdentifier: 
  m_Material: {fileID: 0}
  m_Color: {r: 0.6392157, g: 0.69411767, b: 0.7764706, a: 0.8}
  m_RaycastTarget: 1
  m_OnCullStateChanged:
    m_PersistentCalls:
      m_Calls: []
    m_TypeName: UnityEngine.UI.MaskableGraphic+CullStateChangedEvent, UnityEngine.UI,
      Version=1.0.0.0, Culture=neutral, PublicKeyToken=null
  m_Sprite: {fileID: 21300000, guid: cd364e108c91e144ab6b02b3e8dd2102, type: 3}
  m_Type: 1
  m_PreserveAspect: 0
  m_FillCenter: 1
  m_FillMethod: 4
  m_FillAmount: 1
  m_FillClockwise: 1
  m_FillOrigin: 0
  m_UseSpriteMesh: 0
--- !u!114 &3593466246407238094
MonoBehaviour:
  m_ObjectHideFlags: 0
  m_CorrespondingSourceObject: {fileID: 0}
  m_PrefabInstance: {fileID: 0}
  m_PrefabAsset: {fileID: 0}
  m_GameObject: {fileID: 2078509006750435563}
  m_Enabled: 1
  m_EditorHideFlags: 0
  m_Script: {fileID: 11500000, guid: 54cf8c4b916540e6abe8991db870c45f, type: 3}
  m_Name: 
  m_EditorClassIdentifier: 
  ThemeIdSerializedGuid: 4970eed67e2b864e9e16a851bb1066cb
  VariantIdSerializedGuid: 
  PropertyIdSerializedGuid: 7d1af3cfa9b2a4468fee485f1c71fd3f
  Image: {fileID: 365442209910800041}
  OverrideAlpha: 1
  Alpha: 0.8
--- !u!1 &2258295886445447968
GameObject:
  m_ObjectHideFlags: 0
  m_CorrespondingSourceObject: {fileID: 0}
  m_PrefabInstance: {fileID: 0}
  m_PrefabAsset: {fileID: 0}
  serializedVersion: 6
  m_Component:
  - component: {fileID: 2258295886445447969}
  - component: {fileID: 2258295886445447976}
  - component: {fileID: 2258295886445447979}
  - component: {fileID: 2258295886445447978}
  - component: {fileID: 2258295886445447981}
  - component: {fileID: 2258295886445447980}
  - component: {fileID: 2258295886445447983}
  - component: {fileID: 2258295886445447982}
  m_Layer: 0
  m_Name: View - 7
  m_TagString: Untagged
  m_Icon: {fileID: 0}
  m_NavMeshLayer: 0
  m_StaticEditorFlags: 0
  m_IsActive: 1
--- !u!224 &2258295886445447969
RectTransform:
  m_ObjectHideFlags: 0
  m_CorrespondingSourceObject: {fileID: 0}
  m_PrefabInstance: {fileID: 0}
  m_PrefabAsset: {fileID: 0}
  m_GameObject: {fileID: 2258295886445447968}
  m_LocalRotation: {x: 0, y: 0, z: 0, w: 1}
  m_LocalPosition: {x: 0, y: 0, z: 0}
  m_LocalScale: {x: 1, y: 1, z: 1}
  m_Children:
  - {fileID: 5959316615575684605}
  m_Father: {fileID: 0}
  m_RootOrder: 0
  m_LocalEulerAnglesHint: {x: 0, y: 0, z: 0}
  m_AnchorMin: {x: 0, y: 0}
  m_AnchorMax: {x: 1, y: 1}
  m_AnchoredPosition: {x: 0, y: 0}
  m_SizeDelta: {x: 0, y: 0}
  m_Pivot: {x: 0.5, y: 0.5}
--- !u!223 &2258295886445447976
Canvas:
  m_ObjectHideFlags: 0
  m_CorrespondingSourceObject: {fileID: 0}
  m_PrefabInstance: {fileID: 0}
  m_PrefabAsset: {fileID: 0}
  m_GameObject: {fileID: 2258295886445447968}
  m_Enabled: 1
  serializedVersion: 3
  m_RenderMode: 2
  m_Camera: {fileID: 0}
  m_PlaneDistance: 100
  m_PixelPerfect: 0
  m_ReceivesEvents: 1
  m_OverrideSorting: 0
  m_OverridePixelPerfect: 0
  m_SortingBucketNormalizedSize: 0
  m_AdditionalShaderChannelsFlag: 25
  m_SortingLayerID: 0
  m_SortingOrder: 0
  m_TargetDisplay: 0
--- !u!114 &2258295886445447979
MonoBehaviour:
  m_ObjectHideFlags: 0
  m_CorrespondingSourceObject: {fileID: 0}
  m_PrefabInstance: {fileID: 0}
  m_PrefabAsset: {fileID: 0}
  m_GameObject: {fileID: 2258295886445447968}
  m_Enabled: 1
  m_EditorHideFlags: 0
  m_Script: {fileID: 1301386320, guid: f70555f144d8491a825f0804e09c671c, type: 3}
  m_Name: 
  m_EditorClassIdentifier: 
  m_IgnoreReversedGraphics: 1
  m_BlockingObjects: 0
  m_BlockingMask:
    serializedVersion: 2
    m_Bits: 4294967295
--- !u!225 &2258295886445447978
CanvasGroup:
  m_ObjectHideFlags: 0
  m_CorrespondingSourceObject: {fileID: 0}
  m_PrefabInstance: {fileID: 0}
  m_PrefabAsset: {fileID: 0}
  m_GameObject: {fileID: 2258295886445447968}
  m_Enabled: 1
  m_Alpha: 1
  m_Interactable: 1
  m_BlocksRaycasts: 1
  m_IgnoreParentGroups: 0
--- !u!114 &2258295886445447981
MonoBehaviour:
  m_ObjectHideFlags: 0
  m_CorrespondingSourceObject: {fileID: 0}
  m_PrefabInstance: {fileID: 0}
  m_PrefabAsset: {fileID: 0}
  m_GameObject: {fileID: 2258295886445447968}
  m_Enabled: 1
  m_EditorHideFlags: 0
  m_Script: {fileID: 11500000, guid: 314affd16bceddb4c99fbaa07de901d9, type: 3}
  m_Name: 
  m_EditorClassIdentifier: 
  DebugMode: 0
  StartPosition: {x: 0, y: 0, z: 0}
  StartRotation: {x: -0, y: 0, z: 0}
  StartScale: {x: 1, y: 1, z: 1}
  StartAlpha: 1
  AutoHideAfterShow: 0
  AutoHideAfterShowDelay: 3
  AutoSelectButtonAfterShow: 0
  BehaviorAtStart: 1
  CustomStartAnchoredPosition: {x: 0, y: 0, z: 0}
  DeselectAnyButtonSelectedOnHide: 0
  DeselectAnyButtonSelectedOnShow: 0
  DisableCanvasWhenHidden: 1
  DisableGameObjectWhenHidden: 1
  DisableGraphicRaycasterWhenHidden: 1
  HideBehavior:
    Animation:
      AnimationType: 2
      Move:
        AnimationType: 2
        Enabled: 1
        From: {x: 0, y: 0, z: 0}
        To: {x: 0, y: 0, z: 0}
        By: {x: 0, y: 0, z: 0}
        UseCustomFromAndTo: 0
        Vibrato: 10
        Elasticity: 1
        NumberOfLoops: -1
        LoopType: 1
        Direction: 2
        CustomPosition: {x: 0, y: 0, z: 0}
        EaseType: 0
        Ease: 17
        AnimationCurve:
          serializedVersion: 2
          m_Curve: []
          m_PreInfinity: 2
          m_PostInfinity: 2
          m_RotationOrder: 4
        StartDelay: 0
        Duration: 0.6
      Rotate:
        AnimationType: 2
        Enabled: 0
        From: {x: 0, y: 0, z: 0}
        To: {x: 0, y: 0, z: 0}
        By: {x: 0, y: 0, z: 0}
        UseCustomFromAndTo: 0
        Vibrato: 10
        Elasticity: 1
        NumberOfLoops: -1
        LoopType: 1
        RotateMode: 1
        EaseType: 0
        Ease: 1
        AnimationCurve:
          serializedVersion: 2
          m_Curve: []
          m_PreInfinity: 2
          m_PostInfinity: 2
          m_RotationOrder: 4
        StartDelay: 0
        Duration: 1
      Scale:
        AnimationType: 2
        Enabled: 0
        From: {x: 0, y: 0, z: 0}
        To: {x: 1, y: 1, z: 0}
        By: {x: 0, y: 0, z: 0}
        UseCustomFromAndTo: 0
        Vibrato: 10
        Elasticity: 1
        NumberOfLoops: -1
        LoopType: 1
        EaseType: 0
        Ease: 1
        AnimationCurve:
          serializedVersion: 2
          m_Curve: []
          m_PreInfinity: 2
          m_PostInfinity: 2
          m_RotationOrder: 4
        StartDelay: 0
        Duration: 0.4
      Fade:
        AnimationType: 2
        Enabled: 1
        From: 0
        To: 0
        By: 0.5
        UseCustomFromAndTo: 0
        NumberOfLoops: -1
        LoopType: 1
        EaseType: 0
        Ease: 1
        AnimationCurve:
          serializedVersion: 2
          m_Curve: []
          m_PreInfinity: 2
          m_PostInfinity: 2
          m_RotationOrder: 4
        StartDelay: 0.4
        Duration: 0.2
    AutoStartLoopAnimation: 1
    LoadSelectedPresetAtRuntime: 0
    InstantAnimation: 0
    OnFinished:
      AnimatorEvents: []
      Effect:
        AutoSort: 1
        Behavior: 0
        CustomSortingOrder: 0
        SortingSteps: 1
        ParticleSystem: {fileID: 0}
        StopBehavior: 1
        CustomSortingLayer: Default
      Event:
        m_PersistentCalls:
          m_Calls: []
        m_TypeName: UnityEngine.Events.UnityEvent, UnityEngine.CoreModule, Version=0.0.0.0,
          Culture=neutral, PublicKeyToken=null
      GameEvents: []
      SoundData:
        SoundSource: 0
        DatabaseName: General
        SoundName: No Sound
        AudioClip: {fileID: 0}
        OutputAudioMixerGroup: {fileID: 0}
    OnStart:
      AnimatorEvents: []
      Effect:
        AutoSort: 1
        Behavior: 0
        CustomSortingOrder: 0
        SortingSteps: 1
        ParticleSystem: {fileID: 0}
        StopBehavior: 1
        CustomSortingLayer: Default
      Event:
        m_PersistentCalls:
          m_Calls: []
        m_TypeName: UnityEngine.Events.UnityEvent, UnityEngine.CoreModule, Version=0.0.0.0,
          Culture=neutral, PublicKeyToken=null
      GameEvents: []
      SoundData:
        SoundSource: 0
        DatabaseName: General
        SoundName: No Sound
        AudioClip: {fileID: 0}
        OutputAudioMixerGroup: {fileID: 0}
    PresetCategory: Uncategorized
    PresetName: Default
  HideProgressor: {fileID: 2258295886445447982}
  LoopBehavior:
    Animation:
      AnimationType: 3
      Move:
        AnimationType: 3
        Enabled: 0
        From: {x: 0, y: 0, z: 0}
        To: {x: 0, y: 0, z: 0}
        By: {x: 0, y: 0, z: 0}
        UseCustomFromAndTo: 0
        Vibrato: 10
        Elasticity: 1
        NumberOfLoops: -1
        LoopType: 1
        Direction: 0
        CustomPosition: {x: 0, y: 0, z: 0}
        EaseType: 0
        Ease: 1
        AnimationCurve:
          serializedVersion: 2
          m_Curve: []
          m_PreInfinity: 2
          m_PostInfinity: 2
          m_RotationOrder: 4
        StartDelay: 0
        Duration: 1
      Rotate:
        AnimationType: 3
        Enabled: 0
        From: {x: 0, y: 0, z: 0}
        To: {x: 0, y: 0, z: 0}
        By: {x: 0, y: 0, z: 0}
        UseCustomFromAndTo: 0
        Vibrato: 10
        Elasticity: 1
        NumberOfLoops: -1
        LoopType: 1
        RotateMode: 1
        EaseType: 0
        Ease: 1
        AnimationCurve:
          serializedVersion: 2
          m_Curve: []
          m_PreInfinity: 2
          m_PostInfinity: 2
          m_RotationOrder: 4
        StartDelay: 0
        Duration: 1
      Scale:
        AnimationType: 3
        Enabled: 0
        From: {x: 0, y: 0, z: 0}
        To: {x: 0, y: 0, z: 0}
        By: {x: 0, y: 0, z: 0}
        UseCustomFromAndTo: 0
        Vibrato: 10
        Elasticity: 1
        NumberOfLoops: -1
        LoopType: 1
        EaseType: 0
        Ease: 1
        AnimationCurve:
          serializedVersion: 2
          m_Curve: []
          m_PreInfinity: 2
          m_PostInfinity: 2
          m_RotationOrder: 4
        StartDelay: 0
        Duration: 1
      Fade:
        AnimationType: 3
        Enabled: 0
        From: 0
        To: 0
        By: 0.5
        UseCustomFromAndTo: 0
        NumberOfLoops: -1
        LoopType: 1
        EaseType: 0
        Ease: 1
        AnimationCurve:
          serializedVersion: 2
          m_Curve: []
          m_PreInfinity: 2
          m_PostInfinity: 2
          m_RotationOrder: 4
        StartDelay: 0
        Duration: 1
    AutoStartLoopAnimation: 1
    LoadSelectedPresetAtRuntime: 0
    InstantAnimation: 0
    OnFinished:
      AnimatorEvents: []
      Effect:
        AutoSort: 1
        Behavior: 0
        CustomSortingOrder: 0
        SortingSteps: 1
        ParticleSystem: {fileID: 0}
        StopBehavior: 1
        CustomSortingLayer: Default
      Event:
        m_PersistentCalls:
          m_Calls: []
        m_TypeName: UnityEngine.Events.UnityEvent, UnityEngine.CoreModule, Version=0.0.0.0,
          Culture=neutral, PublicKeyToken=null
      GameEvents: []
      SoundData:
        SoundSource: 0
        DatabaseName: General
        SoundName: No Sound
        AudioClip: {fileID: 0}
        OutputAudioMixerGroup: {fileID: 0}
    OnStart:
      AnimatorEvents: []
      Effect:
        AutoSort: 1
        Behavior: 0
        CustomSortingOrder: 0
        SortingSteps: 1
        ParticleSystem: {fileID: 0}
        StopBehavior: 1
        CustomSortingLayer: Default
      Event:
        m_PersistentCalls:
          m_Calls: []
        m_TypeName: UnityEngine.Events.UnityEvent, UnityEngine.CoreModule, Version=0.0.0.0,
          Culture=neutral, PublicKeyToken=null
      GameEvents: []
      SoundData:
        SoundSource: 0
        DatabaseName: General
        SoundName: No Sound
        AudioClip: {fileID: 0}
        OutputAudioMixerGroup: {fileID: 0}
    PresetCategory: Uncategorized
    PresetName: Default
  OnInverseVisibilityChanged:
    m_PersistentCalls:
      m_Calls: []
    m_TypeName: Doozy.Engine.Progress.ProgressEvent, Assembly-CSharp, Version=0.0.0.0,
      Culture=neutral, PublicKeyToken=null
  OnVisibilityChanged:
    m_PersistentCalls:
      m_Calls: []
    m_TypeName: Doozy.Engine.Progress.ProgressEvent, Assembly-CSharp, Version=0.0.0.0,
      Culture=neutral, PublicKeyToken=null
  SelectedButton: {fileID: 0}
  ShowBehavior:
    Animation:
      AnimationType: 1
      Move:
        AnimationType: 1
        Enabled: 1
        From: {x: 0, y: 0, z: 0}
        To: {x: 0, y: 0, z: 0}
        By: {x: 0, y: 0, z: 0}
        UseCustomFromAndTo: 0
        Vibrato: 10
        Elasticity: 1
        NumberOfLoops: -1
        LoopType: 1
        Direction: 3
        CustomPosition: {x: 0, y: 0, z: 0}
        EaseType: 0
        Ease: 18
        AnimationCurve:
          serializedVersion: 2
          m_Curve: []
          m_PreInfinity: 2
          m_PostInfinity: 2
          m_RotationOrder: 4
        StartDelay: 0
        Duration: 0.6
      Rotate:
        AnimationType: 1
        Enabled: 0
        From: {x: 0, y: 0, z: 0}
        To: {x: 0, y: 0, z: 0}
        By: {x: 0, y: 0, z: 0}
        UseCustomFromAndTo: 0
        Vibrato: 10
        Elasticity: 1
        NumberOfLoops: -1
        LoopType: 1
        RotateMode: 1
        EaseType: 0
        Ease: 1
        AnimationCurve:
          serializedVersion: 2
          m_Curve: []
          m_PreInfinity: 2
          m_PostInfinity: 2
          m_RotationOrder: 4
        StartDelay: 0
        Duration: 1
      Scale:
        AnimationType: 1
        Enabled: 1
        From: {x: 1, y: 1, z: 0}
        To: {x: 0, y: 0, z: 0}
        By: {x: 0, y: 0, z: 0}
        UseCustomFromAndTo: 0
        Vibrato: 10
        Elasticity: 1
        NumberOfLoops: -1
        LoopType: 1
        EaseType: 0
        Ease: 1
        AnimationCurve:
          serializedVersion: 2
          m_Curve: []
          m_PreInfinity: 2
          m_PostInfinity: 2
          m_RotationOrder: 4
        StartDelay: 0
        Duration: 0.4
      Fade:
        AnimationType: 1
        Enabled: 1
        From: 0
        To: 0
        By: 0.5
        UseCustomFromAndTo: 0
        NumberOfLoops: -1
        LoopType: 1
        EaseType: 0
        Ease: 1
        AnimationCurve:
          serializedVersion: 2
          m_Curve: []
          m_PreInfinity: 2
          m_PostInfinity: 2
          m_RotationOrder: 4
        StartDelay: 0
        Duration: 0.2
    AutoStartLoopAnimation: 1
    LoadSelectedPresetAtRuntime: 0
    InstantAnimation: 0
    OnFinished:
      AnimatorEvents: []
      Effect:
        AutoSort: 1
        Behavior: 0
        CustomSortingOrder: 0
        SortingSteps: 1
        ParticleSystem: {fileID: 0}
        StopBehavior: 1
        CustomSortingLayer: Default
      Event:
        m_PersistentCalls:
          m_Calls: []
        m_TypeName: UnityEngine.Events.UnityEvent, UnityEngine.CoreModule, Version=0.0.0.0,
          Culture=neutral, PublicKeyToken=null
      GameEvents: []
      SoundData:
        SoundSource: 0
        DatabaseName: General
        SoundName: No Sound
        AudioClip: {fileID: 0}
        OutputAudioMixerGroup: {fileID: 0}
    OnStart:
      AnimatorEvents: []
      Effect:
        AutoSort: 1
        Behavior: 0
        CustomSortingOrder: 0
        SortingSteps: 1
        ParticleSystem: {fileID: 0}
        StopBehavior: 1
        CustomSortingLayer: Default
      Event:
        m_PersistentCalls:
          m_Calls: []
        m_TypeName: UnityEngine.Events.UnityEvent, UnityEngine.CoreModule, Version=0.0.0.0,
          Culture=neutral, PublicKeyToken=null
      GameEvents: []
      SoundData:
        SoundSource: 0
        DatabaseName: General
        SoundName: No Sound
        AudioClip: {fileID: 0}
        OutputAudioMixerGroup: {fileID: 0}
    PresetCategory: Uncategorized
    PresetName: Default
  ShowProgressor: {fileID: 0}
  TargetOrientation: 2
  UpdateHideProgressorOnShow: 1
  UpdateShowProgressorOnHide: 0
  UseCustomStartAnchoredPosition: 1
  ViewCategory: General
  ViewName: Unnamed
--- !u!95 &2258295886445447980
Animator:
  serializedVersion: 3
  m_ObjectHideFlags: 0
  m_CorrespondingSourceObject: {fileID: 0}
  m_PrefabInstance: {fileID: 0}
  m_PrefabAsset: {fileID: 0}
  m_GameObject: {fileID: 2258295886445447968}
  m_Enabled: 1
  m_Avatar: {fileID: 0}
  m_Controller: {fileID: 9100000, guid: 7da32bb3c8fe93d499141c8c34231cdc, type: 2}
  m_CullingMode: 0
  m_UpdateMode: 0
  m_ApplyRootMotion: 0
  m_LinearVelocityBlending: 0
  m_WarningMessage: 
  m_HasTransformHierarchy: 1
  m_AllowConstantClipSamplingOptimization: 1
  m_KeepAnimatorControllerStateOnDisable: 0
--- !u!114 &2258295886445447983
MonoBehaviour:
  m_ObjectHideFlags: 0
  m_CorrespondingSourceObject: {fileID: 0}
  m_PrefabInstance: {fileID: 0}
  m_PrefabAsset: {fileID: 0}
  m_GameObject: {fileID: 2258295886445447968}
  m_Enabled: 1
  m_EditorHideFlags: 0
  m_Script: {fileID: 11500000, guid: 779d2338e8d61bc4f9e65969cd74fb0f, type: 3}
  m_Name: 
  m_EditorClassIdentifier: 
  Animator: {fileID: 2258295886445447980}
  ParameterName: Progress
  TargetProgress: 0
--- !u!114 &2258295886445447982
MonoBehaviour:
  m_ObjectHideFlags: 0
  m_CorrespondingSourceObject: {fileID: 0}
  m_PrefabInstance: {fileID: 0}
  m_PrefabAsset: {fileID: 0}
  m_GameObject: {fileID: 2258295886445447968}
  m_Enabled: 1
  m_EditorHideFlags: 0
  m_Script: {fileID: 11500000, guid: 0dd4fcd1a439fed4084f8b519848b636, type: 3}
  m_Name: 
  m_EditorClassIdentifier: 
  DebugMode: 0
  ProgressTargets:
  - {fileID: 2258295886445447983}
  AnimateValue: 0
  AnimationDuration: 0.5
  AnimationEase: 1
  AnimationIgnoresUnityTimescale: 1
  OnEnableResetValue: 1
  OnDisableResetValue: 0
  CustomResetValue: 0
  OnValueChanged:
    m_PersistentCalls:
      m_Calls: []
    m_TypeName: Doozy.Engine.Progress.ProgressEvent, Assembly-CSharp, Version=0.0.0.0,
      Culture=neutral, PublicKeyToken=null
  OnProgressChanged:
    m_PersistentCalls:
      m_Calls: []
    m_TypeName: Doozy.Engine.Progress.ProgressEvent, Assembly-CSharp, Version=0.0.0.0,
      Culture=neutral, PublicKeyToken=null
  OnInverseProgressChanged:
    m_PersistentCalls:
      m_Calls: []
    m_TypeName: Doozy.Engine.Progress.ProgressEvent, Assembly-CSharp, Version=0.0.0.0,
      Culture=neutral, PublicKeyToken=null
  m_minValue: 0
  m_maxValue: 1
  m_wholeNumbers: 0
  m_currentValue: 0
--- !u!1 &4720628801366730201
GameObject:
  m_ObjectHideFlags: 0
  m_CorrespondingSourceObject: {fileID: 0}
  m_PrefabInstance: {fileID: 0}
  m_PrefabAsset: {fileID: 0}
  serializedVersion: 6
  m_Component:
  - component: {fileID: 4720628801366730200}
  - component: {fileID: 4720628801366730205}
  - component: {fileID: 4720628801366730206}
  - component: {fileID: 4720628801366730207}
  m_Layer: 0
  m_Name: Title
  m_TagString: Untagged
  m_Icon: {fileID: 0}
  m_NavMeshLayer: 0
  m_StaticEditorFlags: 0
  m_IsActive: 1
--- !u!224 &4720628801366730200
RectTransform:
  m_ObjectHideFlags: 0
  m_CorrespondingSourceObject: {fileID: 0}
  m_PrefabInstance: {fileID: 0}
  m_PrefabAsset: {fileID: 0}
  m_GameObject: {fileID: 4720628801366730201}
  m_LocalRotation: {x: -0, y: -0, z: -0, w: 1}
  m_LocalPosition: {x: 0, y: 0, z: 0}
  m_LocalScale: {x: 1, y: 1, z: 1}
  m_Children: []
  m_Father: {fileID: 8751897452103324836}
  m_RootOrder: 2
  m_LocalEulerAnglesHint: {x: 0, y: 0, z: 0}
  m_AnchorMin: {x: 0, y: 1}
  m_AnchorMax: {x: 1, y: 1}
  m_AnchoredPosition: {x: 0, y: -62}
  m_SizeDelta: {x: -124, y: 64}
  m_Pivot: {x: 0.5, y: 1}
--- !u!222 &4720628801366730205
CanvasRenderer:
  m_ObjectHideFlags: 0
  m_CorrespondingSourceObject: {fileID: 0}
  m_PrefabInstance: {fileID: 0}
  m_PrefabAsset: {fileID: 0}
  m_GameObject: {fileID: 4720628801366730201}
  m_CullTransparentMesh: 0
--- !u!114 &4720628801366730206
MonoBehaviour:
  m_ObjectHideFlags: 0
  m_CorrespondingSourceObject: {fileID: 0}
  m_PrefabInstance: {fileID: 0}
  m_PrefabAsset: {fileID: 0}
  m_GameObject: {fileID: 4720628801366730201}
  m_Enabled: 1
  m_EditorHideFlags: 0
  m_Script: {fileID: 11500000, guid: f4688fdb7df04437aeb418b961361dc5, type: 3}
  m_Name: 
  m_EditorClassIdentifier: 
  m_Material: {fileID: 0}
  m_Color: {r: 1, g: 1, b: 1, a: 1}
  m_RaycastTarget: 1
  m_OnCullStateChanged:
    m_PersistentCalls:
      m_Calls: []
    m_TypeName: UnityEngine.UI.MaskableGraphic+CullStateChangedEvent, UnityEngine.UI,
      Version=1.0.0.0, Culture=neutral, PublicKeyToken=null
  m_text: Night Mode
  m_isRightToLeft: 0
  m_fontAsset: {fileID: 11400000, guid: 643aebd7124d3c34bb062c5a60ebb5a8, type: 2}
  m_sharedMaterial: {fileID: 4835089367266696174, guid: 643aebd7124d3c34bb062c5a60ebb5a8,
    type: 2}
  m_fontSharedMaterials: []
  m_fontMaterial: {fileID: 0}
  m_fontMaterials: []
  m_fontColor32:
    serializedVersion: 2
    rgba: 4293715424
  m_fontColor: {r: 0.8784314, g: 0.8980392, b: 0.9254902, a: 1}
  m_enableVertexGradient: 0
  m_colorMode: 3
  m_fontColorGradient:
    topLeft: {r: 1, g: 1, b: 1, a: 1}
    topRight: {r: 1, g: 1, b: 1, a: 1}
    bottomLeft: {r: 1, g: 1, b: 1, a: 1}
    bottomRight: {r: 1, g: 1, b: 1, a: 1}
  m_fontColorGradientPreset: {fileID: 0}
  m_spriteAsset: {fileID: 0}
  m_tintAllSprites: 0
  m_overrideHtmlColors: 0
  m_faceColor:
    serializedVersion: 2
    rgba: 4294967295
  m_outlineColor:
    serializedVersion: 2
    rgba: 4278190080
  m_fontSize: 42
  m_fontSizeBase: 36
  m_fontWeight: 400
  m_enableAutoSizing: 1
  m_fontSizeMin: 18
  m_fontSizeMax: 42
  m_fontStyle: 0
  m_textAlignment: 514
  m_characterSpacing: 0
  m_wordSpacing: 0
  m_lineSpacing: 0
  m_lineSpacingMax: 0
  m_paragraphSpacing: 0
  m_charWidthMaxAdj: 0
  m_enableWordWrapping: 1
  m_wordWrappingRatios: 0.4
  m_overflowMode: 0
  m_firstOverflowCharacterIndex: -1
  m_linkedTextComponent: {fileID: 0}
  m_isLinkedTextComponent: 0
  m_isTextTruncated: 0
  m_enableKerning: 1
  m_enableExtraPadding: 0
  checkPaddingRequired: 0
  m_isRichText: 1
  m_parseCtrlCharacters: 1
  m_isOrthographic: 1
  m_isCullingEnabled: 0
  m_ignoreRectMaskCulling: 0
  m_ignoreCulling: 1
  m_horizontalMapping: 0
  m_verticalMapping: 0
  m_uvLineOffset: 0
  m_geometrySortingOrder: 0
  m_VertexBufferAutoSizeReduction: 1
  m_firstVisibleCharacter: 0
  m_useMaxVisibleDescender: 1
  m_pageToDisplay: 1
  m_margin: {x: 0, y: 0, z: 0, w: 0}
  m_textInfo:
    textComponent: {fileID: 4720628801366730206}
    characterCount: 10
    spriteCount: 0
    spaceCount: 1
    wordCount: 2
    linkCount: 0
    lineCount: 1
    pageCount: 1
    materialCount: 1
  m_isUsingLegacyAnimationComponent: 0
  m_isVolumetricText: 0
  m_spriteAnimator: {fileID: 0}
  m_hasFontAssetChanged: 0
  m_subTextObjects:
  - {fileID: 0}
  - {fileID: 0}
  - {fileID: 0}
  - {fileID: 0}
  - {fileID: 0}
  - {fileID: 0}
  - {fileID: 0}
  - {fileID: 0}
  m_baseMaterial: {fileID: 0}
  m_maskOffset: {x: 0, y: 0, z: 0, w: 0}
--- !u!114 &4720628801366730207
MonoBehaviour:
  m_ObjectHideFlags: 0
  m_CorrespondingSourceObject: {fileID: 0}
  m_PrefabInstance: {fileID: 0}
  m_PrefabAsset: {fileID: 0}
  m_GameObject: {fileID: 4720628801366730201}
  m_Enabled: 1
  m_EditorHideFlags: 0
  m_Script: {fileID: 11500000, guid: 8f34e6c94be345baaafed933eb7531ca, type: 3}
  m_Name: 
  m_EditorClassIdentifier: 
  ThemeIdSerializedGuid: 4970eed67e2b864e9e16a851bb1066cb
  VariantIdSerializedGuid: 
  PropertyIdSerializedGuid: b877d9291556af45abccf231c9d58bb9
  TextMeshPro: {fileID: 4720628801366730206}
  OverrideAlpha: 0
  Alpha: 0
--- !u!1 &4720628801467733337
GameObject:
  m_ObjectHideFlags: 0
  m_CorrespondingSourceObject: {fileID: 0}
  m_PrefabInstance: {fileID: 0}
  m_PrefabAsset: {fileID: 0}
  serializedVersion: 6
  m_Component:
  - component: {fileID: 4720628801467733336}
  m_Layer: 0
  m_Name: Bottom
  m_TagString: Untagged
  m_Icon: {fileID: 0}
  m_NavMeshLayer: 0
  m_StaticEditorFlags: 0
  m_IsActive: 1
--- !u!224 &4720628801467733336
RectTransform:
  m_ObjectHideFlags: 0
  m_CorrespondingSourceObject: {fileID: 0}
  m_PrefabInstance: {fileID: 0}
  m_PrefabAsset: {fileID: 0}
  m_GameObject: {fileID: 4720628801467733337}
  m_LocalRotation: {x: 0, y: 0, z: 0, w: 1}
  m_LocalPosition: {x: 0, y: 0, z: 0}
  m_LocalScale: {x: 1, y: 1, z: 1}
  m_Children:
  - {fileID: 8757826841303178993}
  - {fileID: 5089406913143280083}
  m_Father: {fileID: 4720628802006002125}
  m_RootOrder: 0
  m_LocalEulerAnglesHint: {x: 0, y: 0, z: 0}
  m_AnchorMin: {x: 0.5, y: 0}
  m_AnchorMax: {x: 0.5, y: 0}
  m_AnchoredPosition: {x: 0, y: 24}
  m_SizeDelta: {x: 192, y: 224}
  m_Pivot: {x: 0.5, y: 0}
--- !u!1 &4720628801724073026
GameObject:
  m_ObjectHideFlags: 0
  m_CorrespondingSourceObject: {fileID: 0}
  m_PrefabInstance: {fileID: 0}
  m_PrefabAsset: {fileID: 0}
  serializedVersion: 6
  m_Component:
  - component: {fileID: 4720628801724073025}
  - component: {fileID: 4720628801724073030}
  - component: {fileID: 4720628801724073031}
  - component: {fileID: 4720628801724073024}
  m_Layer: 0
  m_Name: Subtitle
  m_TagString: Untagged
  m_Icon: {fileID: 0}
  m_NavMeshLayer: 0
  m_StaticEditorFlags: 0
  m_IsActive: 1
--- !u!224 &4720628801724073025
RectTransform:
  m_ObjectHideFlags: 0
  m_CorrespondingSourceObject: {fileID: 0}
  m_PrefabInstance: {fileID: 0}
  m_PrefabAsset: {fileID: 0}
  m_GameObject: {fileID: 4720628801724073026}
  m_LocalRotation: {x: -0, y: -0, z: -0, w: 1}
  m_LocalPosition: {x: 0, y: 0, z: 0}
  m_LocalScale: {x: 1, y: 1, z: 1}
  m_Children: []
  m_Father: {fileID: 8751897452103324836}
  m_RootOrder: 3
  m_LocalEulerAnglesHint: {x: 0, y: 0, z: 0}
  m_AnchorMin: {x: 0, y: 1}
  m_AnchorMax: {x: 1, y: 1}
  m_AnchoredPosition: {x: 0, y: -142}
  m_SizeDelta: {x: -124, y: 128}
  m_Pivot: {x: 0.5, y: 1}
--- !u!222 &4720628801724073030
CanvasRenderer:
  m_ObjectHideFlags: 0
  m_CorrespondingSourceObject: {fileID: 0}
  m_PrefabInstance: {fileID: 0}
  m_PrefabAsset: {fileID: 0}
  m_GameObject: {fileID: 4720628801724073026}
  m_CullTransparentMesh: 0
--- !u!114 &4720628801724073031
MonoBehaviour:
  m_ObjectHideFlags: 0
  m_CorrespondingSourceObject: {fileID: 0}
  m_PrefabInstance: {fileID: 0}
  m_PrefabAsset: {fileID: 0}
  m_GameObject: {fileID: 4720628801724073026}
  m_Enabled: 1
  m_EditorHideFlags: 0
  m_Script: {fileID: 11500000, guid: f4688fdb7df04437aeb418b961361dc5, type: 3}
  m_Name: 
  m_EditorClassIdentifier: 
  m_Material: {fileID: 0}
  m_Color: {r: 1, g: 1, b: 1, a: 1}
  m_RaycastTarget: 1
  m_OnCullStateChanged:
    m_PersistentCalls:
      m_Calls: []
    m_TypeName: UnityEngine.UI.MaskableGraphic+CullStateChangedEvent, UnityEngine.UI,
      Version=1.0.0.0, Culture=neutral, PublicKeyToken=null
  m_text: Fusce aliquam diam ut felis lobortis rutrum.
  m_isRightToLeft: 0
  m_fontAsset: {fileID: 11400000, guid: 643aebd7124d3c34bb062c5a60ebb5a8, type: 2}
  m_sharedMaterial: {fileID: 4835089367266696174, guid: 643aebd7124d3c34bb062c5a60ebb5a8,
    type: 2}
  m_fontSharedMaterials: []
  m_fontMaterial: {fileID: 0}
  m_fontMaterials: []
  m_fontColor32:
    serializedVersion: 2
    rgba: 4293715424
  m_fontColor: {r: 0.8784314, g: 0.8980392, b: 0.9254902, a: 1}
  m_enableVertexGradient: 0
  m_colorMode: 3
  m_fontColorGradient:
    topLeft: {r: 1, g: 1, b: 1, a: 1}
    topRight: {r: 1, g: 1, b: 1, a: 1}
    bottomLeft: {r: 1, g: 1, b: 1, a: 1}
    bottomRight: {r: 1, g: 1, b: 1, a: 1}
  m_fontColorGradientPreset: {fileID: 0}
  m_spriteAsset: {fileID: 0}
  m_tintAllSprites: 0
  m_overrideHtmlColors: 0
  m_faceColor:
    serializedVersion: 2
    rgba: 4294967295
  m_outlineColor:
    serializedVersion: 2
    rgba: 4278190080
  m_fontSize: 20
  m_fontSizeBase: 36
  m_fontWeight: 400
  m_enableAutoSizing: 1
  m_fontSizeMin: 18
  m_fontSizeMax: 20
  m_fontStyle: 0
  m_textAlignment: 257
  m_characterSpacing: 0
  m_wordSpacing: 0
  m_lineSpacing: 0
  m_lineSpacingMax: 0
  m_paragraphSpacing: 0
  m_charWidthMaxAdj: 0
  m_enableWordWrapping: 1
  m_wordWrappingRatios: 0.4
  m_overflowMode: 0
  m_firstOverflowCharacterIndex: -1
  m_linkedTextComponent: {fileID: 0}
  m_isLinkedTextComponent: 0
  m_isTextTruncated: 0
  m_enableKerning: 1
  m_enableExtraPadding: 0
  checkPaddingRequired: 0
  m_isRichText: 1
  m_parseCtrlCharacters: 1
  m_isOrthographic: 1
  m_isCullingEnabled: 0
  m_ignoreRectMaskCulling: 0
  m_ignoreCulling: 1
  m_horizontalMapping: 0
  m_verticalMapping: 0
  m_uvLineOffset: 0
  m_geometrySortingOrder: 0
  m_VertexBufferAutoSizeReduction: 1
  m_firstVisibleCharacter: 0
  m_useMaxVisibleDescender: 1
  m_pageToDisplay: 1
  m_margin: {x: 0, y: 0, z: 0, w: 0}
  m_textInfo:
    textComponent: {fileID: 4720628801724073031}
    characterCount: 44
    spriteCount: 0
    spaceCount: 6
    wordCount: 7
    linkCount: 0
    lineCount: 1
    pageCount: 1
    materialCount: 1
  m_isUsingLegacyAnimationComponent: 0
  m_isVolumetricText: 0
  m_spriteAnimator: {fileID: 0}
  m_hasFontAssetChanged: 0
  m_subTextObjects:
  - {fileID: 0}
  - {fileID: 0}
  - {fileID: 0}
  - {fileID: 0}
  - {fileID: 0}
  - {fileID: 0}
  - {fileID: 0}
  - {fileID: 0}
  m_baseMaterial: {fileID: 0}
  m_maskOffset: {x: 0, y: 0, z: 0, w: 0}
--- !u!114 &4720628801724073024
MonoBehaviour:
  m_ObjectHideFlags: 0
  m_CorrespondingSourceObject: {fileID: 0}
  m_PrefabInstance: {fileID: 0}
  m_PrefabAsset: {fileID: 0}
  m_GameObject: {fileID: 4720628801724073026}
  m_Enabled: 1
  m_EditorHideFlags: 0
  m_Script: {fileID: 11500000, guid: 8f34e6c94be345baaafed933eb7531ca, type: 3}
  m_Name: 
  m_EditorClassIdentifier: 
  ThemeIdSerializedGuid: 4970eed67e2b864e9e16a851bb1066cb
  VariantIdSerializedGuid: 
  PropertyIdSerializedGuid: b877d9291556af45abccf231c9d58bb9
  TextMeshPro: {fileID: 4720628801724073031}
  OverrideAlpha: 0
  Alpha: 0
--- !u!1 &4720628802006002126
GameObject:
  m_ObjectHideFlags: 0
  m_CorrespondingSourceObject: {fileID: 0}
  m_PrefabInstance: {fileID: 0}
  m_PrefabAsset: {fileID: 0}
  serializedVersion: 6
  m_Component:
  - component: {fileID: 4720628802006002125}
  m_Layer: 0
  m_Name: Buttons
  m_TagString: Untagged
  m_Icon: {fileID: 0}
  m_NavMeshLayer: 0
  m_StaticEditorFlags: 0
  m_IsActive: 1
--- !u!224 &4720628802006002125
RectTransform:
  m_ObjectHideFlags: 0
  m_CorrespondingSourceObject: {fileID: 0}
  m_PrefabInstance: {fileID: 0}
  m_PrefabAsset: {fileID: 0}
  m_GameObject: {fileID: 4720628802006002126}
  m_LocalRotation: {x: -0, y: -0, z: -0, w: 1}
  m_LocalPosition: {x: 0, y: 0, z: 0}
  m_LocalScale: {x: 1, y: 1, z: 1}
  m_Children:
  - {fileID: 4720628801467733336}
  m_Father: {fileID: 8751897452103324836}
  m_RootOrder: 4
  m_LocalEulerAnglesHint: {x: 0, y: 0, z: 0}
  m_AnchorMin: {x: 0, y: 0}
  m_AnchorMax: {x: 1, y: 1}
  m_AnchoredPosition: {x: 0, y: 0}
  m_SizeDelta: {x: 4, y: 4}
  m_Pivot: {x: 0.5, y: 0.5}
--- !u!1 &4764006787283794040
GameObject:
  m_ObjectHideFlags: 0
  m_CorrespondingSourceObject: {fileID: 0}
  m_PrefabInstance: {fileID: 0}
  m_PrefabAsset: {fileID: 0}
  serializedVersion: 6
  m_Component:
  - component: {fileID: 7365318973216392646}
  - component: {fileID: 5888274316375092976}
  - component: {fileID: 9057147680020363548}
  - component: {fileID: 5793798851643026756}
  m_Layer: 0
  m_Name: Gradient
  m_TagString: Untagged
  m_Icon: {fileID: 0}
  m_NavMeshLayer: 0
  m_StaticEditorFlags: 0
  m_IsActive: 1
--- !u!224 &7365318973216392646
RectTransform:
  m_ObjectHideFlags: 0
  m_CorrespondingSourceObject: {fileID: 0}
  m_PrefabInstance: {fileID: 0}
  m_PrefabAsset: {fileID: 0}
  m_GameObject: {fileID: 4764006787283794040}
  m_LocalRotation: {x: -0, y: -0, z: -0, w: 1}
  m_LocalPosition: {x: 0, y: 0, z: 0}
  m_LocalScale: {x: 1, y: 1, z: 1}
  m_Children: []
  m_Father: {fileID: 985552914913244886}
  m_RootOrder: 0
  m_LocalEulerAnglesHint: {x: 0, y: 0, z: 0}
  m_AnchorMin: {x: 0, y: 0}
  m_AnchorMax: {x: 1, y: 0}
  m_AnchoredPosition: {x: 0, y: 238}
  m_SizeDelta: {x: 0, y: 64}
  m_Pivot: {x: 0.5, y: 0}
--- !u!222 &5888274316375092976
CanvasRenderer:
  m_ObjectHideFlags: 0
  m_CorrespondingSourceObject: {fileID: 0}
  m_PrefabInstance: {fileID: 0}
  m_PrefabAsset: {fileID: 0}
  m_GameObject: {fileID: 4764006787283794040}
  m_CullTransparentMesh: 0
--- !u!114 &9057147680020363548
MonoBehaviour:
  m_ObjectHideFlags: 0
  m_CorrespondingSourceObject: {fileID: 0}
  m_PrefabInstance: {fileID: 0}
  m_PrefabAsset: {fileID: 0}
  m_GameObject: {fileID: 4764006787283794040}
  m_Enabled: 1
  m_EditorHideFlags: 0
  m_Script: {fileID: -765806418, guid: f70555f144d8491a825f0804e09c671c, type: 3}
  m_Name: 
  m_EditorClassIdentifier: 
  m_Material: {fileID: 0}
  m_Color: {r: 0.8784314, g: 0.8980392, b: 0.9254902, a: 1}
  m_RaycastTarget: 1
  m_OnCullStateChanged:
    m_PersistentCalls:
      m_Calls: []
    m_TypeName: UnityEngine.UI.MaskableGraphic+CullStateChangedEvent, UnityEngine.UI,
      Version=1.0.0.0, Culture=neutral, PublicKeyToken=null
  m_Sprite: {fileID: 21300000, guid: 6a80d768cc1bc364c925a28b76706d72, type: 3}
  m_Type: 0
  m_PreserveAspect: 0
  m_FillCenter: 1
  m_FillMethod: 4
  m_FillAmount: 1
  m_FillClockwise: 1
  m_FillOrigin: 0
  m_UseSpriteMesh: 0
--- !u!114 &5793798851643026756
MonoBehaviour:
  m_ObjectHideFlags: 0
  m_CorrespondingSourceObject: {fileID: 0}
  m_PrefabInstance: {fileID: 0}
  m_PrefabAsset: {fileID: 0}
  m_GameObject: {fileID: 4764006787283794040}
  m_Enabled: 1
  m_EditorHideFlags: 0
  m_Script: {fileID: 11500000, guid: 54cf8c4b916540e6abe8991db870c45f, type: 3}
  m_Name: 
  m_EditorClassIdentifier: 
  ThemeIdSerializedGuid: 4970eed67e2b864e9e16a851bb1066cb
  VariantIdSerializedGuid: 
  PropertyIdSerializedGuid: b877d9291556af45abccf231c9d58bb9
  Image: {fileID: 9057147680020363548}
  OverrideAlpha: 0
  Alpha: 0
--- !u!1 &6193773918050029735
GameObject:
  m_ObjectHideFlags: 0
  m_CorrespondingSourceObject: {fileID: 0}
  m_PrefabInstance: {fileID: 0}
  m_PrefabAsset: {fileID: 0}
  serializedVersion: 6
  m_Component:
  - component: {fileID: 8751897452103324836}
  m_Layer: 0
  m_Name: Content
  m_TagString: Untagged
  m_Icon: {fileID: 0}
  m_NavMeshLayer: 0
  m_StaticEditorFlags: 0
  m_IsActive: 1
--- !u!224 &8751897452103324836
RectTransform:
  m_ObjectHideFlags: 0
  m_CorrespondingSourceObject: {fileID: 0}
  m_PrefabInstance: {fileID: 0}
  m_PrefabAsset: {fileID: 0}
  m_GameObject: {fileID: 6193773918050029735}
  m_LocalRotation: {x: 0, y: 0, z: 0, w: 1}
  m_LocalPosition: {x: 0, y: 0, z: 0}
  m_LocalScale: {x: 1, y: 1, z: 1}
  m_Children:
  - {fileID: 4502171318163780599}
  - {fileID: 985552914913244886}
  - {fileID: 4720628801366730200}
  - {fileID: 4720628801724073025}
  - {fileID: 4720628802006002125}
  m_Father: {fileID: 8121596309977642838}
  m_RootOrder: 0
  m_LocalEulerAnglesHint: {x: 0, y: 0, z: 0}
  m_AnchorMin: {x: 0, y: 0}
  m_AnchorMax: {x: 1, y: 1}
  m_AnchoredPosition: {x: 0, y: 0}
  m_SizeDelta: {x: 0, y: 0}
  m_Pivot: {x: 0.5, y: 0.5}
--- !u!1 &7380596599089106650
GameObject:
  m_ObjectHideFlags: 0
  m_CorrespondingSourceObject: {fileID: 0}
  m_PrefabInstance: {fileID: 0}
  m_PrefabAsset: {fileID: 0}
  serializedVersion: 6
  m_Component:
  - component: {fileID: 5959316615575684605}
  - component: {fileID: 6388766727183845491}
  m_Layer: 0
  m_Name: Card - Rounded - 512x512 Out - Image
  m_TagString: Untagged
  m_Icon: {fileID: 0}
  m_NavMeshLayer: 0
  m_StaticEditorFlags: 0
  m_IsActive: 1
--- !u!224 &5959316615575684605
RectTransform:
  m_ObjectHideFlags: 0
  m_CorrespondingSourceObject: {fileID: 0}
  m_PrefabInstance: {fileID: 0}
  m_PrefabAsset: {fileID: 0}
  m_GameObject: {fileID: 7380596599089106650}
  m_LocalRotation: {x: -0, y: -0, z: -0, w: 1}
  m_LocalPosition: {x: 0, y: 0, z: 0}
  m_LocalScale: {x: 1, y: 1, z: 1}
  m_Children:
  - {fileID: 7985302980820170662}
  - {fileID: 7446556292153170028}
  - {fileID: 661089654401771161}
  - {fileID: 8121596309977642838}
  - {fileID: 3347537823964000251}
  m_Father: {fileID: 2258295886445447969}
  m_RootOrder: 0
  m_LocalEulerAnglesHint: {x: 0, y: 0, z: 0}
  m_AnchorMin: {x: 0.5, y: 0.5}
  m_AnchorMax: {x: 0.5, y: 0.5}
  m_AnchoredPosition: {x: 0, y: 0}
  m_SizeDelta: {x: 512, y: 512}
  m_Pivot: {x: 0.5, y: 0.5}
--- !u!114 &6388766727183845491
MonoBehaviour:
  m_ObjectHideFlags: 0
  m_CorrespondingSourceObject: {fileID: 0}
  m_PrefabInstance: {fileID: 0}
  m_PrefabAsset: {fileID: 0}
  m_GameObject: {fileID: 7380596599089106650}
  m_Enabled: 1
  m_EditorHideFlags: 0
  m_Script: {fileID: 1679637790, guid: f70555f144d8491a825f0804e09c671c, type: 3}
  m_Name: 
  m_EditorClassIdentifier: 
  m_IgnoreLayout: 0
  m_MinWidth: 512
  m_MinHeight: 512
  m_PreferredWidth: 512
  m_PreferredHeight: 512
  m_FlexibleWidth: 1
  m_FlexibleHeight: 1
  m_LayoutPriority: 1
--- !u!1 &8193440979477274705
GameObject:
  m_ObjectHideFlags: 0
  m_CorrespondingSourceObject: {fileID: 0}
  m_PrefabInstance: {fileID: 0}
  m_PrefabAsset: {fileID: 0}
  serializedVersion: 6
  m_Component:
  - component: {fileID: 7985302980820170662}
  - component: {fileID: 2144608989960728413}
  - component: {fileID: 7019555733296221932}
  - component: {fileID: 612982227954482371}
  m_Layer: 0
  m_Name: Light - Shadow - Out
  m_TagString: Untagged
  m_Icon: {fileID: 0}
  m_NavMeshLayer: 0
  m_StaticEditorFlags: 0
  m_IsActive: 1
--- !u!224 &7985302980820170662
RectTransform:
  m_ObjectHideFlags: 0
  m_CorrespondingSourceObject: {fileID: 0}
  m_PrefabInstance: {fileID: 0}
  m_PrefabAsset: {fileID: 0}
  m_GameObject: {fileID: 8193440979477274705}
  m_LocalRotation: {x: 0, y: 0, z: 0, w: 1}
  m_LocalPosition: {x: 0, y: 0, z: 0}
  m_LocalScale: {x: 1, y: 1, z: 1}
  m_Children: []
  m_Father: {fileID: 5959316615575684605}
  m_RootOrder: 0
  m_LocalEulerAnglesHint: {x: 0, y: 0, z: 0}
  m_AnchorMin: {x: 0, y: 0}
  m_AnchorMax: {x: 1, y: 1}
  m_AnchoredPosition: {x: -8, y: 8}
  m_SizeDelta: {x: 16, y: 16}
  m_Pivot: {x: 0.5, y: 0.5}
--- !u!222 &2144608989960728413
CanvasRenderer:
  m_ObjectHideFlags: 0
  m_CorrespondingSourceObject: {fileID: 0}
  m_PrefabInstance: {fileID: 0}
  m_PrefabAsset: {fileID: 0}
  m_GameObject: {fileID: 8193440979477274705}
  m_CullTransparentMesh: 0
--- !u!114 &7019555733296221932
MonoBehaviour:
  m_ObjectHideFlags: 0
  m_CorrespondingSourceObject: {fileID: 0}
  m_PrefabInstance: {fileID: 0}
  m_PrefabAsset: {fileID: 0}
  m_GameObject: {fileID: 8193440979477274705}
  m_Enabled: 1
  m_EditorHideFlags: 0
  m_Script: {fileID: -765806418, guid: f70555f144d8491a825f0804e09c671c, type: 3}
  m_Name: 
  m_EditorClassIdentifier: 
  m_Material: {fileID: 0}
  m_Color: {r: 1, g: 1, b: 1, a: 0.8}
  m_RaycastTarget: 1
  m_OnCullStateChanged:
    m_PersistentCalls:
      m_Calls: []
    m_TypeName: UnityEngine.UI.MaskableGraphic+CullStateChangedEvent, UnityEngine.UI,
      Version=1.0.0.0, Culture=neutral, PublicKeyToken=null
  m_Sprite: {fileID: 21300000, guid: cd364e108c91e144ab6b02b3e8dd2102, type: 3}
  m_Type: 1
  m_PreserveAspect: 0
  m_FillCenter: 1
  m_FillMethod: 4
  m_FillAmount: 1
  m_FillClockwise: 1
  m_FillOrigin: 0
  m_UseSpriteMesh: 0
--- !u!114 &612982227954482371
MonoBehaviour:
  m_ObjectHideFlags: 0
  m_CorrespondingSourceObject: {fileID: 0}
  m_PrefabInstance: {fileID: 0}
  m_PrefabAsset: {fileID: 0}
  m_GameObject: {fileID: 8193440979477274705}
  m_Enabled: 1
  m_EditorHideFlags: 0
  m_Script: {fileID: 11500000, guid: 54cf8c4b916540e6abe8991db870c45f, type: 3}
  m_Name: 
  m_EditorClassIdentifier: 
  ThemeIdSerializedGuid: 4970eed67e2b864e9e16a851bb1066cb
  VariantIdSerializedGuid: 
  PropertyIdSerializedGuid: b93618c3687bd341b73d188a35bb2704
  Image: {fileID: 7019555733296221932}
  OverrideAlpha: 1
  Alpha: 0.8
--- !u!1001 &2746080231213925729
PrefabInstance:
  m_ObjectHideFlags: 0
  serializedVersion: 2
  m_Modification:
    m_TransformParent: {fileID: 5959316615575684605}
    m_Modifications:
    - target: {fileID: 8739334470542043734, guid: b3625555cd6713b48a0f317c09fbc5e5,
        type: 3}
      propertyPath: m_Name
      value: Button - B - 64x64 - Circle - Icon - Back
      objectReference: {fileID: 0}
    - target: {fileID: 3400394613292737528, guid: b3625555cd6713b48a0f317c09fbc5e5,
        type: 3}
      propertyPath: m_LocalPosition.x
      value: 0
      objectReference: {fileID: 0}
    - target: {fileID: 3400394613292737528, guid: b3625555cd6713b48a0f317c09fbc5e5,
        type: 3}
      propertyPath: m_LocalPosition.y
      value: 0
      objectReference: {fileID: 0}
    - target: {fileID: 3400394613292737528, guid: b3625555cd6713b48a0f317c09fbc5e5,
        type: 3}
      propertyPath: m_LocalPosition.z
      value: 0
      objectReference: {fileID: 0}
    - target: {fileID: 3400394613292737528, guid: b3625555cd6713b48a0f317c09fbc5e5,
        type: 3}
      propertyPath: m_LocalRotation.x
      value: 0
      objectReference: {fileID: 0}
    - target: {fileID: 3400394613292737528, guid: b3625555cd6713b48a0f317c09fbc5e5,
        type: 3}
      propertyPath: m_LocalRotation.y
      value: 0
      objectReference: {fileID: 0}
    - target: {fileID: 3400394613292737528, guid: b3625555cd6713b48a0f317c09fbc5e5,
        type: 3}
      propertyPath: m_LocalRotation.z
      value: 0
      objectReference: {fileID: 0}
    - target: {fileID: 3400394613292737528, guid: b3625555cd6713b48a0f317c09fbc5e5,
        type: 3}
      propertyPath: m_LocalRotation.w
      value: 1
      objectReference: {fileID: 0}
    - target: {fileID: 3400394613292737528, guid: b3625555cd6713b48a0f317c09fbc5e5,
        type: 3}
      propertyPath: m_RootOrder
      value: 2
      objectReference: {fileID: 0}
    - target: {fileID: 3400394613292737528, guid: b3625555cd6713b48a0f317c09fbc5e5,
        type: 3}
      propertyPath: m_LocalEulerAnglesHint.x
      value: 0
      objectReference: {fileID: 0}
    - target: {fileID: 3400394613292737528, guid: b3625555cd6713b48a0f317c09fbc5e5,
        type: 3}
      propertyPath: m_LocalEulerAnglesHint.y
      value: 0
      objectReference: {fileID: 0}
    - target: {fileID: 3400394613292737528, guid: b3625555cd6713b48a0f317c09fbc5e5,
        type: 3}
      propertyPath: m_LocalEulerAnglesHint.z
      value: 0
      objectReference: {fileID: 0}
    - target: {fileID: 3400394613292737528, guid: b3625555cd6713b48a0f317c09fbc5e5,
        type: 3}
      propertyPath: m_AnchoredPosition.x
      value: 0
      objectReference: {fileID: 0}
    - target: {fileID: 3400394613292737528, guid: b3625555cd6713b48a0f317c09fbc5e5,
        type: 3}
      propertyPath: m_AnchoredPosition.y
      value: 320
      objectReference: {fileID: 0}
    - target: {fileID: 3400394613292737528, guid: b3625555cd6713b48a0f317c09fbc5e5,
        type: 3}
      propertyPath: m_SizeDelta.x
      value: 64
      objectReference: {fileID: 0}
    - target: {fileID: 3400394613292737528, guid: b3625555cd6713b48a0f317c09fbc5e5,
        type: 3}
      propertyPath: m_SizeDelta.y
      value: 64
      objectReference: {fileID: 0}
    - target: {fileID: 3400394613292737528, guid: b3625555cd6713b48a0f317c09fbc5e5,
        type: 3}
      propertyPath: m_AnchorMin.x
      value: 0.5
      objectReference: {fileID: 0}
    - target: {fileID: 3400394613292737528, guid: b3625555cd6713b48a0f317c09fbc5e5,
        type: 3}
      propertyPath: m_AnchorMin.y
      value: 0.5
      objectReference: {fileID: 0}
    - target: {fileID: 3400394613292737528, guid: b3625555cd6713b48a0f317c09fbc5e5,
        type: 3}
      propertyPath: m_AnchorMax.x
      value: 0.5
      objectReference: {fileID: 0}
    - target: {fileID: 3400394613292737528, guid: b3625555cd6713b48a0f317c09fbc5e5,
        type: 3}
      propertyPath: m_AnchorMax.y
      value: 0.5
      objectReference: {fileID: 0}
    - target: {fileID: 3400394613292737528, guid: b3625555cd6713b48a0f317c09fbc5e5,
        type: 3}
      propertyPath: m_Pivot.x
      value: 0.5
      objectReference: {fileID: 0}
    - target: {fileID: 3400394613292737528, guid: b3625555cd6713b48a0f317c09fbc5e5,
        type: 3}
      propertyPath: m_Pivot.y
      value: 0.5
      objectReference: {fileID: 0}
    - target: {fileID: 6389300844827675994, guid: b3625555cd6713b48a0f317c09fbc5e5,
        type: 3}
      propertyPath: m_Color.r
      value: 0.8784314
      objectReference: {fileID: 0}
    - target: {fileID: 6389300844827675994, guid: b3625555cd6713b48a0f317c09fbc5e5,
        type: 3}
      propertyPath: m_Color.g
      value: 0.8980392
      objectReference: {fileID: 0}
    - target: {fileID: 6389300844827675994, guid: b3625555cd6713b48a0f317c09fbc5e5,
        type: 3}
      propertyPath: m_Color.b
      value: 0.9254902
      objectReference: {fileID: 0}
    - target: {fileID: 573153728350990532, guid: b3625555cd6713b48a0f317c09fbc5e5,
        type: 3}
      propertyPath: m_fontColor.r
      value: 0.5137255
      objectReference: {fileID: 0}
    - target: {fileID: 573153728350990532, guid: b3625555cd6713b48a0f317c09fbc5e5,
        type: 3}
      propertyPath: m_fontColor.g
      value: 0.5568628
      objectReference: {fileID: 0}
    - target: {fileID: 573153728350990532, guid: b3625555cd6713b48a0f317c09fbc5e5,
        type: 3}
      propertyPath: m_fontColor.b
      value: 0.62352943
      objectReference: {fileID: 0}
    - target: {fileID: 4242053325618543456, guid: b3625555cd6713b48a0f317c09fbc5e5,
        type: 3}
      propertyPath: m_Color.r
      value: 0.5137255
      objectReference: {fileID: 0}
    - target: {fileID: 4242053325618543456, guid: b3625555cd6713b48a0f317c09fbc5e5,
        type: 3}
      propertyPath: m_Color.g
      value: 0.5568628
      objectReference: {fileID: 0}
    - target: {fileID: 4242053325618543456, guid: b3625555cd6713b48a0f317c09fbc5e5,
        type: 3}
      propertyPath: m_Color.b
      value: 0.62352943
      objectReference: {fileID: 0}
    - target: {fileID: 7818425810627862815, guid: b3625555cd6713b48a0f317c09fbc5e5,
        type: 3}
      propertyPath: m_Color.r
      value: 1
      objectReference: {fileID: 0}
    - target: {fileID: 7818425810627862815, guid: b3625555cd6713b48a0f317c09fbc5e5,
        type: 3}
      propertyPath: m_Color.g
      value: 1
      objectReference: {fileID: 0}
    - target: {fileID: 7818425810627862815, guid: b3625555cd6713b48a0f317c09fbc5e5,
        type: 3}
      propertyPath: m_Color.b
      value: 1
      objectReference: {fileID: 0}
    - target: {fileID: 8588885629365056416, guid: b3625555cd6713b48a0f317c09fbc5e5,
        type: 3}
      propertyPath: m_Color.r
      value: 0.5137255
      objectReference: {fileID: 0}
    - target: {fileID: 8588885629365056416, guid: b3625555cd6713b48a0f317c09fbc5e5,
        type: 3}
      propertyPath: m_Color.g
      value: 0.5568628
      objectReference: {fileID: 0}
    - target: {fileID: 8588885629365056416, guid: b3625555cd6713b48a0f317c09fbc5e5,
        type: 3}
      propertyPath: m_Color.b
      value: 0.62352943
      objectReference: {fileID: 0}
    - target: {fileID: 8588885629365056416, guid: b3625555cd6713b48a0f317c09fbc5e5,
        type: 3}
      propertyPath: m_Sprite
      value: 
      objectReference: {fileID: 21300000, guid: 3c92afcb6f63fde4f9a695d105851d4a,
        type: 3}
    - target: {fileID: 4679025232051195367, guid: b3625555cd6713b48a0f317c09fbc5e5,
        type: 3}
      propertyPath: m_Color.r
      value: 0.6392157
      objectReference: {fileID: 0}
    - target: {fileID: 4679025232051195367, guid: b3625555cd6713b48a0f317c09fbc5e5,
        type: 3}
      propertyPath: m_Color.g
      value: 0.69411767
      objectReference: {fileID: 0}
    - target: {fileID: 4679025232051195367, guid: b3625555cd6713b48a0f317c09fbc5e5,
        type: 3}
      propertyPath: m_Color.b
      value: 0.7764706
      objectReference: {fileID: 0}
    - target: {fileID: 4713368459993914972, guid: b3625555cd6713b48a0f317c09fbc5e5,
        type: 3}
      propertyPath: m_Color.r
      value: 0.9198113
      objectReference: {fileID: 0}
    - target: {fileID: 4713368459993914972, guid: b3625555cd6713b48a0f317c09fbc5e5,
        type: 3}
      propertyPath: m_Color.g
      value: 0.9495108
      objectReference: {fileID: 0}
    - target: {fileID: 4713368459993914972, guid: b3625555cd6713b48a0f317c09fbc5e5,
        type: 3}
      propertyPath: m_Color.b
      value: 1
      objectReference: {fileID: 0}
    - target: {fileID: 3593355799258904036, guid: b3625555cd6713b48a0f317c09fbc5e5,
        type: 3}
      propertyPath: m_Color.r
      value: 0.6392157
      objectReference: {fileID: 0}
    - target: {fileID: 3593355799258904036, guid: b3625555cd6713b48a0f317c09fbc5e5,
        type: 3}
      propertyPath: m_Color.g
      value: 0.69411767
      objectReference: {fileID: 0}
    - target: {fileID: 3593355799258904036, guid: b3625555cd6713b48a0f317c09fbc5e5,
        type: 3}
      propertyPath: m_Color.b
      value: 0.7764706
      objectReference: {fileID: 0}
    - target: {fileID: 2051297625014411954, guid: b3625555cd6713b48a0f317c09fbc5e5,
        type: 3}
      propertyPath: m_Color.r
      value: 1
      objectReference: {fileID: 0}
    - target: {fileID: 2051297625014411954, guid: b3625555cd6713b48a0f317c09fbc5e5,
        type: 3}
      propertyPath: m_Color.g
      value: 1
      objectReference: {fileID: 0}
    - target: {fileID: 2051297625014411954, guid: b3625555cd6713b48a0f317c09fbc5e5,
        type: 3}
      propertyPath: m_Color.b
      value: 1
      objectReference: {fileID: 0}
    m_RemovedComponents: []
  m_SourcePrefab: {fileID: 100100000, guid: b3625555cd6713b48a0f317c09fbc5e5, type: 3}
--- !u!224 &661089654401771161 stripped
RectTransform:
  m_CorrespondingSourceObject: {fileID: 3400394613292737528, guid: b3625555cd6713b48a0f317c09fbc5e5,
    type: 3}
  m_PrefabInstance: {fileID: 2746080231213925729}
  m_PrefabAsset: {fileID: 0}
--- !u!1001 &4691837179537034456
PrefabInstance:
  m_ObjectHideFlags: 0
  serializedVersion: 2
  m_Modification:
    m_TransformParent: {fileID: 8751897452103324836}
    m_Modifications:
    - target: {fileID: 6443578111640239940, guid: c3b5af198a644f04ca7dbd70096f66e0,
        type: 3}
      propertyPath: m_Name
      value: Image - ARF - Envelope Parent
      objectReference: {fileID: 0}
    - target: {fileID: 9180075449577652015, guid: c3b5af198a644f04ca7dbd70096f66e0,
        type: 3}
      propertyPath: m_LocalPosition.x
      value: 0
      objectReference: {fileID: 0}
    - target: {fileID: 9180075449577652015, guid: c3b5af198a644f04ca7dbd70096f66e0,
        type: 3}
      propertyPath: m_LocalPosition.y
      value: 0
      objectReference: {fileID: 0}
    - target: {fileID: 9180075449577652015, guid: c3b5af198a644f04ca7dbd70096f66e0,
        type: 3}
      propertyPath: m_LocalPosition.z
      value: 0
      objectReference: {fileID: 0}
    - target: {fileID: 9180075449577652015, guid: c3b5af198a644f04ca7dbd70096f66e0,
        type: 3}
      propertyPath: m_LocalRotation.x
      value: -0
      objectReference: {fileID: 0}
    - target: {fileID: 9180075449577652015, guid: c3b5af198a644f04ca7dbd70096f66e0,
        type: 3}
      propertyPath: m_LocalRotation.y
      value: -0
      objectReference: {fileID: 0}
    - target: {fileID: 9180075449577652015, guid: c3b5af198a644f04ca7dbd70096f66e0,
        type: 3}
      propertyPath: m_LocalRotation.z
      value: -0
      objectReference: {fileID: 0}
    - target: {fileID: 9180075449577652015, guid: c3b5af198a644f04ca7dbd70096f66e0,
        type: 3}
      propertyPath: m_LocalRotation.w
      value: 1
      objectReference: {fileID: 0}
    - target: {fileID: 9180075449577652015, guid: c3b5af198a644f04ca7dbd70096f66e0,
        type: 3}
      propertyPath: m_RootOrder
      value: 0
      objectReference: {fileID: 0}
    - target: {fileID: 9180075449577652015, guid: c3b5af198a644f04ca7dbd70096f66e0,
        type: 3}
      propertyPath: m_LocalEulerAnglesHint.x
      value: 0
      objectReference: {fileID: 0}
    - target: {fileID: 9180075449577652015, guid: c3b5af198a644f04ca7dbd70096f66e0,
        type: 3}
      propertyPath: m_LocalEulerAnglesHint.y
      value: 0
      objectReference: {fileID: 0}
    - target: {fileID: 9180075449577652015, guid: c3b5af198a644f04ca7dbd70096f66e0,
        type: 3}
      propertyPath: m_LocalEulerAnglesHint.z
      value: 0
      objectReference: {fileID: 0}
    - target: {fileID: 9180075449577652015, guid: c3b5af198a644f04ca7dbd70096f66e0,
        type: 3}
      propertyPath: m_AnchoredPosition.x
      value: 0
      objectReference: {fileID: 0}
    - target: {fileID: 9180075449577652015, guid: c3b5af198a644f04ca7dbd70096f66e0,
        type: 3}
      propertyPath: m_AnchoredPosition.y
      value: 0
      objectReference: {fileID: 0}
    - target: {fileID: 9180075449577652015, guid: c3b5af198a644f04ca7dbd70096f66e0,
        type: 3}
      propertyPath: m_SizeDelta.x
      value: 0
      objectReference: {fileID: 0}
    - target: {fileID: 9180075449577652015, guid: c3b5af198a644f04ca7dbd70096f66e0,
        type: 3}
      propertyPath: m_SizeDelta.y
      value: 0
      objectReference: {fileID: 0}
    - target: {fileID: 9180075449577652015, guid: c3b5af198a644f04ca7dbd70096f66e0,
        type: 3}
      propertyPath: m_AnchorMin.x
      value: 0
      objectReference: {fileID: 0}
    - target: {fileID: 9180075449577652015, guid: c3b5af198a644f04ca7dbd70096f66e0,
        type: 3}
      propertyPath: m_AnchorMin.y
      value: 0
      objectReference: {fileID: 0}
    - target: {fileID: 9180075449577652015, guid: c3b5af198a644f04ca7dbd70096f66e0,
        type: 3}
      propertyPath: m_AnchorMax.x
      value: 0
      objectReference: {fileID: 0}
    - target: {fileID: 9180075449577652015, guid: c3b5af198a644f04ca7dbd70096f66e0,
        type: 3}
      propertyPath: m_AnchorMax.y
      value: 0
      objectReference: {fileID: 0}
    - target: {fileID: 9180075449577652015, guid: c3b5af198a644f04ca7dbd70096f66e0,
        type: 3}
      propertyPath: m_Pivot.x
      value: 0.5
      objectReference: {fileID: 0}
    - target: {fileID: 9180075449577652015, guid: c3b5af198a644f04ca7dbd70096f66e0,
        type: 3}
      propertyPath: m_Pivot.y
      value: 0.5
      objectReference: {fileID: 0}
    - target: {fileID: 9180075449577652015, guid: c3b5af198a644f04ca7dbd70096f66e0,
        type: 3}
      propertyPath: m_LocalScale.x
      value: 1
      objectReference: {fileID: 0}
    - target: {fileID: 9180075449577652015, guid: c3b5af198a644f04ca7dbd70096f66e0,
        type: 3}
      propertyPath: m_LocalScale.y
      value: 1
      objectReference: {fileID: 0}
    - target: {fileID: 626370685488505775, guid: c3b5af198a644f04ca7dbd70096f66e0,
        type: 3}
      propertyPath: m_Sprite
      value: 
      objectReference: {fileID: 21300000, guid: 049d38d16b7f47d45a5c48e67dfb2cc9,
        type: 3}
    - target: {fileID: 2264538860308933576, guid: c3b5af198a644f04ca7dbd70096f66e0,
        type: 3}
      propertyPath: m_AspectRatio
      value: 2
      objectReference: {fileID: 0}
    - target: {fileID: 2264538860308933576, guid: c3b5af198a644f04ca7dbd70096f66e0,
        type: 3}
      propertyPath: m_AspectMode
      value: 4
      objectReference: {fileID: 0}
    m_RemovedComponents: []
  m_SourcePrefab: {fileID: 100100000, guid: c3b5af198a644f04ca7dbd70096f66e0, type: 3}
--- !u!224 &4502171318163780599 stripped
RectTransform:
  m_CorrespondingSourceObject: {fileID: 9180075449577652015, guid: c3b5af198a644f04ca7dbd70096f66e0,
    type: 3}
  m_PrefabInstance: {fileID: 4691837179537034456}
  m_PrefabAsset: {fileID: 0}
--- !u!1001 &5291748327758393890
PrefabInstance:
  m_ObjectHideFlags: 0
  serializedVersion: 2
  m_Modification:
    m_TransformParent: {fileID: 4720628801467733336}
    m_Modifications:
    - target: {fileID: 3529164101442841808, guid: 9b23339296dd927499c72e572e1ee552,
        type: 3}
      propertyPath: m_Name
      value: Switch - 56x32
      objectReference: {fileID: 0}
    - target: {fileID: 1209335361247178884, guid: 9b23339296dd927499c72e572e1ee552,
        type: 3}
      propertyPath: m_Color.r
      value: 0.6392157
      objectReference: {fileID: 0}
    - target: {fileID: 1209335361247178884, guid: 9b23339296dd927499c72e572e1ee552,
        type: 3}
      propertyPath: m_Color.g
      value: 0.69411767
      objectReference: {fileID: 0}
    - target: {fileID: 1209335361247178884, guid: 9b23339296dd927499c72e572e1ee552,
        type: 3}
      propertyPath: m_Color.b
      value: 0.7764706
      objectReference: {fileID: 0}
    - target: {fileID: 2002002948705467904, guid: 9b23339296dd927499c72e572e1ee552,
        type: 3}
      propertyPath: m_Color.r
      value: 0.5137255
      objectReference: {fileID: 0}
    - target: {fileID: 2002002948705467904, guid: 9b23339296dd927499c72e572e1ee552,
        type: 3}
      propertyPath: m_Color.g
      value: 0.5568628
      objectReference: {fileID: 0}
    - target: {fileID: 2002002948705467904, guid: 9b23339296dd927499c72e572e1ee552,
        type: 3}
      propertyPath: m_Color.b
      value: 0.62352943
      objectReference: {fileID: 0}
    - target: {fileID: 2566834002191548163, guid: 9b23339296dd927499c72e572e1ee552,
        type: 3}
      propertyPath: m_Color.r
      value: 1
      objectReference: {fileID: 0}
    - target: {fileID: 2566834002191548163, guid: 9b23339296dd927499c72e572e1ee552,
        type: 3}
      propertyPath: m_Color.g
      value: 1
      objectReference: {fileID: 0}
    - target: {fileID: 2566834002191548163, guid: 9b23339296dd927499c72e572e1ee552,
        type: 3}
      propertyPath: m_Color.b
      value: 1
      objectReference: {fileID: 0}
    - target: {fileID: 2566834002487883940, guid: 9b23339296dd927499c72e572e1ee552,
        type: 3}
      propertyPath: m_Color.r
      value: 0.6392157
      objectReference: {fileID: 0}
    - target: {fileID: 2566834002487883940, guid: 9b23339296dd927499c72e572e1ee552,
        type: 3}
      propertyPath: m_Color.g
      value: 0.69411767
      objectReference: {fileID: 0}
    - target: {fileID: 2566834002487883940, guid: 9b23339296dd927499c72e572e1ee552,
        type: 3}
      propertyPath: m_Color.b
      value: 0.7764706
      objectReference: {fileID: 0}
    - target: {fileID: 2801808869298501028, guid: 9b23339296dd927499c72e572e1ee552,
        type: 3}
      propertyPath: m_fontColor.r
      value: 0.5137255
      objectReference: {fileID: 0}
    - target: {fileID: 2801808869298501028, guid: 9b23339296dd927499c72e572e1ee552,
        type: 3}
      propertyPath: m_fontColor.g
      value: 0.5568628
      objectReference: {fileID: 0}
    - target: {fileID: 2801808869298501028, guid: 9b23339296dd927499c72e572e1ee552,
        type: 3}
      propertyPath: m_fontColor.b
      value: 0.62352943
      objectReference: {fileID: 0}
    - target: {fileID: 3529164100962852608, guid: 9b23339296dd927499c72e572e1ee552,
        type: 3}
      propertyPath: m_Color.r
      value: 0.8784314
      objectReference: {fileID: 0}
    - target: {fileID: 3529164100962852608, guid: 9b23339296dd927499c72e572e1ee552,
        type: 3}
      propertyPath: m_Color.g
      value: 0.8980392
      objectReference: {fileID: 0}
    - target: {fileID: 3529164100962852608, guid: 9b23339296dd927499c72e572e1ee552,
        type: 3}
      propertyPath: m_Color.b
      value: 0.9254902
      objectReference: {fileID: 0}
    - target: {fileID: 3529164101294793652, guid: 9b23339296dd927499c72e572e1ee552,
        type: 3}
      propertyPath: m_Color.r
      value: 0.17911176
      objectReference: {fileID: 0}
    - target: {fileID: 3529164101294793652, guid: 9b23339296dd927499c72e572e1ee552,
        type: 3}
      propertyPath: m_Color.g
      value: 0.19398901
      objectReference: {fileID: 0}
    - target: {fileID: 3529164101294793652, guid: 9b23339296dd927499c72e572e1ee552,
        type: 3}
      propertyPath: m_Color.b
      value: 0.21698111
      objectReference: {fileID: 0}
    - target: {fileID: 3529164101442841811, guid: 9b23339296dd927499c72e572e1ee552,
        type: 3}
      propertyPath: m_LocalPosition.x
      value: 0
      objectReference: {fileID: 0}
    - target: {fileID: 3529164101442841811, guid: 9b23339296dd927499c72e572e1ee552,
        type: 3}
      propertyPath: m_LocalPosition.y
      value: 0
      objectReference: {fileID: 0}
    - target: {fileID: 3529164101442841811, guid: 9b23339296dd927499c72e572e1ee552,
        type: 3}
      propertyPath: m_LocalPosition.z
      value: 0
      objectReference: {fileID: 0}
    - target: {fileID: 3529164101442841811, guid: 9b23339296dd927499c72e572e1ee552,
        type: 3}
      propertyPath: m_LocalRotation.x
      value: 0
      objectReference: {fileID: 0}
    - target: {fileID: 3529164101442841811, guid: 9b23339296dd927499c72e572e1ee552,
        type: 3}
      propertyPath: m_LocalRotation.y
      value: 0
      objectReference: {fileID: 0}
    - target: {fileID: 3529164101442841811, guid: 9b23339296dd927499c72e572e1ee552,
        type: 3}
      propertyPath: m_LocalRotation.z
      value: 0
      objectReference: {fileID: 0}
    - target: {fileID: 3529164101442841811, guid: 9b23339296dd927499c72e572e1ee552,
        type: 3}
      propertyPath: m_LocalRotation.w
      value: 1
      objectReference: {fileID: 0}
    - target: {fileID: 3529164101442841811, guid: 9b23339296dd927499c72e572e1ee552,
        type: 3}
      propertyPath: m_RootOrder
      value: 0
      objectReference: {fileID: 0}
    - target: {fileID: 3529164101442841811, guid: 9b23339296dd927499c72e572e1ee552,
        type: 3}
      propertyPath: m_LocalEulerAnglesHint.x
      value: 0
      objectReference: {fileID: 0}
    - target: {fileID: 3529164101442841811, guid: 9b23339296dd927499c72e572e1ee552,
        type: 3}
      propertyPath: m_LocalEulerAnglesHint.y
      value: 0
      objectReference: {fileID: 0}
    - target: {fileID: 3529164101442841811, guid: 9b23339296dd927499c72e572e1ee552,
        type: 3}
      propertyPath: m_LocalEulerAnglesHint.z
      value: 0
      objectReference: {fileID: 0}
    - target: {fileID: 3529164101442841811, guid: 9b23339296dd927499c72e572e1ee552,
        type: 3}
      propertyPath: m_AnchoredPosition.x
      value: 0
      objectReference: {fileID: 0}
    - target: {fileID: 3529164101442841811, guid: 9b23339296dd927499c72e572e1ee552,
        type: 3}
      propertyPath: m_AnchoredPosition.y
      value: 32
      objectReference: {fileID: 0}
    - target: {fileID: 3529164101442841811, guid: 9b23339296dd927499c72e572e1ee552,
        type: 3}
      propertyPath: m_SizeDelta.x
      value: 56
      objectReference: {fileID: 0}
    - target: {fileID: 3529164101442841811, guid: 9b23339296dd927499c72e572e1ee552,
        type: 3}
      propertyPath: m_SizeDelta.y
      value: 32
      objectReference: {fileID: 0}
    - target: {fileID: 3529164101442841811, guid: 9b23339296dd927499c72e572e1ee552,
        type: 3}
      propertyPath: m_AnchorMin.x
      value: 0.5
      objectReference: {fileID: 0}
    - target: {fileID: 3529164101442841811, guid: 9b23339296dd927499c72e572e1ee552,
        type: 3}
      propertyPath: m_AnchorMin.y
      value: 0.5
      objectReference: {fileID: 0}
    - target: {fileID: 3529164101442841811, guid: 9b23339296dd927499c72e572e1ee552,
        type: 3}
      propertyPath: m_AnchorMax.x
      value: 0.5
      objectReference: {fileID: 0}
    - target: {fileID: 3529164101442841811, guid: 9b23339296dd927499c72e572e1ee552,
        type: 3}
      propertyPath: m_AnchorMax.y
      value: 0.5
      objectReference: {fileID: 0}
    - target: {fileID: 3529164101442841811, guid: 9b23339296dd927499c72e572e1ee552,
        type: 3}
      propertyPath: m_Pivot.x
      value: 0.5
      objectReference: {fileID: 0}
    - target: {fileID: 3529164101442841811, guid: 9b23339296dd927499c72e572e1ee552,
        type: 3}
      propertyPath: m_Pivot.y
      value: 0
      objectReference: {fileID: 0}
    - target: {fileID: 4423073900935014354, guid: 9b23339296dd927499c72e572e1ee552,
        type: 3}
      propertyPath: m_Color.r
      value: 1
      objectReference: {fileID: 0}
    - target: {fileID: 4423073900935014354, guid: 9b23339296dd927499c72e572e1ee552,
        type: 3}
      propertyPath: m_Color.g
      value: 1
      objectReference: {fileID: 0}
    - target: {fileID: 4423073900935014354, guid: 9b23339296dd927499c72e572e1ee552,
        type: 3}
      propertyPath: m_Color.b
      value: 1
      objectReference: {fileID: 0}
    - target: {fileID: 5590909754666280063, guid: 9b23339296dd927499c72e572e1ee552,
        type: 3}
      propertyPath: m_Color.r
      value: 1
      objectReference: {fileID: 0}
    - target: {fileID: 5590909754666280063, guid: 9b23339296dd927499c72e572e1ee552,
        type: 3}
      propertyPath: m_Color.g
      value: 1
      objectReference: {fileID: 0}
    - target: {fileID: 5590909754666280063, guid: 9b23339296dd927499c72e572e1ee552,
        type: 3}
      propertyPath: m_Color.b
      value: 1
      objectReference: {fileID: 0}
    - target: {fileID: 6208106448553817792, guid: 9b23339296dd927499c72e572e1ee552,
        type: 3}
      propertyPath: m_Color.r
      value: 0.5137255
      objectReference: {fileID: 0}
    - target: {fileID: 6208106448553817792, guid: 9b23339296dd927499c72e572e1ee552,
        type: 3}
      propertyPath: m_Color.g
      value: 0.5568628
      objectReference: {fileID: 0}
    - target: {fileID: 6208106448553817792, guid: 9b23339296dd927499c72e572e1ee552,
        type: 3}
      propertyPath: m_Color.b
      value: 0.62352943
      objectReference: {fileID: 0}
    - target: {fileID: 6953410151913741116, guid: 9b23339296dd927499c72e572e1ee552,
        type: 3}
      propertyPath: m_Color.r
      value: 0.9198113
      objectReference: {fileID: 0}
    - target: {fileID: 6953410151913741116, guid: 9b23339296dd927499c72e572e1ee552,
        type: 3}
      propertyPath: m_Color.g
      value: 0.9495108
      objectReference: {fileID: 0}
    - target: {fileID: 6953410151913741116, guid: 9b23339296dd927499c72e572e1ee552,
        type: 3}
      propertyPath: m_Color.b
      value: 1
      objectReference: {fileID: 0}
    - target: {fileID: 7059808844668340359, guid: 9b23339296dd927499c72e572e1ee552,
        type: 3}
      propertyPath: m_Color.r
      value: 0.6392157
      objectReference: {fileID: 0}
    - target: {fileID: 7059808844668340359, guid: 9b23339296dd927499c72e572e1ee552,
        type: 3}
      propertyPath: m_Color.g
      value: 0.69411767
      objectReference: {fileID: 0}
    - target: {fileID: 7059808844668340359, guid: 9b23339296dd927499c72e572e1ee552,
        type: 3}
      propertyPath: m_Color.b
      value: 0.7764706
      objectReference: {fileID: 0}
    - target: {fileID: 8772199883455121466, guid: 9b23339296dd927499c72e572e1ee552,
        type: 3}
      propertyPath: m_Color.r
      value: 0.8784314
      objectReference: {fileID: 0}
    - target: {fileID: 8772199883455121466, guid: 9b23339296dd927499c72e572e1ee552,
        type: 3}
      propertyPath: m_Color.g
      value: 0.8980392
      objectReference: {fileID: 0}
    - target: {fileID: 8772199883455121466, guid: 9b23339296dd927499c72e572e1ee552,
        type: 3}
      propertyPath: m_Color.b
      value: 0.9254902
      objectReference: {fileID: 0}
    m_RemovedComponents: []
  m_SourcePrefab: {fileID: 100100000, guid: 9b23339296dd927499c72e572e1ee552, type: 3}
--- !u!224 &8757826841303178993 stripped
RectTransform:
  m_CorrespondingSourceObject: {fileID: 3529164101442841811, guid: 9b23339296dd927499c72e572e1ee552,
    type: 3}
  m_PrefabInstance: {fileID: 5291748327758393890}
  m_PrefabAsset: {fileID: 0}
--- !u!1001 &5978315353695600456
PrefabInstance:
  m_ObjectHideFlags: 0
  serializedVersion: 2
  m_Modification:
    m_TransformParent: {fileID: 4720628801467733336}
    m_Modifications:
    - target: {fileID: 4769013192692311861, guid: 08af61609e7f3bd4cbb3460218813c81,
        type: 3}
      propertyPath: m_Name
      value: Button - B - 160x48 - Rounded - Text
      objectReference: {fileID: 0}
    - target: {fileID: 1465370534062108315, guid: 08af61609e7f3bd4cbb3460218813c81,
        type: 3}
      propertyPath: m_LocalPosition.x
      value: 0
      objectReference: {fileID: 0}
    - target: {fileID: 1465370534062108315, guid: 08af61609e7f3bd4cbb3460218813c81,
        type: 3}
      propertyPath: m_LocalPosition.y
      value: 0
      objectReference: {fileID: 0}
    - target: {fileID: 1465370534062108315, guid: 08af61609e7f3bd4cbb3460218813c81,
        type: 3}
      propertyPath: m_LocalPosition.z
      value: 0
      objectReference: {fileID: 0}
    - target: {fileID: 1465370534062108315, guid: 08af61609e7f3bd4cbb3460218813c81,
        type: 3}
      propertyPath: m_LocalRotation.x
      value: 0
      objectReference: {fileID: 0}
    - target: {fileID: 1465370534062108315, guid: 08af61609e7f3bd4cbb3460218813c81,
        type: 3}
      propertyPath: m_LocalRotation.y
      value: 0
      objectReference: {fileID: 0}
    - target: {fileID: 1465370534062108315, guid: 08af61609e7f3bd4cbb3460218813c81,
        type: 3}
      propertyPath: m_LocalRotation.z
      value: 0
      objectReference: {fileID: 0}
    - target: {fileID: 1465370534062108315, guid: 08af61609e7f3bd4cbb3460218813c81,
        type: 3}
      propertyPath: m_LocalRotation.w
      value: 1
      objectReference: {fileID: 0}
    - target: {fileID: 1465370534062108315, guid: 08af61609e7f3bd4cbb3460218813c81,
        type: 3}
      propertyPath: m_RootOrder
      value: 1
      objectReference: {fileID: 0}
    - target: {fileID: 1465370534062108315, guid: 08af61609e7f3bd4cbb3460218813c81,
        type: 3}
      propertyPath: m_LocalEulerAnglesHint.x
      value: 0
      objectReference: {fileID: 0}
    - target: {fileID: 1465370534062108315, guid: 08af61609e7f3bd4cbb3460218813c81,
        type: 3}
      propertyPath: m_LocalEulerAnglesHint.y
      value: 0
      objectReference: {fileID: 0}
    - target: {fileID: 1465370534062108315, guid: 08af61609e7f3bd4cbb3460218813c81,
        type: 3}
      propertyPath: m_LocalEulerAnglesHint.z
      value: 0
      objectReference: {fileID: 0}
    - target: {fileID: 1465370534062108315, guid: 08af61609e7f3bd4cbb3460218813c81,
        type: 3}
      propertyPath: m_AnchoredPosition.x
      value: 0
      objectReference: {fileID: 0}
    - target: {fileID: 1465370534062108315, guid: 08af61609e7f3bd4cbb3460218813c81,
        type: 3}
      propertyPath: m_AnchoredPosition.y
      value: -64
      objectReference: {fileID: 0}
    - target: {fileID: 1465370534062108315, guid: 08af61609e7f3bd4cbb3460218813c81,
        type: 3}
      propertyPath: m_SizeDelta.x
      value: 192
      objectReference: {fileID: 0}
    - target: {fileID: 1465370534062108315, guid: 08af61609e7f3bd4cbb3460218813c81,
        type: 3}
      propertyPath: m_SizeDelta.y
      value: 96
      objectReference: {fileID: 0}
    - target: {fileID: 1465370534062108315, guid: 08af61609e7f3bd4cbb3460218813c81,
        type: 3}
      propertyPath: m_AnchorMin.x
      value: 0.5
      objectReference: {fileID: 0}
    - target: {fileID: 1465370534062108315, guid: 08af61609e7f3bd4cbb3460218813c81,
        type: 3}
      propertyPath: m_AnchorMin.y
      value: 0.5
      objectReference: {fileID: 0}
    - target: {fileID: 1465370534062108315, guid: 08af61609e7f3bd4cbb3460218813c81,
        type: 3}
      propertyPath: m_AnchorMax.x
      value: 0.5
      objectReference: {fileID: 0}
    - target: {fileID: 1465370534062108315, guid: 08af61609e7f3bd4cbb3460218813c81,
        type: 3}
      propertyPath: m_AnchorMax.y
      value: 0.5
      objectReference: {fileID: 0}
    - target: {fileID: 1465370534062108315, guid: 08af61609e7f3bd4cbb3460218813c81,
        type: 3}
      propertyPath: m_Pivot.x
      value: 0.5
      objectReference: {fileID: 0}
    - target: {fileID: 1465370534062108315, guid: 08af61609e7f3bd4cbb3460218813c81,
        type: 3}
      propertyPath: m_Pivot.y
      value: 0.5
      objectReference: {fileID: 0}
    - target: {fileID: 7191669277934551097, guid: 08af61609e7f3bd4cbb3460218813c81,
        type: 3}
      propertyPath: m_Color.r
      value: 0.8784314
      objectReference: {fileID: 0}
    - target: {fileID: 7191669277934551097, guid: 08af61609e7f3bd4cbb3460218813c81,
        type: 3}
      propertyPath: m_Color.g
      value: 0.8980392
      objectReference: {fileID: 0}
    - target: {fileID: 7191669277934551097, guid: 08af61609e7f3bd4cbb3460218813c81,
        type: 3}
      propertyPath: m_Color.b
      value: 0.9254902
      objectReference: {fileID: 0}
    - target: {fileID: 4364808384694893991, guid: 08af61609e7f3bd4cbb3460218813c81,
        type: 3}
      propertyPath: m_textInfo.characterCount
      value: 11
      objectReference: {fileID: 0}
    - target: {fileID: 4364808384694893991, guid: 08af61609e7f3bd4cbb3460218813c81,
        type: 3}
      propertyPath: m_textInfo.spaceCount
      value: 1
      objectReference: {fileID: 0}
    - target: {fileID: 4364808384694893991, guid: 08af61609e7f3bd4cbb3460218813c81,
        type: 3}
      propertyPath: m_textInfo.wordCount
      value: 2
      objectReference: {fileID: 0}
    - target: {fileID: 4364808384694893991, guid: 08af61609e7f3bd4cbb3460218813c81,
        type: 3}
      propertyPath: m_textInfo.lineCount
      value: 1
      objectReference: {fileID: 0}
    - target: {fileID: 4364808384694893991, guid: 08af61609e7f3bd4cbb3460218813c81,
        type: 3}
      propertyPath: m_textInfo.pageCount
      value: 1
      objectReference: {fileID: 0}
    - target: {fileID: 4364808384694893991, guid: 08af61609e7f3bd4cbb3460218813c81,
        type: 3}
      propertyPath: m_text
      value: Get Started
      objectReference: {fileID: 0}
    - target: {fileID: 4364808384694893991, guid: 08af61609e7f3bd4cbb3460218813c81,
        type: 3}
      propertyPath: m_sharedMaterial
      value: 
      objectReference: {fileID: 4835089367266696174, guid: 643aebd7124d3c34bb062c5a60ebb5a8,
        type: 2}
    - target: {fileID: 4364808384694893991, guid: 08af61609e7f3bd4cbb3460218813c81,
        type: 3}
      propertyPath: m_fontColor32.rgba
      value: 4281807149
      objectReference: {fileID: 0}
    - target: {fileID: 4364808384694893991, guid: 08af61609e7f3bd4cbb3460218813c81,
        type: 3}
      propertyPath: m_fontColor.r
      value: 0.17911176
      objectReference: {fileID: 0}
    - target: {fileID: 4364808384694893991, guid: 08af61609e7f3bd4cbb3460218813c81,
        type: 3}
      propertyPath: m_fontColor.g
      value: 0.19398901
      objectReference: {fileID: 0}
    - target: {fileID: 4364808384694893991, guid: 08af61609e7f3bd4cbb3460218813c81,
        type: 3}
      propertyPath: m_fontColor.b
      value: 0.21698111
      objectReference: {fileID: 0}
    - target: {fileID: 4364808384694893991, guid: 08af61609e7f3bd4cbb3460218813c81,
        type: 3}
      propertyPath: m_fontSize
      value: 24
      objectReference: {fileID: 0}
    - target: {fileID: 4364808384694893991, guid: 08af61609e7f3bd4cbb3460218813c81,
        type: 3}
      propertyPath: m_fontSizeMax
      value: 24
      objectReference: {fileID: 0}
    - target: {fileID: 4364808384694893991, guid: 08af61609e7f3bd4cbb3460218813c81,
        type: 3}
      propertyPath: m_hasFontAssetChanged
      value: 0
      objectReference: {fileID: 0}
    - target: {fileID: 123962621327996419, guid: 08af61609e7f3bd4cbb3460218813c81,
        type: 3}
      propertyPath: m_Color.r
      value: 0.5137255
      objectReference: {fileID: 0}
    - target: {fileID: 123962621327996419, guid: 08af61609e7f3bd4cbb3460218813c81,
        type: 3}
      propertyPath: m_Color.g
      value: 0.5568628
      objectReference: {fileID: 0}
    - target: {fileID: 123962621327996419, guid: 08af61609e7f3bd4cbb3460218813c81,
        type: 3}
      propertyPath: m_Color.b
      value: 0.62352943
      objectReference: {fileID: 0}
    - target: {fileID: 6333761501003230332, guid: 08af61609e7f3bd4cbb3460218813c81,
        type: 3}
      propertyPath: m_Color.r
      value: 1
      objectReference: {fileID: 0}
    - target: {fileID: 6333761501003230332, guid: 08af61609e7f3bd4cbb3460218813c81,
        type: 3}
      propertyPath: m_Color.g
      value: 1
      objectReference: {fileID: 0}
    - target: {fileID: 6333761501003230332, guid: 08af61609e7f3bd4cbb3460218813c81,
        type: 3}
      propertyPath: m_Color.b
      value: 1
      objectReference: {fileID: 0}
    - target: {fileID: 5500992633179045571, guid: 08af61609e7f3bd4cbb3460218813c81,
        type: 3}
      propertyPath: m_Color.r
      value: 0.5137255
      objectReference: {fileID: 0}
    - target: {fileID: 5500992633179045571, guid: 08af61609e7f3bd4cbb3460218813c81,
        type: 3}
      propertyPath: m_Color.g
      value: 0.5568628
      objectReference: {fileID: 0}
    - target: {fileID: 5500992633179045571, guid: 08af61609e7f3bd4cbb3460218813c81,
        type: 3}
      propertyPath: m_Color.b
      value: 0.62352943
      objectReference: {fileID: 0}
    - target: {fileID: 8795413500652950335, guid: 08af61609e7f3bd4cbb3460218813c81,
        type: 3}
      propertyPath: m_Color.r
      value: 0.9198113
      objectReference: {fileID: 0}
    - target: {fileID: 8795413500652950335, guid: 08af61609e7f3bd4cbb3460218813c81,
        type: 3}
      propertyPath: m_Color.g
      value: 0.9495108
      objectReference: {fileID: 0}
    - target: {fileID: 8795413500652950335, guid: 08af61609e7f3bd4cbb3460218813c81,
        type: 3}
      propertyPath: m_Color.b
      value: 1
      objectReference: {fileID: 0}
    - target: {fileID: 8901812124698787972, guid: 08af61609e7f3bd4cbb3460218813c81,
        type: 3}
      propertyPath: m_Color.r
      value: 0.6392157
      objectReference: {fileID: 0}
    - target: {fileID: 8901812124698787972, guid: 08af61609e7f3bd4cbb3460218813c81,
        type: 3}
      propertyPath: m_Color.g
      value: 0.69411767
      objectReference: {fileID: 0}
    - target: {fileID: 8901812124698787972, guid: 08af61609e7f3bd4cbb3460218813c81,
        type: 3}
      propertyPath: m_Color.b
      value: 0.7764706
      objectReference: {fileID: 0}
    - target: {fileID: 7070978483019899033, guid: 08af61609e7f3bd4cbb3460218813c81,
        type: 3}
      propertyPath: PropertyIdSerializedGuid.Array.data[0]
      value: 129
      objectReference: {fileID: 0}
    - target: {fileID: 7070978483019899033, guid: 08af61609e7f3bd4cbb3460218813c81,
        type: 3}
      propertyPath: PropertyIdSerializedGuid.Array.data[1]
      value: 150
      objectReference: {fileID: 0}
    - target: {fileID: 7070978483019899033, guid: 08af61609e7f3bd4cbb3460218813c81,
        type: 3}
      propertyPath: PropertyIdSerializedGuid.Array.data[2]
      value: 85
      objectReference: {fileID: 0}
    - target: {fileID: 7070978483019899033, guid: 08af61609e7f3bd4cbb3460218813c81,
        type: 3}
      propertyPath: PropertyIdSerializedGuid.Array.data[3]
      value: 20
      objectReference: {fileID: 0}
    - target: {fileID: 7070978483019899033, guid: 08af61609e7f3bd4cbb3460218813c81,
        type: 3}
      propertyPath: PropertyIdSerializedGuid.Array.data[4]
      value: 62
      objectReference: {fileID: 0}
    - target: {fileID: 7070978483019899033, guid: 08af61609e7f3bd4cbb3460218813c81,
        type: 3}
      propertyPath: PropertyIdSerializedGuid.Array.data[5]
      value: 131
      objectReference: {fileID: 0}
    - target: {fileID: 7070978483019899033, guid: 08af61609e7f3bd4cbb3460218813c81,
        type: 3}
      propertyPath: PropertyIdSerializedGuid.Array.data[6]
      value: 236
      objectReference: {fileID: 0}
    - target: {fileID: 7070978483019899033, guid: 08af61609e7f3bd4cbb3460218813c81,
        type: 3}
      propertyPath: PropertyIdSerializedGuid.Array.data[7]
      value: 69
      objectReference: {fileID: 0}
    - target: {fileID: 7070978483019899033, guid: 08af61609e7f3bd4cbb3460218813c81,
        type: 3}
      propertyPath: PropertyIdSerializedGuid.Array.data[8]
      value: 162
      objectReference: {fileID: 0}
    - target: {fileID: 7070978483019899033, guid: 08af61609e7f3bd4cbb3460218813c81,
        type: 3}
      propertyPath: PropertyIdSerializedGuid.Array.data[9]
      value: 61
      objectReference: {fileID: 0}
    - target: {fileID: 7070978483019899033, guid: 08af61609e7f3bd4cbb3460218813c81,
        type: 3}
      propertyPath: PropertyIdSerializedGuid.Array.data[10]
      value: 103
      objectReference: {fileID: 0}
    - target: {fileID: 7070978483019899033, guid: 08af61609e7f3bd4cbb3460218813c81,
        type: 3}
      propertyPath: PropertyIdSerializedGuid.Array.data[11]
      value: 46
      objectReference: {fileID: 0}
    - target: {fileID: 7070978483019899033, guid: 08af61609e7f3bd4cbb3460218813c81,
        type: 3}
      propertyPath: PropertyIdSerializedGuid.Array.data[12]
      value: 232
      objectReference: {fileID: 0}
    - target: {fileID: 7070978483019899033, guid: 08af61609e7f3bd4cbb3460218813c81,
        type: 3}
      propertyPath: PropertyIdSerializedGuid.Array.data[13]
      value: 17
      objectReference: {fileID: 0}
    - target: {fileID: 7070978483019899033, guid: 08af61609e7f3bd4cbb3460218813c81,
        type: 3}
      propertyPath: PropertyIdSerializedGuid.Array.data[14]
      value: 102
      objectReference: {fileID: 0}
    - target: {fileID: 7070978483019899033, guid: 08af61609e7f3bd4cbb3460218813c81,
        type: 3}
      propertyPath: PropertyIdSerializedGuid.Array.data[15]
      value: 116
      objectReference: {fileID: 0}
    - target: {fileID: 772508422548830343, guid: 08af61609e7f3bd4cbb3460218813c81,
        type: 3}
      propertyPath: m_Color.r
      value: 0.6392157
      objectReference: {fileID: 0}
    - target: {fileID: 772508422548830343, guid: 08af61609e7f3bd4cbb3460218813c81,
        type: 3}
      propertyPath: m_Color.g
      value: 0.69411767
      objectReference: {fileID: 0}
    - target: {fileID: 772508422548830343, guid: 08af61609e7f3bd4cbb3460218813c81,
        type: 3}
      propertyPath: m_Color.b
      value: 0.7764706
      objectReference: {fileID: 0}
    - target: {fileID: 2815037892940378065, guid: 08af61609e7f3bd4cbb3460218813c81,
        type: 3}
      propertyPath: m_Color.r
      value: 1
      objectReference: {fileID: 0}
    - target: {fileID: 2815037892940378065, guid: 08af61609e7f3bd4cbb3460218813c81,
        type: 3}
      propertyPath: m_Color.g
      value: 1
      objectReference: {fileID: 0}
    - target: {fileID: 2815037892940378065, guid: 08af61609e7f3bd4cbb3460218813c81,
        type: 3}
      propertyPath: m_Color.b
      value: 1
      objectReference: {fileID: 0}
    m_RemovedComponents: []
  m_SourcePrefab: {fileID: 100100000, guid: 08af61609e7f3bd4cbb3460218813c81, type: 3}
--- !u!224 &5089406913143280083 stripped
RectTransform:
  m_CorrespondingSourceObject: {fileID: 1465370534062108315, guid: 08af61609e7f3bd4cbb3460218813c81,
    type: 3}
  m_PrefabInstance: {fileID: 5978315353695600456}
  m_PrefabAsset: {fileID: 0}
--- !u!1001 &8161436137658298806
PrefabInstance:
  m_ObjectHideFlags: 0
  serializedVersion: 2
  m_Modification:
    m_TransformParent: {fileID: 5959316615575684605}
    m_Modifications:
    - target: {fileID: 4077677185972990068, guid: 0db6d0d575a0b1f46bfe8b5233c6c03d,
        type: 3}
      propertyPath: m_Name
      value: Rim
      objectReference: {fileID: 0}
    - target: {fileID: 101740789965455303, guid: 0db6d0d575a0b1f46bfe8b5233c6c03d,
        type: 3}
      propertyPath: m_Color.r
      value: 0.8784314
      objectReference: {fileID: 0}
    - target: {fileID: 101740789965455303, guid: 0db6d0d575a0b1f46bfe8b5233c6c03d,
        type: 3}
      propertyPath: m_Color.g
      value: 0.8980392
      objectReference: {fileID: 0}
    - target: {fileID: 101740789965455303, guid: 0db6d0d575a0b1f46bfe8b5233c6c03d,
        type: 3}
      propertyPath: m_Color.b
      value: 0.9254902
      objectReference: {fileID: 0}
    - target: {fileID: 101740789965455303, guid: 0db6d0d575a0b1f46bfe8b5233c6c03d,
        type: 3}
      propertyPath: m_Sprite
      value: 
      objectReference: {fileID: 21300000, guid: dde706cfcde8a4048a16306d52f32488,
        type: 3}
    - target: {fileID: 6861208774261497421, guid: 0db6d0d575a0b1f46bfe8b5233c6c03d,
        type: 3}
      propertyPath: m_LocalPosition.x
      value: 0
      objectReference: {fileID: 0}
    - target: {fileID: 6861208774261497421, guid: 0db6d0d575a0b1f46bfe8b5233c6c03d,
        type: 3}
      propertyPath: m_LocalPosition.y
      value: 0
      objectReference: {fileID: 0}
    - target: {fileID: 6861208774261497421, guid: 0db6d0d575a0b1f46bfe8b5233c6c03d,
        type: 3}
      propertyPath: m_LocalPosition.z
      value: 0
      objectReference: {fileID: 0}
    - target: {fileID: 6861208774261497421, guid: 0db6d0d575a0b1f46bfe8b5233c6c03d,
        type: 3}
      propertyPath: m_LocalRotation.x
      value: 0
      objectReference: {fileID: 0}
    - target: {fileID: 6861208774261497421, guid: 0db6d0d575a0b1f46bfe8b5233c6c03d,
        type: 3}
      propertyPath: m_LocalRotation.y
      value: 0
      objectReference: {fileID: 0}
    - target: {fileID: 6861208774261497421, guid: 0db6d0d575a0b1f46bfe8b5233c6c03d,
        type: 3}
      propertyPath: m_LocalRotation.z
      value: 0
      objectReference: {fileID: 0}
    - target: {fileID: 6861208774261497421, guid: 0db6d0d575a0b1f46bfe8b5233c6c03d,
        type: 3}
      propertyPath: m_LocalRotation.w
      value: 1
      objectReference: {fileID: 0}
    - target: {fileID: 6861208774261497421, guid: 0db6d0d575a0b1f46bfe8b5233c6c03d,
        type: 3}
      propertyPath: m_RootOrder
      value: 4
      objectReference: {fileID: 0}
    - target: {fileID: 6861208774261497421, guid: 0db6d0d575a0b1f46bfe8b5233c6c03d,
        type: 3}
      propertyPath: m_LocalEulerAnglesHint.x
      value: 0
      objectReference: {fileID: 0}
    - target: {fileID: 6861208774261497421, guid: 0db6d0d575a0b1f46bfe8b5233c6c03d,
        type: 3}
      propertyPath: m_LocalEulerAnglesHint.y
      value: 0
      objectReference: {fileID: 0}
    - target: {fileID: 6861208774261497421, guid: 0db6d0d575a0b1f46bfe8b5233c6c03d,
        type: 3}
      propertyPath: m_LocalEulerAnglesHint.z
      value: 0
      objectReference: {fileID: 0}
    - target: {fileID: 6861208774261497421, guid: 0db6d0d575a0b1f46bfe8b5233c6c03d,
        type: 3}
      propertyPath: m_AnchoredPosition.x
      value: 0
      objectReference: {fileID: 0}
    - target: {fileID: 6861208774261497421, guid: 0db6d0d575a0b1f46bfe8b5233c6c03d,
        type: 3}
      propertyPath: m_AnchoredPosition.y
      value: 0
      objectReference: {fileID: 0}
    - target: {fileID: 6861208774261497421, guid: 0db6d0d575a0b1f46bfe8b5233c6c03d,
        type: 3}
      propertyPath: m_SizeDelta.x
      value: 0
      objectReference: {fileID: 0}
    - target: {fileID: 6861208774261497421, guid: 0db6d0d575a0b1f46bfe8b5233c6c03d,
        type: 3}
      propertyPath: m_SizeDelta.y
      value: 0
      objectReference: {fileID: 0}
    - target: {fileID: 6861208774261497421, guid: 0db6d0d575a0b1f46bfe8b5233c6c03d,
        type: 3}
      propertyPath: m_AnchorMin.x
      value: 0
      objectReference: {fileID: 0}
    - target: {fileID: 6861208774261497421, guid: 0db6d0d575a0b1f46bfe8b5233c6c03d,
        type: 3}
      propertyPath: m_AnchorMin.y
      value: 0
      objectReference: {fileID: 0}
    - target: {fileID: 6861208774261497421, guid: 0db6d0d575a0b1f46bfe8b5233c6c03d,
        type: 3}
      propertyPath: m_AnchorMax.x
      value: 1
      objectReference: {fileID: 0}
    - target: {fileID: 6861208774261497421, guid: 0db6d0d575a0b1f46bfe8b5233c6c03d,
        type: 3}
      propertyPath: m_AnchorMax.y
      value: 1
      objectReference: {fileID: 0}
    - target: {fileID: 6861208774261497421, guid: 0db6d0d575a0b1f46bfe8b5233c6c03d,
        type: 3}
      propertyPath: m_Pivot.x
      value: 0.5
      objectReference: {fileID: 0}
    - target: {fileID: 6861208774261497421, guid: 0db6d0d575a0b1f46bfe8b5233c6c03d,
        type: 3}
      propertyPath: m_Pivot.y
      value: 0.5
      objectReference: {fileID: 0}
    m_RemovedComponents: []
  m_SourcePrefab: {fileID: 100100000, guid: 0db6d0d575a0b1f46bfe8b5233c6c03d, type: 3}
--- !u!224 &3347537823964000251 stripped
RectTransform:
  m_CorrespondingSourceObject: {fileID: 6861208774261497421, guid: 0db6d0d575a0b1f46bfe8b5233c6c03d,
    type: 3}
  m_PrefabInstance: {fileID: 8161436137658298806}
  m_PrefabAsset: {fileID: 0}
