%YAML 1.1
%TAG !u! tag:unity3d.com,2011:
--- !u!1 &3044061938722682853
GameObject:
  m_ObjectHideFlags: 0
  m_CorrespondingSourceObject: {fileID: 0}
  m_PrefabInstance: {fileID: 0}
  m_PrefabAsset: {fileID: 0}
  serializedVersion: 6
  m_Component:
  - component: {fileID: 3044061938722682852}
  - component: {fileID: 3044061938722682861}
  - component: {fileID: 3044061938722682862}
  - component: {fileID: 3044061938722682863}
  - component: {fileID: 3044061938722682848}
  - component: {fileID: 3044061938722682849}
  - component: {fileID: 3044061938722682850}
  - component: {fileID: 3044061938722682851}
  m_Layer: 0
  m_Name: View - 5
  m_TagString: Untagged
  m_Icon: {fileID: 0}
  m_NavMeshLayer: 0
  m_StaticEditorFlags: 0
  m_IsActive: 1
--- !u!224 &3044061938722682852
RectTransform:
  m_ObjectHideFlags: 0
  m_CorrespondingSourceObject: {fileID: 0}
  m_PrefabInstance: {fileID: 0}
  m_PrefabAsset: {fileID: 0}
  m_GameObject: {fileID: 3044061938722682853}
  m_LocalRotation: {x: 0, y: 0, z: 0, w: 1}
  m_LocalPosition: {x: 0, y: 0, z: 0}
  m_LocalScale: {x: 1, y: 1, z: 1}
  m_Children:
  - {fileID: 1780407316190096193}
  - {fileID: 8433350065677881405}
  m_Father: {fileID: 0}
  m_RootOrder: 0
  m_LocalEulerAnglesHint: {x: 0, y: 0, z: 0}
  m_AnchorMin: {x: 0.5, y: 0.5}
  m_AnchorMax: {x: 0.5, y: 0.5}
  m_AnchoredPosition: {x: 0, y: 0}
  m_SizeDelta: {x: 640, y: 512}
  m_Pivot: {x: 0.5, y: 0.5}
--- !u!223 &3044061938722682861
Canvas:
  m_ObjectHideFlags: 0
  m_CorrespondingSourceObject: {fileID: 0}
  m_PrefabInstance: {fileID: 0}
  m_PrefabAsset: {fileID: 0}
  m_GameObject: {fileID: 3044061938722682853}
  m_Enabled: 1
  serializedVersion: 3
  m_RenderMode: 2
  m_Camera: {fileID: 0}
  m_PlaneDistance: 100
  m_PixelPerfect: 0
  m_ReceivesEvents: 1
  m_OverrideSorting: 0
  m_OverridePixelPerfect: 0
  m_SortingBucketNormalizedSize: 0
  m_AdditionalShaderChannelsFlag: 25
  m_SortingLayerID: 0
  m_SortingOrder: 0
  m_TargetDisplay: 0
--- !u!114 &3044061938722682862
MonoBehaviour:
  m_ObjectHideFlags: 0
  m_CorrespondingSourceObject: {fileID: 0}
  m_PrefabInstance: {fileID: 0}
  m_PrefabAsset: {fileID: 0}
  m_GameObject: {fileID: 3044061938722682853}
  m_Enabled: 1
  m_EditorHideFlags: 0
  m_Script: {fileID: 1301386320, guid: f70555f144d8491a825f0804e09c671c, type: 3}
  m_Name: 
  m_EditorClassIdentifier: 
  m_IgnoreReversedGraphics: 1
  m_BlockingObjects: 0
  m_BlockingMask:
    serializedVersion: 2
    m_Bits: 4294967295
--- !u!225 &3044061938722682863
CanvasGroup:
  m_ObjectHideFlags: 0
  m_CorrespondingSourceObject: {fileID: 0}
  m_PrefabInstance: {fileID: 0}
  m_PrefabAsset: {fileID: 0}
  m_GameObject: {fileID: 3044061938722682853}
  m_Enabled: 1
  m_Alpha: 1
  m_Interactable: 1
  m_BlocksRaycasts: 1
  m_IgnoreParentGroups: 0
--- !u!114 &3044061938722682848
MonoBehaviour:
  m_ObjectHideFlags: 0
  m_CorrespondingSourceObject: {fileID: 0}
  m_PrefabInstance: {fileID: 0}
  m_PrefabAsset: {fileID: 0}
  m_GameObject: {fileID: 3044061938722682853}
  m_Enabled: 1
  m_EditorHideFlags: 0
  m_Script: {fileID: 11500000, guid: 314affd16bceddb4c99fbaa07de901d9, type: 3}
  m_Name: 
  m_EditorClassIdentifier: 
  DebugMode: 0
  StartPosition: {x: 0, y: 0, z: 0}
  StartRotation: {x: -0, y: 0, z: 0}
  StartScale: {x: 1, y: 1, z: 1}
  StartAlpha: 1
  AutoHideAfterShow: 0
  AutoHideAfterShowDelay: 3
  AutoSelectButtonAfterShow: 0
  BehaviorAtStart: 1
  CustomStartAnchoredPosition: {x: 0, y: 0, z: 0}
  DeselectAnyButtonSelectedOnHide: 0
  DeselectAnyButtonSelectedOnShow: 0
  DisableCanvasWhenHidden: 1
  DisableGameObjectWhenHidden: 1
  DisableGraphicRaycasterWhenHidden: 1
  HideBehavior:
    Animation:
      AnimationType: 2
      Move:
        AnimationType: 2
        Enabled: 0
        From: {x: 0, y: 0, z: 0}
        To: {x: 0, y: 0, z: 0}
        By: {x: 0, y: 0, z: 0}
        UseCustomFromAndTo: 0
        Vibrato: 10
        Elasticity: 1
        NumberOfLoops: -1
        LoopType: 1
        Direction: 3
        CustomPosition: {x: 0, y: 0, z: 0}
        EaseType: 0
        Ease: 26
        AnimationCurve:
          serializedVersion: 2
          m_Curve: []
          m_PreInfinity: 2
          m_PostInfinity: 2
          m_RotationOrder: 4
        StartDelay: 0.2
        Duration: 0.4
      Rotate:
        AnimationType: 2
        Enabled: 0
        From: {x: 0, y: 0, z: 0}
        To: {x: 0, y: 0, z: 0}
        By: {x: 0, y: 0, z: 0}
        UseCustomFromAndTo: 0
        Vibrato: 10
        Elasticity: 1
        NumberOfLoops: -1
        LoopType: 1
        RotateMode: 1
        EaseType: 0
        Ease: 1
        AnimationCurve:
          serializedVersion: 2
          m_Curve: []
          m_PreInfinity: 2
          m_PostInfinity: 2
          m_RotationOrder: 4
        StartDelay: 0
        Duration: 1
      Scale:
        AnimationType: 2
        Enabled: 1
        From: {x: 0, y: 0, z: 0}
        To: {x: 0, y: 0, z: 0}
        By: {x: 0, y: 0, z: 0}
        UseCustomFromAndTo: 0
        Vibrato: 10
        Elasticity: 1
        NumberOfLoops: -1
        LoopType: 1
        EaseType: 0
        Ease: 20
        AnimationCurve:
          serializedVersion: 2
          m_Curve: []
          m_PreInfinity: 2
          m_PostInfinity: 2
          m_RotationOrder: 4
        StartDelay: 0
        Duration: 0.4
      Fade:
        AnimationType: 2
        Enabled: 1
        From: 0
        To: 0
        By: 0.5
        UseCustomFromAndTo: 0
        NumberOfLoops: -1
        LoopType: 1
        EaseType: 0
        Ease: 1
        AnimationCurve:
          serializedVersion: 2
          m_Curve: []
          m_PreInfinity: 2
          m_PostInfinity: 2
          m_RotationOrder: 4
        StartDelay: 0.2
        Duration: 0.2
    AutoStartLoopAnimation: 1
    LoadSelectedPresetAtRuntime: 0
    InstantAnimation: 0
    OnFinished:
      AnimatorEvents: []
      Effect:
        AutoSort: 1
        Behavior: 0
        CustomSortingOrder: 0
        SortingSteps: 1
        ParticleSystem: {fileID: 0}
        StopBehavior: 1
        CustomSortingLayer: Default
      Event:
        m_PersistentCalls:
          m_Calls: []
        m_TypeName: UnityEngine.Events.UnityEvent, UnityEngine.CoreModule, Version=0.0.0.0,
          Culture=neutral, PublicKeyToken=null
      GameEvents: []
      SoundData:
        SoundSource: 0
        DatabaseName: General
        SoundName: No Sound
        AudioClip: {fileID: 0}
        OutputAudioMixerGroup: {fileID: 0}
    OnStart:
      AnimatorEvents: []
      Effect:
        AutoSort: 1
        Behavior: 0
        CustomSortingOrder: 0
        SortingSteps: 1
        ParticleSystem: {fileID: 0}
        StopBehavior: 1
        CustomSortingLayer: Default
      Event:
        m_PersistentCalls:
          m_Calls: []
        m_TypeName: UnityEngine.Events.UnityEvent, UnityEngine.CoreModule, Version=0.0.0.0,
          Culture=neutral, PublicKeyToken=null
      GameEvents: []
      SoundData:
        SoundSource: 0
        DatabaseName: General
        SoundName: No Sound
        AudioClip: {fileID: 0}
        OutputAudioMixerGroup: {fileID: 0}
    PresetCategory: Uncategorized
    PresetName: Default
  HideProgressor: {fileID: 3044061938722682851}
  LoopBehavior:
    Animation:
      AnimationType: 3
      Move:
        AnimationType: 3
        Enabled: 0
        From: {x: 0, y: 0, z: 0}
        To: {x: 0, y: 0, z: 0}
        By: {x: 0, y: 0, z: 0}
        UseCustomFromAndTo: 0
        Vibrato: 10
        Elasticity: 1
        NumberOfLoops: -1
        LoopType: 1
        Direction: 0
        CustomPosition: {x: 0, y: 0, z: 0}
        EaseType: 0
        Ease: 1
        AnimationCurve:
          serializedVersion: 2
          m_Curve: []
          m_PreInfinity: 2
          m_PostInfinity: 2
          m_RotationOrder: 4
        StartDelay: 0
        Duration: 1
      Rotate:
        AnimationType: 3
        Enabled: 0
        From: {x: 0, y: 0, z: 0}
        To: {x: 0, y: 0, z: 0}
        By: {x: 0, y: 0, z: 0}
        UseCustomFromAndTo: 0
        Vibrato: 10
        Elasticity: 1
        NumberOfLoops: -1
        LoopType: 1
        RotateMode: 1
        EaseType: 0
        Ease: 1
        AnimationCurve:
          serializedVersion: 2
          m_Curve: []
          m_PreInfinity: 2
          m_PostInfinity: 2
          m_RotationOrder: 4
        StartDelay: 0
        Duration: 1
      Scale:
        AnimationType: 3
        Enabled: 0
        From: {x: 0, y: 0, z: 0}
        To: {x: 0, y: 0, z: 0}
        By: {x: 0, y: 0, z: 0}
        UseCustomFromAndTo: 0
        Vibrato: 10
        Elasticity: 1
        NumberOfLoops: -1
        LoopType: 1
        EaseType: 0
        Ease: 1
        AnimationCurve:
          serializedVersion: 2
          m_Curve: []
          m_PreInfinity: 2
          m_PostInfinity: 2
          m_RotationOrder: 4
        StartDelay: 0
        Duration: 1
      Fade:
        AnimationType: 3
        Enabled: 0
        From: 0
        To: 0
        By: 0.5
        UseCustomFromAndTo: 0
        NumberOfLoops: -1
        LoopType: 1
        EaseType: 0
        Ease: 1
        AnimationCurve:
          serializedVersion: 2
          m_Curve: []
          m_PreInfinity: 2
          m_PostInfinity: 2
          m_RotationOrder: 4
        StartDelay: 0
        Duration: 1
    AutoStartLoopAnimation: 1
    LoadSelectedPresetAtRuntime: 0
    InstantAnimation: 0
    OnFinished:
      AnimatorEvents: []
      Effect:
        AutoSort: 1
        Behavior: 0
        CustomSortingOrder: 0
        SortingSteps: 1
        ParticleSystem: {fileID: 0}
        StopBehavior: 1
        CustomSortingLayer: Default
      Event:
        m_PersistentCalls:
          m_Calls: []
        m_TypeName: UnityEngine.Events.UnityEvent, UnityEngine.CoreModule, Version=0.0.0.0,
          Culture=neutral, PublicKeyToken=null
      GameEvents: []
      SoundData:
        SoundSource: 0
        DatabaseName: General
        SoundName: No Sound
        AudioClip: {fileID: 0}
        OutputAudioMixerGroup: {fileID: 0}
    OnStart:
      AnimatorEvents: []
      Effect:
        AutoSort: 1
        Behavior: 0
        CustomSortingOrder: 0
        SortingSteps: 1
        ParticleSystem: {fileID: 0}
        StopBehavior: 1
        CustomSortingLayer: Default
      Event:
        m_PersistentCalls:
          m_Calls: []
        m_TypeName: UnityEngine.Events.UnityEvent, UnityEngine.CoreModule, Version=0.0.0.0,
          Culture=neutral, PublicKeyToken=null
      GameEvents: []
      SoundData:
        SoundSource: 0
        DatabaseName: General
        SoundName: No Sound
        AudioClip: {fileID: 0}
        OutputAudioMixerGroup: {fileID: 0}
    PresetCategory: Uncategorized
    PresetName: Default
  OnInverseVisibilityChanged:
    m_PersistentCalls:
      m_Calls: []
    m_TypeName: Doozy.Engine.Progress.ProgressEvent, Assembly-CSharp, Version=0.0.0.0,
      Culture=neutral, PublicKeyToken=null
  OnVisibilityChanged:
    m_PersistentCalls:
      m_Calls: []
    m_TypeName: Doozy.Engine.Progress.ProgressEvent, Assembly-CSharp, Version=0.0.0.0,
      Culture=neutral, PublicKeyToken=null
  SelectedButton: {fileID: 0}
  ShowBehavior:
    Animation:
      AnimationType: 1
      Move:
        AnimationType: 1
        Enabled: 0
        From: {x: 0, y: 0, z: 0}
        To: {x: 0, y: 0, z: 0}
        By: {x: 0, y: 0, z: 0}
        UseCustomFromAndTo: 0
        Vibrato: 10
        Elasticity: 1
        NumberOfLoops: -1
        LoopType: 1
        Direction: 0
        CustomPosition: {x: 0, y: 0, z: 0}
        EaseType: 0
        Ease: 1
        AnimationCurve:
          serializedVersion: 2
          m_Curve: []
          m_PreInfinity: 2
          m_PostInfinity: 2
          m_RotationOrder: 4
        StartDelay: 0
        Duration: 1
      Rotate:
        AnimationType: 1
        Enabled: 0
        From: {x: 0, y: 0, z: 0}
        To: {x: 0, y: 0, z: 0}
        By: {x: 0, y: 0, z: 0}
        UseCustomFromAndTo: 0
        Vibrato: 10
        Elasticity: 1
        NumberOfLoops: -1
        LoopType: 1
        RotateMode: 1
        EaseType: 0
        Ease: 1
        AnimationCurve:
          serializedVersion: 2
          m_Curve: []
          m_PreInfinity: 2
          m_PostInfinity: 2
          m_RotationOrder: 4
        StartDelay: 0
        Duration: 1
      Scale:
        AnimationType: 1
        Enabled: 1
        From: {x: 0, y: 0, z: 0}
        To: {x: 0, y: 0, z: 0}
        By: {x: 0, y: 0, z: 0}
        UseCustomFromAndTo: 0
        Vibrato: 10
        Elasticity: 1
        NumberOfLoops: -1
        LoopType: 1
        EaseType: 0
        Ease: 21
        AnimationCurve:
          serializedVersion: 2
          m_Curve: []
          m_PreInfinity: 2
          m_PostInfinity: 2
          m_RotationOrder: 4
        StartDelay: 0
        Duration: 0.4
      Fade:
        AnimationType: 1
        Enabled: 1
        From: 0
        To: 0
        By: 0.5
        UseCustomFromAndTo: 0
        NumberOfLoops: -1
        LoopType: 1
        EaseType: 0
        Ease: 1
        AnimationCurve:
          serializedVersion: 2
          m_Curve: []
          m_PreInfinity: 2
          m_PostInfinity: 2
          m_RotationOrder: 4
        StartDelay: 0
        Duration: 0.2
    AutoStartLoopAnimation: 1
    LoadSelectedPresetAtRuntime: 0
    InstantAnimation: 0
    OnFinished:
      AnimatorEvents: []
      Effect:
        AutoSort: 1
        Behavior: 0
        CustomSortingOrder: 0
        SortingSteps: 1
        ParticleSystem: {fileID: 0}
        StopBehavior: 1
        CustomSortingLayer: Default
      Event:
        m_PersistentCalls:
          m_Calls: []
        m_TypeName: UnityEngine.Events.UnityEvent, UnityEngine.CoreModule, Version=0.0.0.0,
          Culture=neutral, PublicKeyToken=null
      GameEvents: []
      SoundData:
        SoundSource: 0
        DatabaseName: General
        SoundName: No Sound
        AudioClip: {fileID: 0}
        OutputAudioMixerGroup: {fileID: 0}
    OnStart:
      AnimatorEvents: []
      Effect:
        AutoSort: 1
        Behavior: 0
        CustomSortingOrder: 0
        SortingSteps: 1
        ParticleSystem: {fileID: 0}
        StopBehavior: 1
        CustomSortingLayer: Default
      Event:
        m_PersistentCalls:
          m_Calls: []
        m_TypeName: UnityEngine.Events.UnityEvent, UnityEngine.CoreModule, Version=0.0.0.0,
          Culture=neutral, PublicKeyToken=null
      GameEvents: []
      SoundData:
        SoundSource: 0
        DatabaseName: Neumorph One
        SoundName: Swish
        AudioClip: {fileID: 0}
        OutputAudioMixerGroup: {fileID: 0}
    PresetCategory: Uncategorized
    PresetName: Default
  ShowProgressor: {fileID: 0}
  TargetOrientation: 2
  UpdateHideProgressorOnShow: 1
  UpdateShowProgressorOnHide: 0
  UseCustomStartAnchoredPosition: 1
  ViewCategory: General
  ViewName: Unnamed
--- !u!95 &3044061938722682849
Animator:
  serializedVersion: 3
  m_ObjectHideFlags: 0
  m_CorrespondingSourceObject: {fileID: 0}
  m_PrefabInstance: {fileID: 0}
  m_PrefabAsset: {fileID: 0}
  m_GameObject: {fileID: 3044061938722682853}
  m_Enabled: 1
  m_Avatar: {fileID: 0}
  m_Controller: {fileID: 9100000, guid: dab3311628b97ea4dbb3f30ff0a8da25, type: 2}
  m_CullingMode: 0
  m_UpdateMode: 0
  m_ApplyRootMotion: 0
  m_LinearVelocityBlending: 0
  m_WarningMessage: 
  m_HasTransformHierarchy: 1
  m_AllowConstantClipSamplingOptimization: 1
  m_KeepAnimatorControllerStateOnDisable: 0
--- !u!114 &3044061938722682850
MonoBehaviour:
  m_ObjectHideFlags: 0
  m_CorrespondingSourceObject: {fileID: 0}
  m_PrefabInstance: {fileID: 0}
  m_PrefabAsset: {fileID: 0}
  m_GameObject: {fileID: 3044061938722682853}
  m_Enabled: 1
  m_EditorHideFlags: 0
  m_Script: {fileID: 11500000, guid: 779d2338e8d61bc4f9e65969cd74fb0f, type: 3}
  m_Name: 
  m_EditorClassIdentifier: 
  Animator: {fileID: 3044061938722682849}
  ParameterName: Progress
  TargetProgress: 0
--- !u!114 &3044061938722682851
MonoBehaviour:
  m_ObjectHideFlags: 0
  m_CorrespondingSourceObject: {fileID: 0}
  m_PrefabInstance: {fileID: 0}
  m_PrefabAsset: {fileID: 0}
  m_GameObject: {fileID: 3044061938722682853}
  m_Enabled: 1
  m_EditorHideFlags: 0
  m_Script: {fileID: 11500000, guid: 0dd4fcd1a439fed4084f8b519848b636, type: 3}
  m_Name: 
  m_EditorClassIdentifier: 
  DebugMode: 0
  ProgressTargets:
  - {fileID: 3044061938722682850}
  AnimateValue: 0
  AnimationDuration: 0.5
  AnimationEase: 1
  AnimationIgnoresUnityTimescale: 1
  OnEnableResetValue: 1
  OnDisableResetValue: 0
  CustomResetValue: 0
  OnValueChanged:
    m_PersistentCalls:
      m_Calls: []
    m_TypeName: Doozy.Engine.Progress.ProgressEvent, Assembly-CSharp, Version=0.0.0.0,
      Culture=neutral, PublicKeyToken=null
  OnProgressChanged:
    m_PersistentCalls:
      m_Calls: []
    m_TypeName: Doozy.Engine.Progress.ProgressEvent, Assembly-CSharp, Version=0.0.0.0,
      Culture=neutral, PublicKeyToken=null
  OnInverseProgressChanged:
    m_PersistentCalls:
      m_Calls: []
    m_TypeName: Doozy.Engine.Progress.ProgressEvent, Assembly-CSharp, Version=0.0.0.0,
      Culture=neutral, PublicKeyToken=null
  m_minValue: 0
  m_maxValue: 1
  m_wholeNumbers: 0
  m_currentValue: 0
--- !u!1 &3044061940110463074
GameObject:
  m_ObjectHideFlags: 0
  m_CorrespondingSourceObject: {fileID: 0}
  m_PrefabInstance: {fileID: 0}
  m_PrefabAsset: {fileID: 0}
  serializedVersion: 6
  m_Component:
  - component: {fileID: 3044061940110463073}
  - component: {fileID: 3044061940110463072}
  m_Layer: 0
  m_Name: Buttons
  m_TagString: Untagged
  m_Icon: {fileID: 0}
  m_NavMeshLayer: 0
  m_StaticEditorFlags: 0
  m_IsActive: 1
--- !u!224 &3044061940110463073
RectTransform:
  m_ObjectHideFlags: 0
  m_CorrespondingSourceObject: {fileID: 0}
  m_PrefabInstance: {fileID: 0}
  m_PrefabAsset: {fileID: 0}
  m_GameObject: {fileID: 3044061940110463074}
  m_LocalRotation: {x: 0, y: 0, z: 0, w: 1}
  m_LocalPosition: {x: 0, y: 0, z: 0}
  m_LocalScale: {x: 1, y: 1, z: 1}
  m_Children:
  - {fileID: 8801168852542548320}
  - {fileID: 8801168852410358378}
  m_Father: {fileID: 3707031743010667032}
  m_RootOrder: 2
  m_LocalEulerAnglesHint: {x: 0, y: 0, z: 0}
  m_AnchorMin: {x: 0, y: 0}
  m_AnchorMax: {x: 1, y: 1}
  m_AnchoredPosition: {x: 0, y: 0}
  m_SizeDelta: {x: 0, y: 0}
  m_Pivot: {x: 0.5, y: 0.5}
--- !u!225 &3044061940110463072
CanvasGroup:
  m_ObjectHideFlags: 0
  m_CorrespondingSourceObject: {fileID: 0}
  m_PrefabInstance: {fileID: 0}
  m_PrefabAsset: {fileID: 0}
  m_GameObject: {fileID: 3044061940110463074}
  m_Enabled: 1
  m_Alpha: 1
  m_Interactable: 1
  m_BlocksRaycasts: 1
  m_IgnoreParentGroups: 0
--- !u!114 &3044061940173097167
MonoBehaviour:
  m_ObjectHideFlags: 0
  m_CorrespondingSourceObject: {fileID: 0}
  m_PrefabInstance: {fileID: 0}
  m_PrefabAsset: {fileID: 0}
  m_GameObject: {fileID: 4942619515071102475}
  m_Enabled: 1
  m_EditorHideFlags: 0
  m_Script: {fileID: -1200242548, guid: f70555f144d8491a825f0804e09c671c, type: 3}
  m_Name: 
  m_EditorClassIdentifier: 
  m_ShowMaskGraphic: 1
--- !u!1 &3457815630275322348
GameObject:
  m_ObjectHideFlags: 0
  m_CorrespondingSourceObject: {fileID: 0}
  m_PrefabInstance: {fileID: 0}
  m_PrefabAsset: {fileID: 0}
  serializedVersion: 6
  m_Component:
  - component: {fileID: 2814577127600326970}
  - component: {fileID: 8850734558918249142}
  - component: {fileID: 9130784563065692266}
  - component: {fileID: 3657992084653739086}
  m_Layer: 0
  m_Name: Subtitle
  m_TagString: Untagged
  m_Icon: {fileID: 0}
  m_NavMeshLayer: 0
  m_StaticEditorFlags: 0
  m_IsActive: 1
--- !u!224 &2814577127600326970
RectTransform:
  m_ObjectHideFlags: 0
  m_CorrespondingSourceObject: {fileID: 0}
  m_PrefabInstance: {fileID: 0}
  m_PrefabAsset: {fileID: 0}
  m_GameObject: {fileID: 3457815630275322348}
  m_LocalRotation: {x: -0, y: -0, z: -0, w: 1}
  m_LocalPosition: {x: 0, y: 0, z: 0}
  m_LocalScale: {x: 1, y: 1, z: 1}
  m_Children: []
  m_Father: {fileID: 3707031743010667032}
  m_RootOrder: 1
  m_LocalEulerAnglesHint: {x: 0, y: 0, z: 0}
  m_AnchorMin: {x: 0, y: 0}
  m_AnchorMax: {x: 1, y: 1}
  m_AnchoredPosition: {x: 144, y: -24}
  m_SizeDelta: {x: -352, y: -304}
  m_Pivot: {x: 0.5, y: 0.5}
--- !u!222 &8850734558918249142
CanvasRenderer:
  m_ObjectHideFlags: 0
  m_CorrespondingSourceObject: {fileID: 0}
  m_PrefabInstance: {fileID: 0}
  m_PrefabAsset: {fileID: 0}
  m_GameObject: {fileID: 3457815630275322348}
  m_CullTransparentMesh: 0
--- !u!114 &9130784563065692266
MonoBehaviour:
  m_ObjectHideFlags: 0
  m_CorrespondingSourceObject: {fileID: 0}
  m_PrefabInstance: {fileID: 0}
  m_PrefabAsset: {fileID: 0}
  m_GameObject: {fileID: 3457815630275322348}
  m_Enabled: 1
  m_EditorHideFlags: 0
  m_Script: {fileID: 11500000, guid: f4688fdb7df04437aeb418b961361dc5, type: 3}
  m_Name: 
  m_EditorClassIdentifier: 
  m_Material: {fileID: 0}
  m_Color: {r: 1, g: 1, b: 1, a: 1}
  m_RaycastTarget: 1
  m_OnCullStateChanged:
    m_PersistentCalls:
      m_Calls: []
    m_TypeName: UnityEngine.UI.MaskableGraphic+CullStateChangedEvent, UnityEngine.UI,
      Version=1.0.0.0, Culture=neutral, PublicKeyToken=null
  m_text: Fusce aliquam diam ut felis lobortis rutrum. Vivamus tristique justo in
    turpis tristique maximus. Praesent bibendum ligula vitae mauris tristique volutpat.
    Maecenas semper lacus id enim dictum gravida.
  m_isRightToLeft: 0
  m_fontAsset: {fileID: 11400000, guid: 643aebd7124d3c34bb062c5a60ebb5a8, type: 2}
  m_sharedMaterial: {fileID: 4835089367266696174, guid: 643aebd7124d3c34bb062c5a60ebb5a8,
    type: 2}
  m_fontSharedMaterials: []
  m_fontMaterial: {fileID: 0}
  m_fontMaterials: []
  m_fontColor32:
    serializedVersion: 2
    rgba: 4288646787
  m_fontColor: {r: 0.5137255, g: 0.5568628, b: 0.62352943, a: 1}
  m_enableVertexGradient: 0
  m_colorMode: 3
  m_fontColorGradient:
    topLeft: {r: 1, g: 1, b: 1, a: 1}
    topRight: {r: 1, g: 1, b: 1, a: 1}
    bottomLeft: {r: 1, g: 1, b: 1, a: 1}
    bottomRight: {r: 1, g: 1, b: 1, a: 1}
  m_fontColorGradientPreset: {fileID: 0}
  m_spriteAsset: {fileID: 0}
  m_tintAllSprites: 0
  m_overrideHtmlColors: 0
  m_faceColor:
    serializedVersion: 2
    rgba: 4294967295
  m_outlineColor:
    serializedVersion: 2
    rgba: 4278190080
  m_fontSize: 16
  m_fontSizeBase: 16
  m_fontWeight: 400
  m_enableAutoSizing: 0
  m_fontSizeMin: 8
  m_fontSizeMax: 16
  m_fontStyle: 0
  m_textAlignment: 264
  m_characterSpacing: 0
  m_wordSpacing: 0
  m_lineSpacing: 0
  m_lineSpacingMax: 0
  m_paragraphSpacing: 0
  m_charWidthMaxAdj: 0
  m_enableWordWrapping: 1
  m_wordWrappingRatios: 0.4
  m_overflowMode: 1
  m_firstOverflowCharacterIndex: -1
  m_linkedTextComponent: {fileID: 0}
  m_isLinkedTextComponent: 0
  m_isTextTruncated: 0
  m_enableKerning: 1
  m_enableExtraPadding: 0
  checkPaddingRequired: 0
  m_isRichText: 1
  m_parseCtrlCharacters: 1
  m_isOrthographic: 1
  m_isCullingEnabled: 0
  m_ignoreRectMaskCulling: 0
  m_ignoreCulling: 1
  m_horizontalMapping: 0
  m_verticalMapping: 0
  m_uvLineOffset: 0
  m_geometrySortingOrder: 0
  m_VertexBufferAutoSizeReduction: 1
  m_firstVisibleCharacter: 0
  m_useMaxVisibleDescender: 1
  m_pageToDisplay: 1
  m_margin: {x: 0, y: 0, z: 0, w: 0}
  m_textInfo:
    textComponent: {fileID: 9130784563065692266}
    characterCount: 201
    spriteCount: 0
    spaceCount: 27
    wordCount: 28
    linkCount: 0
    lineCount: 5
    pageCount: 1
    materialCount: 1
  m_isUsingLegacyAnimationComponent: 0
  m_isVolumetricText: 0
  m_spriteAnimator: {fileID: 0}
  m_hasFontAssetChanged: 0
  m_subTextObjects:
  - {fileID: 0}
  - {fileID: 0}
  - {fileID: 0}
  - {fileID: 0}
  - {fileID: 0}
  - {fileID: 0}
  - {fileID: 0}
  - {fileID: 0}
  m_baseMaterial: {fileID: 0}
  m_maskOffset: {x: 0, y: 0, z: 0, w: 0}
--- !u!114 &3657992084653739086
MonoBehaviour:
  m_ObjectHideFlags: 0
  m_CorrespondingSourceObject: {fileID: 0}
  m_PrefabInstance: {fileID: 0}
  m_PrefabAsset: {fileID: 0}
  m_GameObject: {fileID: 3457815630275322348}
  m_Enabled: 1
  m_EditorHideFlags: 0
  m_Script: {fileID: 11500000, guid: 8f34e6c94be345baaafed933eb7531ca, type: 3}
  m_Name: 
  m_EditorClassIdentifier: 
  ThemeIdSerializedGuid: 4970eed67e2b864e9e16a851bb1066cb
  VariantIdSerializedGuid: 
  PropertyIdSerializedGuid: 2c3d61b82e5f674f9dab31c31fe71403
  TextMeshPro: {fileID: 9130784563065692266}
  OverrideAlpha: 0
  Alpha: 0
--- !u!1 &8478538453421475118
GameObject:
  m_ObjectHideFlags: 0
  m_CorrespondingSourceObject: {fileID: 0}
  m_PrefabInstance: {fileID: 0}
  m_PrefabAsset: {fileID: 0}
  serializedVersion: 6
  m_Component:
  - component: {fileID: 3416493106144715410}
  - component: {fileID: 4729948499692076999}
  - component: {fileID: 5258382342867372975}
  - component: {fileID: 2043705646554931535}
  m_Layer: 0
  m_Name: Title
  m_TagString: Untagged
  m_Icon: {fileID: 0}
  m_NavMeshLayer: 0
  m_StaticEditorFlags: 0
  m_IsActive: 1
--- !u!224 &3416493106144715410
RectTransform:
  m_ObjectHideFlags: 0
  m_CorrespondingSourceObject: {fileID: 0}
  m_PrefabInstance: {fileID: 0}
  m_PrefabAsset: {fileID: 0}
  m_GameObject: {fileID: 8478538453421475118}
  m_LocalRotation: {x: -0, y: -0, z: -0, w: 1}
  m_LocalPosition: {x: 0, y: 0, z: 0}
  m_LocalScale: {x: 1, y: 1, z: 1}
  m_Children: []
  m_Father: {fileID: 3707031743010667032}
  m_RootOrder: 0
  m_LocalEulerAnglesHint: {x: 0, y: 0, z: 0}
  m_AnchorMin: {x: 0, y: 0}
  m_AnchorMax: {x: 1, y: 1}
  m_AnchoredPosition: {x: 144, y: 104}
  m_SizeDelta: {x: -352, y: -464}
  m_Pivot: {x: 0.5, y: 0.5}
--- !u!222 &4729948499692076999
CanvasRenderer:
  m_ObjectHideFlags: 0
  m_CorrespondingSourceObject: {fileID: 0}
  m_PrefabInstance: {fileID: 0}
  m_PrefabAsset: {fileID: 0}
  m_GameObject: {fileID: 8478538453421475118}
  m_CullTransparentMesh: 0
--- !u!114 &5258382342867372975
MonoBehaviour:
  m_ObjectHideFlags: 0
  m_CorrespondingSourceObject: {fileID: 0}
  m_PrefabInstance: {fileID: 0}
  m_PrefabAsset: {fileID: 0}
  m_GameObject: {fileID: 8478538453421475118}
  m_Enabled: 1
  m_EditorHideFlags: 0
  m_Script: {fileID: 11500000, guid: f4688fdb7df04437aeb418b961361dc5, type: 3}
  m_Name: 
  m_EditorClassIdentifier: 
  m_Material: {fileID: 0}
  m_Color: {r: 1, g: 1, b: 1, a: 1}
  m_RaycastTarget: 1
  m_OnCullStateChanged:
    m_PersistentCalls:
      m_Calls: []
    m_TypeName: UnityEngine.UI.MaskableGraphic+CullStateChangedEvent, UnityEngine.UI,
      Version=1.0.0.0, Culture=neutral, PublicKeyToken=null
  m_text: Lorem Ipsum
  m_isRightToLeft: 0
  m_fontAsset: {fileID: 11400000, guid: 643aebd7124d3c34bb062c5a60ebb5a8, type: 2}
  m_sharedMaterial: {fileID: 4835089367266696174, guid: 643aebd7124d3c34bb062c5a60ebb5a8,
    type: 2}
  m_fontSharedMaterials: []
  m_fontMaterial: {fileID: 0}
  m_fontMaterials: []
  m_fontColor32:
    serializedVersion: 2
    rgba: 4281807149
  m_fontColor: {r: 0.17911176, g: 0.19398901, b: 0.21698111, a: 1}
  m_enableVertexGradient: 0
  m_colorMode: 3
  m_fontColorGradient:
    topLeft: {r: 1, g: 1, b: 1, a: 1}
    topRight: {r: 1, g: 1, b: 1, a: 1}
    bottomLeft: {r: 1, g: 1, b: 1, a: 1}
    bottomRight: {r: 1, g: 1, b: 1, a: 1}
  m_fontColorGradientPreset: {fileID: 0}
  m_spriteAsset: {fileID: 0}
  m_tintAllSprites: 0
  m_overrideHtmlColors: 0
  m_faceColor:
    serializedVersion: 2
    rgba: 4294967295
  m_outlineColor:
    serializedVersion: 2
    rgba: 4278190080
  m_fontSize: 28
  m_fontSizeBase: 28
  m_fontWeight: 400
  m_enableAutoSizing: 0
  m_fontSizeMin: 12
  m_fontSizeMax: 18
  m_fontStyle: 0
  m_textAlignment: 257
  m_characterSpacing: 0
  m_wordSpacing: 0
  m_lineSpacing: 0
  m_lineSpacingMax: 0
  m_paragraphSpacing: 0
  m_charWidthMaxAdj: 0
  m_enableWordWrapping: 0
  m_wordWrappingRatios: 0.4
  m_overflowMode: 1
  m_firstOverflowCharacterIndex: -1
  m_linkedTextComponent: {fileID: 0}
  m_isLinkedTextComponent: 0
  m_isTextTruncated: 0
  m_enableKerning: 1
  m_enableExtraPadding: 0
  checkPaddingRequired: 0
  m_isRichText: 1
  m_parseCtrlCharacters: 1
  m_isOrthographic: 1
  m_isCullingEnabled: 0
  m_ignoreRectMaskCulling: 0
  m_ignoreCulling: 1
  m_horizontalMapping: 0
  m_verticalMapping: 0
  m_uvLineOffset: 0
  m_geometrySortingOrder: 0
  m_VertexBufferAutoSizeReduction: 1
  m_firstVisibleCharacter: 0
  m_useMaxVisibleDescender: 1
  m_pageToDisplay: 1
  m_margin: {x: 0, y: 0, z: 0, w: 0}
  m_textInfo:
    textComponent: {fileID: 5258382342867372975}
    characterCount: 11
    spriteCount: 0
    spaceCount: 1
    wordCount: 2
    linkCount: 0
    lineCount: 1
    pageCount: 1
    materialCount: 1
  m_isUsingLegacyAnimationComponent: 0
  m_isVolumetricText: 0
  m_spriteAnimator: {fileID: 0}
  m_hasFontAssetChanged: 0
  m_subTextObjects:
  - {fileID: 0}
  - {fileID: 0}
  - {fileID: 0}
  - {fileID: 0}
  - {fileID: 0}
  - {fileID: 0}
  - {fileID: 0}
  - {fileID: 0}
  m_baseMaterial: {fileID: 0}
  m_maskOffset: {x: 0, y: 0, z: 0, w: 0}
--- !u!114 &2043705646554931535
MonoBehaviour:
  m_ObjectHideFlags: 0
  m_CorrespondingSourceObject: {fileID: 0}
  m_PrefabInstance: {fileID: 0}
  m_PrefabAsset: {fileID: 0}
  m_GameObject: {fileID: 8478538453421475118}
  m_Enabled: 1
  m_EditorHideFlags: 0
  m_Script: {fileID: 11500000, guid: 8f34e6c94be345baaafed933eb7531ca, type: 3}
  m_Name: 
  m_EditorClassIdentifier: 
  ThemeIdSerializedGuid: 4970eed67e2b864e9e16a851bb1066cb
  VariantIdSerializedGuid: 
  PropertyIdSerializedGuid: 819655143e83ec45a23d672ee8116674
  TextMeshPro: {fileID: 5258382342867372975}
  OverrideAlpha: 0
  Alpha: 0
--- !u!1 &8801168852410358379
GameObject:
  m_ObjectHideFlags: 0
  m_CorrespondingSourceObject: {fileID: 0}
  m_PrefabInstance: {fileID: 0}
  m_PrefabAsset: {fileID: 0}
  serializedVersion: 6
  m_Component:
  - component: {fileID: 8801168852410358378}
  m_Layer: 0
  m_Name: Bottom
  m_TagString: Untagged
  m_Icon: {fileID: 0}
  m_NavMeshLayer: 0
  m_StaticEditorFlags: 0
  m_IsActive: 1
--- !u!224 &8801168852410358378
RectTransform:
  m_ObjectHideFlags: 0
  m_CorrespondingSourceObject: {fileID: 0}
  m_PrefabInstance: {fileID: 0}
  m_PrefabAsset: {fileID: 0}
  m_GameObject: {fileID: 8801168852410358379}
  m_LocalRotation: {x: -0, y: -0, z: -0, w: 1}
  m_LocalPosition: {x: 0, y: 0, z: 0}
  m_LocalScale: {x: 1, y: 1, z: 1}
  m_Children:
  - {fileID: 2222240715434178657}
  m_Father: {fileID: 3044061940110463073}
  m_RootOrder: 1
  m_LocalEulerAnglesHint: {x: 0, y: 0, z: 0}
  m_AnchorMin: {x: 0.5, y: 0}
  m_AnchorMax: {x: 0.5, y: 0}
  m_AnchoredPosition: {x: 0, y: 64}
  m_SizeDelta: {x: 256, y: 64}
  m_Pivot: {x: 0.5, y: 0.5}
--- !u!1 &8801168852542548321
GameObject:
  m_ObjectHideFlags: 0
  m_CorrespondingSourceObject: {fileID: 0}
  m_PrefabInstance: {fileID: 0}
  m_PrefabAsset: {fileID: 0}
  serializedVersion: 6
  m_Component:
  - component: {fileID: 8801168852542548320}
  m_Layer: 0
  m_Name: Top
  m_TagString: Untagged
  m_Icon: {fileID: 0}
  m_NavMeshLayer: 0
  m_StaticEditorFlags: 0
  m_IsActive: 1
--- !u!224 &8801168852542548320
RectTransform:
  m_ObjectHideFlags: 0
  m_CorrespondingSourceObject: {fileID: 0}
  m_PrefabInstance: {fileID: 0}
  m_PrefabAsset: {fileID: 0}
  m_GameObject: {fileID: 8801168852542548321}
  m_LocalRotation: {x: -0, y: -0, z: -0, w: 1}
  m_LocalPosition: {x: 0, y: 0, z: 0}
  m_LocalScale: {x: 1, y: 1, z: 1}
  m_Children:
  - {fileID: 5556063733031556847}
  - {fileID: 8785005718400235304}
  m_Father: {fileID: 3044061940110463073}
  m_RootOrder: 0
  m_LocalEulerAnglesHint: {x: 0, y: 0, z: 0}
  m_AnchorMin: {x: 0, y: 1}
  m_AnchorMax: {x: 1, y: 1}
  m_AnchoredPosition: {x: 0, y: -48}
  m_SizeDelta: {x: -80, y: 64}
  m_Pivot: {x: 0.5, y: 0.5}
--- !u!1001 &207870156493964329
PrefabInstance:
  m_ObjectHideFlags: 0
  serializedVersion: 2
  m_Modification:
    m_TransformParent: {fileID: 3044061938722682852}
    m_Modifications:
    - target: {fileID: 3353313277675267151, guid: 33857862b9b36974b8c7e7cd21e64894,
        type: 3}
      propertyPath: m_Name
      value: Card - Rounded - 512x512 Out
      objectReference: {fileID: 0}
    - target: {fileID: 1898205443461623656, guid: 33857862b9b36974b8c7e7cd21e64894,
        type: 3}
      propertyPath: m_LocalPosition.x
      value: 0
      objectReference: {fileID: 0}
    - target: {fileID: 1898205443461623656, guid: 33857862b9b36974b8c7e7cd21e64894,
        type: 3}
      propertyPath: m_LocalPosition.y
      value: 0
      objectReference: {fileID: 0}
    - target: {fileID: 1898205443461623656, guid: 33857862b9b36974b8c7e7cd21e64894,
        type: 3}
      propertyPath: m_LocalPosition.z
      value: 0
      objectReference: {fileID: 0}
    - target: {fileID: 1898205443461623656, guid: 33857862b9b36974b8c7e7cd21e64894,
        type: 3}
      propertyPath: m_LocalRotation.x
      value: -0
      objectReference: {fileID: 0}
    - target: {fileID: 1898205443461623656, guid: 33857862b9b36974b8c7e7cd21e64894,
        type: 3}
      propertyPath: m_LocalRotation.y
      value: -0
      objectReference: {fileID: 0}
    - target: {fileID: 1898205443461623656, guid: 33857862b9b36974b8c7e7cd21e64894,
        type: 3}
      propertyPath: m_LocalRotation.z
      value: -0
      objectReference: {fileID: 0}
    - target: {fileID: 1898205443461623656, guid: 33857862b9b36974b8c7e7cd21e64894,
        type: 3}
      propertyPath: m_LocalRotation.w
      value: 1
      objectReference: {fileID: 0}
    - target: {fileID: 1898205443461623656, guid: 33857862b9b36974b8c7e7cd21e64894,
        type: 3}
      propertyPath: m_RootOrder
      value: 0
      objectReference: {fileID: 0}
    - target: {fileID: 1898205443461623656, guid: 33857862b9b36974b8c7e7cd21e64894,
        type: 3}
      propertyPath: m_LocalEulerAnglesHint.x
      value: 0
      objectReference: {fileID: 0}
    - target: {fileID: 1898205443461623656, guid: 33857862b9b36974b8c7e7cd21e64894,
        type: 3}
      propertyPath: m_LocalEulerAnglesHint.y
      value: 0
      objectReference: {fileID: 0}
    - target: {fileID: 1898205443461623656, guid: 33857862b9b36974b8c7e7cd21e64894,
        type: 3}
      propertyPath: m_LocalEulerAnglesHint.z
      value: 0
      objectReference: {fileID: 0}
    - target: {fileID: 1898205443461623656, guid: 33857862b9b36974b8c7e7cd21e64894,
        type: 3}
      propertyPath: m_AnchoredPosition.x
      value: 0
      objectReference: {fileID: 0}
    - target: {fileID: 1898205443461623656, guid: 33857862b9b36974b8c7e7cd21e64894,
        type: 3}
      propertyPath: m_AnchoredPosition.y
      value: 0
      objectReference: {fileID: 0}
    - target: {fileID: 1898205443461623656, guid: 33857862b9b36974b8c7e7cd21e64894,
        type: 3}
      propertyPath: m_SizeDelta.x
      value: 0
      objectReference: {fileID: 0}
    - target: {fileID: 1898205443461623656, guid: 33857862b9b36974b8c7e7cd21e64894,
        type: 3}
      propertyPath: m_SizeDelta.y
      value: 0
      objectReference: {fileID: 0}
    - target: {fileID: 1898205443461623656, guid: 33857862b9b36974b8c7e7cd21e64894,
        type: 3}
      propertyPath: m_AnchorMin.x
      value: 0
      objectReference: {fileID: 0}
    - target: {fileID: 1898205443461623656, guid: 33857862b9b36974b8c7e7cd21e64894,
        type: 3}
      propertyPath: m_AnchorMin.y
      value: 0
      objectReference: {fileID: 0}
    - target: {fileID: 1898205443461623656, guid: 33857862b9b36974b8c7e7cd21e64894,
        type: 3}
      propertyPath: m_AnchorMax.x
      value: 1
      objectReference: {fileID: 0}
    - target: {fileID: 1898205443461623656, guid: 33857862b9b36974b8c7e7cd21e64894,
        type: 3}
      propertyPath: m_AnchorMax.y
      value: 1
      objectReference: {fileID: 0}
    - target: {fileID: 1898205443461623656, guid: 33857862b9b36974b8c7e7cd21e64894,
        type: 3}
      propertyPath: m_Pivot.x
      value: 0.5
      objectReference: {fileID: 0}
    - target: {fileID: 1898205443461623656, guid: 33857862b9b36974b8c7e7cd21e64894,
        type: 3}
      propertyPath: m_Pivot.y
      value: 0.5
      objectReference: {fileID: 0}
    m_RemovedComponents:
    - {fileID: 1174608638533575398, guid: 33857862b9b36974b8c7e7cd21e64894, type: 3}
  m_SourcePrefab: {fileID: 100100000, guid: 33857862b9b36974b8c7e7cd21e64894, type: 3}
--- !u!224 &1780407316190096193 stripped
RectTransform:
  m_CorrespondingSourceObject: {fileID: 1898205443461623656, guid: 33857862b9b36974b8c7e7cd21e64894,
    type: 3}
  m_PrefabInstance: {fileID: 207870156493964329}
  m_PrefabAsset: {fileID: 0}
--- !u!1 &4942619515071102475 stripped
GameObject:
  m_CorrespondingSourceObject: {fileID: 5077024135532755490, guid: 33857862b9b36974b8c7e7cd21e64894,
    type: 3}
  m_PrefabInstance: {fileID: 207870156493964329}
  m_PrefabAsset: {fileID: 0}
--- !u!224 &3707031743010667032 stripped
RectTransform:
  m_CorrespondingSourceObject: {fileID: 3571501240183766577, guid: 33857862b9b36974b8c7e7cd21e64894,
    type: 3}
  m_PrefabInstance: {fileID: 207870156493964329}
  m_PrefabAsset: {fileID: 0}
--- !u!1001 &756875855124600570
PrefabInstance:
  m_ObjectHideFlags: 0
  serializedVersion: 2
  m_Modification:
    m_TransformParent: {fileID: 8801168852410358378}
    m_Modifications:
    - target: {fileID: 4769013192692311861, guid: 08af61609e7f3bd4cbb3460218813c81,
        type: 3}
      propertyPath: m_Name
      value: Button - B - 160x48 - Rounded - Text
      objectReference: {fileID: 0}
    - target: {fileID: 1465370534062108315, guid: 08af61609e7f3bd4cbb3460218813c81,
        type: 3}
      propertyPath: m_LocalPosition.x
      value: 0
      objectReference: {fileID: 0}
    - target: {fileID: 1465370534062108315, guid: 08af61609e7f3bd4cbb3460218813c81,
        type: 3}
      propertyPath: m_LocalPosition.y
      value: 0
      objectReference: {fileID: 0}
    - target: {fileID: 1465370534062108315, guid: 08af61609e7f3bd4cbb3460218813c81,
        type: 3}
      propertyPath: m_LocalPosition.z
      value: 0
      objectReference: {fileID: 0}
    - target: {fileID: 1465370534062108315, guid: 08af61609e7f3bd4cbb3460218813c81,
        type: 3}
      propertyPath: m_LocalRotation.x
      value: -0
      objectReference: {fileID: 0}
    - target: {fileID: 1465370534062108315, guid: 08af61609e7f3bd4cbb3460218813c81,
        type: 3}
      propertyPath: m_LocalRotation.y
      value: -0
      objectReference: {fileID: 0}
    - target: {fileID: 1465370534062108315, guid: 08af61609e7f3bd4cbb3460218813c81,
        type: 3}
      propertyPath: m_LocalRotation.z
      value: -0
      objectReference: {fileID: 0}
    - target: {fileID: 1465370534062108315, guid: 08af61609e7f3bd4cbb3460218813c81,
        type: 3}
      propertyPath: m_LocalRotation.w
      value: 1
      objectReference: {fileID: 0}
    - target: {fileID: 1465370534062108315, guid: 08af61609e7f3bd4cbb3460218813c81,
        type: 3}
      propertyPath: m_RootOrder
      value: 0
      objectReference: {fileID: 0}
    - target: {fileID: 1465370534062108315, guid: 08af61609e7f3bd4cbb3460218813c81,
        type: 3}
      propertyPath: m_LocalEulerAnglesHint.x
      value: 0
      objectReference: {fileID: 0}
    - target: {fileID: 1465370534062108315, guid: 08af61609e7f3bd4cbb3460218813c81,
        type: 3}
      propertyPath: m_LocalEulerAnglesHint.y
      value: 0
      objectReference: {fileID: 0}
    - target: {fileID: 1465370534062108315, guid: 08af61609e7f3bd4cbb3460218813c81,
        type: 3}
      propertyPath: m_LocalEulerAnglesHint.z
      value: 0
      objectReference: {fileID: 0}
    - target: {fileID: 1465370534062108315, guid: 08af61609e7f3bd4cbb3460218813c81,
        type: 3}
      propertyPath: m_AnchoredPosition.x
      value: 0
      objectReference: {fileID: 0}
    - target: {fileID: 1465370534062108315, guid: 08af61609e7f3bd4cbb3460218813c81,
        type: 3}
      propertyPath: m_AnchoredPosition.y
      value: 0
      objectReference: {fileID: 0}
    - target: {fileID: 1465370534062108315, guid: 08af61609e7f3bd4cbb3460218813c81,
        type: 3}
      propertyPath: m_SizeDelta.x
      value: 0
      objectReference: {fileID: 0}
    - target: {fileID: 1465370534062108315, guid: 08af61609e7f3bd4cbb3460218813c81,
        type: 3}
      propertyPath: m_SizeDelta.y
      value: 0
      objectReference: {fileID: 0}
    - target: {fileID: 1465370534062108315, guid: 08af61609e7f3bd4cbb3460218813c81,
        type: 3}
      propertyPath: m_AnchorMin.x
      value: 0
      objectReference: {fileID: 0}
    - target: {fileID: 1465370534062108315, guid: 08af61609e7f3bd4cbb3460218813c81,
        type: 3}
      propertyPath: m_AnchorMin.y
      value: 0
      objectReference: {fileID: 0}
    - target: {fileID: 1465370534062108315, guid: 08af61609e7f3bd4cbb3460218813c81,
        type: 3}
      propertyPath: m_AnchorMax.x
      value: 1
      objectReference: {fileID: 0}
    - target: {fileID: 1465370534062108315, guid: 08af61609e7f3bd4cbb3460218813c81,
        type: 3}
      propertyPath: m_AnchorMax.y
      value: 1
      objectReference: {fileID: 0}
    - target: {fileID: 1465370534062108315, guid: 08af61609e7f3bd4cbb3460218813c81,
        type: 3}
      propertyPath: m_Pivot.x
      value: 0.5
      objectReference: {fileID: 0}
    - target: {fileID: 1465370534062108315, guid: 08af61609e7f3bd4cbb3460218813c81,
        type: 3}
      propertyPath: m_Pivot.y
      value: 0.5
      objectReference: {fileID: 0}
    - target: {fileID: 4364808384694893991, guid: 08af61609e7f3bd4cbb3460218813c81,
        type: 3}
      propertyPath: m_textInfo.characterCount
      value: 11
      objectReference: {fileID: 0}
    - target: {fileID: 4364808384694893991, guid: 08af61609e7f3bd4cbb3460218813c81,
        type: 3}
      propertyPath: m_textInfo.spaceCount
      value: 1
      objectReference: {fileID: 0}
    - target: {fileID: 4364808384694893991, guid: 08af61609e7f3bd4cbb3460218813c81,
        type: 3}
      propertyPath: m_textInfo.wordCount
      value: 2
      objectReference: {fileID: 0}
    - target: {fileID: 4364808384694893991, guid: 08af61609e7f3bd4cbb3460218813c81,
        type: 3}
      propertyPath: m_textInfo.lineCount
      value: 1
      objectReference: {fileID: 0}
    - target: {fileID: 4364808384694893991, guid: 08af61609e7f3bd4cbb3460218813c81,
        type: 3}
      propertyPath: m_textInfo.pageCount
      value: 1
      objectReference: {fileID: 0}
    - target: {fileID: 4364808384694893991, guid: 08af61609e7f3bd4cbb3460218813c81,
        type: 3}
      propertyPath: m_text
      value: Get Started
      objectReference: {fileID: 0}
    - target: {fileID: 4364808384694893991, guid: 08af61609e7f3bd4cbb3460218813c81,
        type: 3}
      propertyPath: m_sharedMaterial
      value: 
      objectReference: {fileID: 4835089367266696174, guid: 643aebd7124d3c34bb062c5a60ebb5a8,
        type: 2}
    - target: {fileID: 4364808384694893991, guid: 08af61609e7f3bd4cbb3460218813c81,
        type: 3}
      propertyPath: m_fontColor32.rgba
      value: 4281807149
      objectReference: {fileID: 0}
    - target: {fileID: 4364808384694893991, guid: 08af61609e7f3bd4cbb3460218813c81,
        type: 3}
      propertyPath: m_fontColor.r
      value: 0.17911176
      objectReference: {fileID: 0}
    - target: {fileID: 4364808384694893991, guid: 08af61609e7f3bd4cbb3460218813c81,
        type: 3}
      propertyPath: m_fontColor.g
      value: 0.19398901
      objectReference: {fileID: 0}
    - target: {fileID: 4364808384694893991, guid: 08af61609e7f3bd4cbb3460218813c81,
        type: 3}
      propertyPath: m_fontColor.b
      value: 0.21698111
      objectReference: {fileID: 0}
    - target: {fileID: 4364808384694893991, guid: 08af61609e7f3bd4cbb3460218813c81,
        type: 3}
      propertyPath: m_fontSize
      value: 20
      objectReference: {fileID: 0}
    - target: {fileID: 4364808384694893991, guid: 08af61609e7f3bd4cbb3460218813c81,
        type: 3}
      propertyPath: m_fontSizeMax
      value: 20
      objectReference: {fileID: 0}
    - target: {fileID: 4364808384694893991, guid: 08af61609e7f3bd4cbb3460218813c81,
        type: 3}
      propertyPath: m_hasFontAssetChanged
      value: 0
      objectReference: {fileID: 0}
    - target: {fileID: 7070978483019899033, guid: 08af61609e7f3bd4cbb3460218813c81,
        type: 3}
      propertyPath: PropertyIdSerializedGuid.Array.data[0]
      value: 129
      objectReference: {fileID: 0}
    - target: {fileID: 7070978483019899033, guid: 08af61609e7f3bd4cbb3460218813c81,
        type: 3}
      propertyPath: PropertyIdSerializedGuid.Array.data[1]
      value: 150
      objectReference: {fileID: 0}
    - target: {fileID: 7070978483019899033, guid: 08af61609e7f3bd4cbb3460218813c81,
        type: 3}
      propertyPath: PropertyIdSerializedGuid.Array.data[2]
      value: 85
      objectReference: {fileID: 0}
    - target: {fileID: 7070978483019899033, guid: 08af61609e7f3bd4cbb3460218813c81,
        type: 3}
      propertyPath: PropertyIdSerializedGuid.Array.data[3]
      value: 20
      objectReference: {fileID: 0}
    - target: {fileID: 7070978483019899033, guid: 08af61609e7f3bd4cbb3460218813c81,
        type: 3}
      propertyPath: PropertyIdSerializedGuid.Array.data[4]
      value: 62
      objectReference: {fileID: 0}
    - target: {fileID: 7070978483019899033, guid: 08af61609e7f3bd4cbb3460218813c81,
        type: 3}
      propertyPath: PropertyIdSerializedGuid.Array.data[5]
      value: 131
      objectReference: {fileID: 0}
    - target: {fileID: 7070978483019899033, guid: 08af61609e7f3bd4cbb3460218813c81,
        type: 3}
      propertyPath: PropertyIdSerializedGuid.Array.data[6]
      value: 236
      objectReference: {fileID: 0}
    - target: {fileID: 7070978483019899033, guid: 08af61609e7f3bd4cbb3460218813c81,
        type: 3}
      propertyPath: PropertyIdSerializedGuid.Array.data[7]
      value: 69
      objectReference: {fileID: 0}
    - target: {fileID: 7070978483019899033, guid: 08af61609e7f3bd4cbb3460218813c81,
        type: 3}
      propertyPath: PropertyIdSerializedGuid.Array.data[8]
      value: 162
      objectReference: {fileID: 0}
    - target: {fileID: 7070978483019899033, guid: 08af61609e7f3bd4cbb3460218813c81,
        type: 3}
      propertyPath: PropertyIdSerializedGuid.Array.data[9]
      value: 61
      objectReference: {fileID: 0}
    - target: {fileID: 7070978483019899033, guid: 08af61609e7f3bd4cbb3460218813c81,
        type: 3}
      propertyPath: PropertyIdSerializedGuid.Array.data[10]
      value: 103
      objectReference: {fileID: 0}
    - target: {fileID: 7070978483019899033, guid: 08af61609e7f3bd4cbb3460218813c81,
        type: 3}
      propertyPath: PropertyIdSerializedGuid.Array.data[11]
      value: 46
      objectReference: {fileID: 0}
    - target: {fileID: 7070978483019899033, guid: 08af61609e7f3bd4cbb3460218813c81,
        type: 3}
      propertyPath: PropertyIdSerializedGuid.Array.data[12]
      value: 232
      objectReference: {fileID: 0}
    - target: {fileID: 7070978483019899033, guid: 08af61609e7f3bd4cbb3460218813c81,
        type: 3}
      propertyPath: PropertyIdSerializedGuid.Array.data[13]
      value: 17
      objectReference: {fileID: 0}
    - target: {fileID: 7070978483019899033, guid: 08af61609e7f3bd4cbb3460218813c81,
        type: 3}
      propertyPath: PropertyIdSerializedGuid.Array.data[14]
      value: 102
      objectReference: {fileID: 0}
    - target: {fileID: 7070978483019899033, guid: 08af61609e7f3bd4cbb3460218813c81,
        type: 3}
      propertyPath: PropertyIdSerializedGuid.Array.data[15]
      value: 116
      objectReference: {fileID: 0}
    m_RemovedComponents: []
  m_SourcePrefab: {fileID: 100100000, guid: 08af61609e7f3bd4cbb3460218813c81, type: 3}
--- !u!224 &2222240715434178657 stripped
RectTransform:
  m_CorrespondingSourceObject: {fileID: 1465370534062108315, guid: 08af61609e7f3bd4cbb3460218813c81,
    type: 3}
  m_PrefabInstance: {fileID: 756875855124600570}
  m_PrefabAsset: {fileID: 0}
--- !u!1001 &908577964271133960
PrefabInstance:
  m_ObjectHideFlags: 0
  serializedVersion: 2
  m_Modification:
    m_TransformParent: {fileID: 8801168852542548320}
    m_Modifications:
    - target: {fileID: 2524703514428349326, guid: 841c32878f65851489249f42f7a11b9b,
        type: 3}
      propertyPath: m_Name
      value: Button - B - 160x48 - Circle - Text - Skip
      objectReference: {fileID: 0}
    - target: {fileID: 8462676015886733856, guid: 841c32878f65851489249f42f7a11b9b,
        type: 3}
      propertyPath: m_LocalPosition.x
      value: 0
      objectReference: {fileID: 0}
    - target: {fileID: 8462676015886733856, guid: 841c32878f65851489249f42f7a11b9b,
        type: 3}
      propertyPath: m_LocalPosition.y
      value: 0
      objectReference: {fileID: 0}
    - target: {fileID: 8462676015886733856, guid: 841c32878f65851489249f42f7a11b9b,
        type: 3}
      propertyPath: m_LocalPosition.z
      value: 0
      objectReference: {fileID: 0}
    - target: {fileID: 8462676015886733856, guid: 841c32878f65851489249f42f7a11b9b,
        type: 3}
      propertyPath: m_LocalRotation.x
      value: -0
      objectReference: {fileID: 0}
    - target: {fileID: 8462676015886733856, guid: 841c32878f65851489249f42f7a11b9b,
        type: 3}
      propertyPath: m_LocalRotation.y
      value: -0
      objectReference: {fileID: 0}
    - target: {fileID: 8462676015886733856, guid: 841c32878f65851489249f42f7a11b9b,
        type: 3}
      propertyPath: m_LocalRotation.z
      value: -0
      objectReference: {fileID: 0}
    - target: {fileID: 8462676015886733856, guid: 841c32878f65851489249f42f7a11b9b,
        type: 3}
      propertyPath: m_LocalRotation.w
      value: 1
      objectReference: {fileID: 0}
    - target: {fileID: 8462676015886733856, guid: 841c32878f65851489249f42f7a11b9b,
        type: 3}
      propertyPath: m_RootOrder
      value: 1
      objectReference: {fileID: 0}
    - target: {fileID: 8462676015886733856, guid: 841c32878f65851489249f42f7a11b9b,
        type: 3}
      propertyPath: m_LocalEulerAnglesHint.x
      value: 0
      objectReference: {fileID: 0}
    - target: {fileID: 8462676015886733856, guid: 841c32878f65851489249f42f7a11b9b,
        type: 3}
      propertyPath: m_LocalEulerAnglesHint.y
      value: 0
      objectReference: {fileID: 0}
    - target: {fileID: 8462676015886733856, guid: 841c32878f65851489249f42f7a11b9b,
        type: 3}
      propertyPath: m_LocalEulerAnglesHint.z
      value: 0
      objectReference: {fileID: 0}
    - target: {fileID: 8462676015886733856, guid: 841c32878f65851489249f42f7a11b9b,
        type: 3}
      propertyPath: m_AnchoredPosition.x
      value: 0
      objectReference: {fileID: 0}
    - target: {fileID: 8462676015886733856, guid: 841c32878f65851489249f42f7a11b9b,
        type: 3}
      propertyPath: m_AnchoredPosition.y
      value: 0
      objectReference: {fileID: 0}
    - target: {fileID: 8462676015886733856, guid: 841c32878f65851489249f42f7a11b9b,
        type: 3}
      propertyPath: m_SizeDelta.x
      value: 96
      objectReference: {fileID: 0}
    - target: {fileID: 8462676015886733856, guid: 841c32878f65851489249f42f7a11b9b,
        type: 3}
      propertyPath: m_SizeDelta.y
      value: 48
      objectReference: {fileID: 0}
    - target: {fileID: 8462676015886733856, guid: 841c32878f65851489249f42f7a11b9b,
        type: 3}
      propertyPath: m_AnchorMin.x
      value: 1
      objectReference: {fileID: 0}
    - target: {fileID: 8462676015886733856, guid: 841c32878f65851489249f42f7a11b9b,
        type: 3}
      propertyPath: m_AnchorMin.y
      value: 0.5
      objectReference: {fileID: 0}
    - target: {fileID: 8462676015886733856, guid: 841c32878f65851489249f42f7a11b9b,
        type: 3}
      propertyPath: m_AnchorMax.x
      value: 1
      objectReference: {fileID: 0}
    - target: {fileID: 8462676015886733856, guid: 841c32878f65851489249f42f7a11b9b,
        type: 3}
      propertyPath: m_AnchorMax.y
      value: 0.5
      objectReference: {fileID: 0}
    - target: {fileID: 8462676015886733856, guid: 841c32878f65851489249f42f7a11b9b,
        type: 3}
      propertyPath: m_Pivot.x
      value: 1
      objectReference: {fileID: 0}
    - target: {fileID: 8462676015886733856, guid: 841c32878f65851489249f42f7a11b9b,
        type: 3}
      propertyPath: m_Pivot.y
      value: 0.5
      objectReference: {fileID: 0}
    - target: {fileID: 6752468533115846940, guid: 841c32878f65851489249f42f7a11b9b,
        type: 3}
      propertyPath: m_textInfo.characterCount
      value: 4
      objectReference: {fileID: 0}
    - target: {fileID: 6752468533115846940, guid: 841c32878f65851489249f42f7a11b9b,
        type: 3}
      propertyPath: m_textInfo.wordCount
      value: 1
      objectReference: {fileID: 0}
    - target: {fileID: 6752468533115846940, guid: 841c32878f65851489249f42f7a11b9b,
        type: 3}
      propertyPath: m_textInfo.lineCount
      value: 1
      objectReference: {fileID: 0}
    - target: {fileID: 6752468533115846940, guid: 841c32878f65851489249f42f7a11b9b,
        type: 3}
      propertyPath: m_textInfo.pageCount
      value: 1
      objectReference: {fileID: 0}
    - target: {fileID: 6752468533115846940, guid: 841c32878f65851489249f42f7a11b9b,
        type: 3}
      propertyPath: m_text
      value: Skip
      objectReference: {fileID: 0}
    - target: {fileID: 6752468533115846940, guid: 841c32878f65851489249f42f7a11b9b,
        type: 3}
      propertyPath: m_sharedMaterial
      value: 
      objectReference: {fileID: 4835089367266696174, guid: 643aebd7124d3c34bb062c5a60ebb5a8,
        type: 2}
    - target: {fileID: 6752468533115846940, guid: 841c32878f65851489249f42f7a11b9b,
        type: 3}
      propertyPath: m_fontColor32.rgba
      value: 4281807149
      objectReference: {fileID: 0}
    - target: {fileID: 6752468533115846940, guid: 841c32878f65851489249f42f7a11b9b,
        type: 3}
      propertyPath: m_fontColor.r
      value: 0.17911176
      objectReference: {fileID: 0}
    - target: {fileID: 6752468533115846940, guid: 841c32878f65851489249f42f7a11b9b,
        type: 3}
      propertyPath: m_fontColor.g
      value: 0.19398901
      objectReference: {fileID: 0}
    - target: {fileID: 6752468533115846940, guid: 841c32878f65851489249f42f7a11b9b,
        type: 3}
      propertyPath: m_fontColor.b
      value: 0.21698111
      objectReference: {fileID: 0}
    - target: {fileID: 6752468533115846940, guid: 841c32878f65851489249f42f7a11b9b,
        type: 3}
      propertyPath: m_hasFontAssetChanged
      value: 0
      objectReference: {fileID: 0}
    - target: {fileID: 217955313899920418, guid: 841c32878f65851489249f42f7a11b9b,
        type: 3}
      propertyPath: PropertyIdSerializedGuid.Array.data[0]
      value: 129
      objectReference: {fileID: 0}
    - target: {fileID: 217955313899920418, guid: 841c32878f65851489249f42f7a11b9b,
        type: 3}
      propertyPath: PropertyIdSerializedGuid.Array.data[1]
      value: 150
      objectReference: {fileID: 0}
    - target: {fileID: 217955313899920418, guid: 841c32878f65851489249f42f7a11b9b,
        type: 3}
      propertyPath: PropertyIdSerializedGuid.Array.data[2]
      value: 85
      objectReference: {fileID: 0}
    - target: {fileID: 217955313899920418, guid: 841c32878f65851489249f42f7a11b9b,
        type: 3}
      propertyPath: PropertyIdSerializedGuid.Array.data[3]
      value: 20
      objectReference: {fileID: 0}
    - target: {fileID: 217955313899920418, guid: 841c32878f65851489249f42f7a11b9b,
        type: 3}
      propertyPath: PropertyIdSerializedGuid.Array.data[4]
      value: 62
      objectReference: {fileID: 0}
    - target: {fileID: 217955313899920418, guid: 841c32878f65851489249f42f7a11b9b,
        type: 3}
      propertyPath: PropertyIdSerializedGuid.Array.data[5]
      value: 131
      objectReference: {fileID: 0}
    - target: {fileID: 217955313899920418, guid: 841c32878f65851489249f42f7a11b9b,
        type: 3}
      propertyPath: PropertyIdSerializedGuid.Array.data[6]
      value: 236
      objectReference: {fileID: 0}
    - target: {fileID: 217955313899920418, guid: 841c32878f65851489249f42f7a11b9b,
        type: 3}
      propertyPath: PropertyIdSerializedGuid.Array.data[7]
      value: 69
      objectReference: {fileID: 0}
    - target: {fileID: 217955313899920418, guid: 841c32878f65851489249f42f7a11b9b,
        type: 3}
      propertyPath: PropertyIdSerializedGuid.Array.data[8]
      value: 162
      objectReference: {fileID: 0}
    - target: {fileID: 217955313899920418, guid: 841c32878f65851489249f42f7a11b9b,
        type: 3}
      propertyPath: PropertyIdSerializedGuid.Array.data[9]
      value: 61
      objectReference: {fileID: 0}
    - target: {fileID: 217955313899920418, guid: 841c32878f65851489249f42f7a11b9b,
        type: 3}
      propertyPath: PropertyIdSerializedGuid.Array.data[10]
      value: 103
      objectReference: {fileID: 0}
    - target: {fileID: 217955313899920418, guid: 841c32878f65851489249f42f7a11b9b,
        type: 3}
      propertyPath: PropertyIdSerializedGuid.Array.data[11]
      value: 46
      objectReference: {fileID: 0}
    - target: {fileID: 217955313899920418, guid: 841c32878f65851489249f42f7a11b9b,
        type: 3}
      propertyPath: PropertyIdSerializedGuid.Array.data[12]
      value: 232
      objectReference: {fileID: 0}
    - target: {fileID: 217955313899920418, guid: 841c32878f65851489249f42f7a11b9b,
        type: 3}
      propertyPath: PropertyIdSerializedGuid.Array.data[13]
      value: 17
      objectReference: {fileID: 0}
    - target: {fileID: 217955313899920418, guid: 841c32878f65851489249f42f7a11b9b,
        type: 3}
      propertyPath: PropertyIdSerializedGuid.Array.data[14]
      value: 102
      objectReference: {fileID: 0}
    - target: {fileID: 217955313899920418, guid: 841c32878f65851489249f42f7a11b9b,
        type: 3}
      propertyPath: PropertyIdSerializedGuid.Array.data[15]
      value: 116
      objectReference: {fileID: 0}
    - target: {fileID: 3274134405178737272, guid: 841c32878f65851489249f42f7a11b9b,
        type: 3}
      propertyPath: m_Color.r
      value: 0.17911176
      objectReference: {fileID: 0}
    - target: {fileID: 3274134405178737272, guid: 841c32878f65851489249f42f7a11b9b,
        type: 3}
      propertyPath: m_Color.g
      value: 0.19398901
      objectReference: {fileID: 0}
    - target: {fileID: 3274134405178737272, guid: 841c32878f65851489249f42f7a11b9b,
        type: 3}
      propertyPath: m_Color.b
      value: 0.21698111
      objectReference: {fileID: 0}
    - target: {fileID: 2443876056288730603, guid: 841c32878f65851489249f42f7a11b9b,
        type: 3}
      propertyPath: PropertyIdSerializedGuid.Array.data[0]
      value: 129
      objectReference: {fileID: 0}
    - target: {fileID: 2443876056288730603, guid: 841c32878f65851489249f42f7a11b9b,
        type: 3}
      propertyPath: PropertyIdSerializedGuid.Array.data[1]
      value: 150
      objectReference: {fileID: 0}
    - target: {fileID: 2443876056288730603, guid: 841c32878f65851489249f42f7a11b9b,
        type: 3}
      propertyPath: PropertyIdSerializedGuid.Array.data[2]
      value: 85
      objectReference: {fileID: 0}
    - target: {fileID: 2443876056288730603, guid: 841c32878f65851489249f42f7a11b9b,
        type: 3}
      propertyPath: PropertyIdSerializedGuid.Array.data[3]
      value: 20
      objectReference: {fileID: 0}
    - target: {fileID: 2443876056288730603, guid: 841c32878f65851489249f42f7a11b9b,
        type: 3}
      propertyPath: PropertyIdSerializedGuid.Array.data[4]
      value: 62
      objectReference: {fileID: 0}
    - target: {fileID: 2443876056288730603, guid: 841c32878f65851489249f42f7a11b9b,
        type: 3}
      propertyPath: PropertyIdSerializedGuid.Array.data[5]
      value: 131
      objectReference: {fileID: 0}
    - target: {fileID: 2443876056288730603, guid: 841c32878f65851489249f42f7a11b9b,
        type: 3}
      propertyPath: PropertyIdSerializedGuid.Array.data[6]
      value: 236
      objectReference: {fileID: 0}
    - target: {fileID: 2443876056288730603, guid: 841c32878f65851489249f42f7a11b9b,
        type: 3}
      propertyPath: PropertyIdSerializedGuid.Array.data[7]
      value: 69
      objectReference: {fileID: 0}
    - target: {fileID: 2443876056288730603, guid: 841c32878f65851489249f42f7a11b9b,
        type: 3}
      propertyPath: PropertyIdSerializedGuid.Array.data[8]
      value: 162
      objectReference: {fileID: 0}
    - target: {fileID: 2443876056288730603, guid: 841c32878f65851489249f42f7a11b9b,
        type: 3}
      propertyPath: PropertyIdSerializedGuid.Array.data[9]
      value: 61
      objectReference: {fileID: 0}
    - target: {fileID: 2443876056288730603, guid: 841c32878f65851489249f42f7a11b9b,
        type: 3}
      propertyPath: PropertyIdSerializedGuid.Array.data[10]
      value: 103
      objectReference: {fileID: 0}
    - target: {fileID: 2443876056288730603, guid: 841c32878f65851489249f42f7a11b9b,
        type: 3}
      propertyPath: PropertyIdSerializedGuid.Array.data[11]
      value: 46
      objectReference: {fileID: 0}
    - target: {fileID: 2443876056288730603, guid: 841c32878f65851489249f42f7a11b9b,
        type: 3}
      propertyPath: PropertyIdSerializedGuid.Array.data[12]
      value: 232
      objectReference: {fileID: 0}
    - target: {fileID: 2443876056288730603, guid: 841c32878f65851489249f42f7a11b9b,
        type: 3}
      propertyPath: PropertyIdSerializedGuid.Array.data[13]
      value: 17
      objectReference: {fileID: 0}
    - target: {fileID: 2443876056288730603, guid: 841c32878f65851489249f42f7a11b9b,
        type: 3}
      propertyPath: PropertyIdSerializedGuid.Array.data[14]
      value: 102
      objectReference: {fileID: 0}
    - target: {fileID: 2443876056288730603, guid: 841c32878f65851489249f42f7a11b9b,
        type: 3}
      propertyPath: PropertyIdSerializedGuid.Array.data[15]
      value: 116
      objectReference: {fileID: 0}
    m_RemovedComponents: []
  m_SourcePrefab: {fileID: 100100000, guid: 841c32878f65851489249f42f7a11b9b, type: 3}
--- !u!224 &8785005718400235304 stripped
RectTransform:
  m_CorrespondingSourceObject: {fileID: 8462676015886733856, guid: 841c32878f65851489249f42f7a11b9b,
    type: 3}
  m_PrefabInstance: {fileID: 908577964271133960}
  m_PrefabAsset: {fileID: 0}
--- !u!1001 &3044061940077366896
PrefabInstance:
  m_ObjectHideFlags: 0
  serializedVersion: 2
  m_Modification:
    m_TransformParent: {fileID: 3044061938722682852}
    m_Modifications:
    - target: {fileID: 4077677185972990068, guid: 0db6d0d575a0b1f46bfe8b5233c6c03d,
        type: 3}
      propertyPath: m_Name
      value: Stroke - Rounded 4
      objectReference: {fileID: 0}
    - target: {fileID: 2690802388152629, guid: 0db6d0d575a0b1f46bfe8b5233c6c03d, type: 3}
      propertyPath: PropertyIdSerializedGuid.Array.data[0]
      value: 184
      objectReference: {fileID: 0}
    - target: {fileID: 2690802388152629, guid: 0db6d0d575a0b1f46bfe8b5233c6c03d, type: 3}
      propertyPath: PropertyIdSerializedGuid.Array.data[1]
      value: 119
      objectReference: {fileID: 0}
    - target: {fileID: 2690802388152629, guid: 0db6d0d575a0b1f46bfe8b5233c6c03d, type: 3}
      propertyPath: PropertyIdSerializedGuid.Array.data[2]
      value: 217
      objectReference: {fileID: 0}
    - target: {fileID: 2690802388152629, guid: 0db6d0d575a0b1f46bfe8b5233c6c03d, type: 3}
      propertyPath: PropertyIdSerializedGuid.Array.data[3]
      value: 41
      objectReference: {fileID: 0}
    - target: {fileID: 2690802388152629, guid: 0db6d0d575a0b1f46bfe8b5233c6c03d, type: 3}
      propertyPath: PropertyIdSerializedGuid.Array.data[4]
      value: 21
      objectReference: {fileID: 0}
    - target: {fileID: 2690802388152629, guid: 0db6d0d575a0b1f46bfe8b5233c6c03d, type: 3}
      propertyPath: PropertyIdSerializedGuid.Array.data[5]
      value: 86
      objectReference: {fileID: 0}
    - target: {fileID: 2690802388152629, guid: 0db6d0d575a0b1f46bfe8b5233c6c03d, type: 3}
      propertyPath: PropertyIdSerializedGuid.Array.data[6]
      value: 175
      objectReference: {fileID: 0}
    - target: {fileID: 2690802388152629, guid: 0db6d0d575a0b1f46bfe8b5233c6c03d, type: 3}
      propertyPath: PropertyIdSerializedGuid.Array.data[8]
      value: 171
      objectReference: {fileID: 0}
    - target: {fileID: 2690802388152629, guid: 0db6d0d575a0b1f46bfe8b5233c6c03d, type: 3}
      propertyPath: PropertyIdSerializedGuid.Array.data[9]
      value: 204
      objectReference: {fileID: 0}
    - target: {fileID: 2690802388152629, guid: 0db6d0d575a0b1f46bfe8b5233c6c03d, type: 3}
      propertyPath: PropertyIdSerializedGuid.Array.data[10]
      value: 242
      objectReference: {fileID: 0}
    - target: {fileID: 2690802388152629, guid: 0db6d0d575a0b1f46bfe8b5233c6c03d, type: 3}
      propertyPath: PropertyIdSerializedGuid.Array.data[11]
      value: 49
      objectReference: {fileID: 0}
    - target: {fileID: 2690802388152629, guid: 0db6d0d575a0b1f46bfe8b5233c6c03d, type: 3}
      propertyPath: PropertyIdSerializedGuid.Array.data[12]
      value: 201
      objectReference: {fileID: 0}
    - target: {fileID: 2690802388152629, guid: 0db6d0d575a0b1f46bfe8b5233c6c03d, type: 3}
      propertyPath: PropertyIdSerializedGuid.Array.data[13]
      value: 213
      objectReference: {fileID: 0}
    - target: {fileID: 2690802388152629, guid: 0db6d0d575a0b1f46bfe8b5233c6c03d, type: 3}
      propertyPath: PropertyIdSerializedGuid.Array.data[14]
      value: 139
      objectReference: {fileID: 0}
    - target: {fileID: 2690802388152629, guid: 0db6d0d575a0b1f46bfe8b5233c6c03d, type: 3}
      propertyPath: PropertyIdSerializedGuid.Array.data[15]
      value: 185
      objectReference: {fileID: 0}
    - target: {fileID: 2690802388152629, guid: 0db6d0d575a0b1f46bfe8b5233c6c03d, type: 3}
      propertyPath: PropertyIdSerializedGuid.Array.data[7]
      value: 69
      objectReference: {fileID: 0}
    - target: {fileID: 2690802388152629, guid: 0db6d0d575a0b1f46bfe8b5233c6c03d, type: 3}
      propertyPath: OverrideAlpha
      value: 0
      objectReference: {fileID: 0}
    - target: {fileID: 2690802388152629, guid: 0db6d0d575a0b1f46bfe8b5233c6c03d, type: 3}
      propertyPath: Alpha
      value: 1
      objectReference: {fileID: 0}
    - target: {fileID: 101740789965455303, guid: 0db6d0d575a0b1f46bfe8b5233c6c03d,
        type: 3}
      propertyPath: m_Sprite
      value: 
      objectReference: {fileID: 21300000, guid: 6d7c1d4c8c104c44d81de48cc34e7d0d,
        type: 3}
    - target: {fileID: 101740789965455303, guid: 0db6d0d575a0b1f46bfe8b5233c6c03d,
        type: 3}
      propertyPath: m_Color.r
      value: 0.8784314
      objectReference: {fileID: 0}
    - target: {fileID: 101740789965455303, guid: 0db6d0d575a0b1f46bfe8b5233c6c03d,
        type: 3}
      propertyPath: m_Color.g
      value: 0.8980392
      objectReference: {fileID: 0}
    - target: {fileID: 101740789965455303, guid: 0db6d0d575a0b1f46bfe8b5233c6c03d,
        type: 3}
      propertyPath: m_Color.b
      value: 0.9254902
      objectReference: {fileID: 0}
    - target: {fileID: 6861208774261497421, guid: 0db6d0d575a0b1f46bfe8b5233c6c03d,
        type: 3}
      propertyPath: m_LocalPosition.x
      value: 0
      objectReference: {fileID: 0}
    - target: {fileID: 6861208774261497421, guid: 0db6d0d575a0b1f46bfe8b5233c6c03d,
        type: 3}
      propertyPath: m_LocalPosition.y
      value: 0
      objectReference: {fileID: 0}
    - target: {fileID: 6861208774261497421, guid: 0db6d0d575a0b1f46bfe8b5233c6c03d,
        type: 3}
      propertyPath: m_LocalPosition.z
      value: 0
      objectReference: {fileID: 0}
    - target: {fileID: 6861208774261497421, guid: 0db6d0d575a0b1f46bfe8b5233c6c03d,
        type: 3}
      propertyPath: m_LocalRotation.x
      value: -0
      objectReference: {fileID: 0}
    - target: {fileID: 6861208774261497421, guid: 0db6d0d575a0b1f46bfe8b5233c6c03d,
        type: 3}
      propertyPath: m_LocalRotation.y
      value: -0
      objectReference: {fileID: 0}
    - target: {fileID: 6861208774261497421, guid: 0db6d0d575a0b1f46bfe8b5233c6c03d,
        type: 3}
      propertyPath: m_LocalRotation.z
      value: -0
      objectReference: {fileID: 0}
    - target: {fileID: 6861208774261497421, guid: 0db6d0d575a0b1f46bfe8b5233c6c03d,
        type: 3}
      propertyPath: m_LocalRotation.w
      value: 1
      objectReference: {fileID: 0}
    - target: {fileID: 6861208774261497421, guid: 0db6d0d575a0b1f46bfe8b5233c6c03d,
        type: 3}
      propertyPath: m_RootOrder
      value: 1
      objectReference: {fileID: 0}
    - target: {fileID: 6861208774261497421, guid: 0db6d0d575a0b1f46bfe8b5233c6c03d,
        type: 3}
      propertyPath: m_LocalEulerAnglesHint.x
      value: 0
      objectReference: {fileID: 0}
    - target: {fileID: 6861208774261497421, guid: 0db6d0d575a0b1f46bfe8b5233c6c03d,
        type: 3}
      propertyPath: m_LocalEulerAnglesHint.y
      value: 0
      objectReference: {fileID: 0}
    - target: {fileID: 6861208774261497421, guid: 0db6d0d575a0b1f46bfe8b5233c6c03d,
        type: 3}
      propertyPath: m_LocalEulerAnglesHint.z
      value: 0
      objectReference: {fileID: 0}
    - target: {fileID: 6861208774261497421, guid: 0db6d0d575a0b1f46bfe8b5233c6c03d,
        type: 3}
      propertyPath: m_AnchoredPosition.x
      value: 0
      objectReference: {fileID: 0}
    - target: {fileID: 6861208774261497421, guid: 0db6d0d575a0b1f46bfe8b5233c6c03d,
        type: 3}
      propertyPath: m_AnchoredPosition.y
      value: 0
      objectReference: {fileID: 0}
    - target: {fileID: 6861208774261497421, guid: 0db6d0d575a0b1f46bfe8b5233c6c03d,
        type: 3}
      propertyPath: m_SizeDelta.x
      value: 4
      objectReference: {fileID: 0}
    - target: {fileID: 6861208774261497421, guid: 0db6d0d575a0b1f46bfe8b5233c6c03d,
        type: 3}
      propertyPath: m_SizeDelta.y
      value: 4
      objectReference: {fileID: 0}
    - target: {fileID: 6861208774261497421, guid: 0db6d0d575a0b1f46bfe8b5233c6c03d,
        type: 3}
      propertyPath: m_AnchorMin.x
      value: 0
      objectReference: {fileID: 0}
    - target: {fileID: 6861208774261497421, guid: 0db6d0d575a0b1f46bfe8b5233c6c03d,
        type: 3}
      propertyPath: m_AnchorMin.y
      value: 0
      objectReference: {fileID: 0}
    - target: {fileID: 6861208774261497421, guid: 0db6d0d575a0b1f46bfe8b5233c6c03d,
        type: 3}
      propertyPath: m_AnchorMax.x
      value: 1
      objectReference: {fileID: 0}
    - target: {fileID: 6861208774261497421, guid: 0db6d0d575a0b1f46bfe8b5233c6c03d,
        type: 3}
      propertyPath: m_AnchorMax.y
      value: 1
      objectReference: {fileID: 0}
    - target: {fileID: 6861208774261497421, guid: 0db6d0d575a0b1f46bfe8b5233c6c03d,
        type: 3}
      propertyPath: m_Pivot.x
      value: 0.5
      objectReference: {fileID: 0}
    - target: {fileID: 6861208774261497421, guid: 0db6d0d575a0b1f46bfe8b5233c6c03d,
        type: 3}
      propertyPath: m_Pivot.y
      value: 0.5
      objectReference: {fileID: 0}
    - target: {fileID: 6861208774261497421, guid: 0db6d0d575a0b1f46bfe8b5233c6c03d,
        type: 3}
      propertyPath: m_LocalScale.x
      value: 1
      objectReference: {fileID: 0}
    - target: {fileID: 6861208774261497421, guid: 0db6d0d575a0b1f46bfe8b5233c6c03d,
        type: 3}
      propertyPath: m_LocalScale.y
      value: 1
      objectReference: {fileID: 0}
    - target: {fileID: 6861208774261497421, guid: 0db6d0d575a0b1f46bfe8b5233c6c03d,
        type: 3}
      propertyPath: m_LocalScale.z
      value: 1
      objectReference: {fileID: 0}
    m_RemovedComponents: []
  m_SourcePrefab: {fileID: 100100000, guid: 0db6d0d575a0b1f46bfe8b5233c6c03d, type: 3}
--- !u!224 &8433350065677881405 stripped
RectTransform:
  m_CorrespondingSourceObject: {fileID: 6861208774261497421, guid: 0db6d0d575a0b1f46bfe8b5233c6c03d,
    type: 3}
  m_PrefabInstance: {fileID: 3044061940077366896}
  m_PrefabAsset: {fileID: 0}
--- !u!1001 &8328658929270273063
PrefabInstance:
  m_ObjectHideFlags: 0
  serializedVersion: 2
  m_Modification:
    m_TransformParent: {fileID: 3707031743010667032}
    m_Modifications:
    - target: {fileID: 7293030589845333376, guid: c1fc4448ae124e940b3250cf3db2b47f,
        type: 3}
      propertyPath: m_Name
      value: Card - Rounded - 256x256 Out - Image
      objectReference: {fileID: 0}
    - target: {fileID: 5902134220735164071, guid: c1fc4448ae124e940b3250cf3db2b47f,
        type: 3}
      propertyPath: m_LocalPosition.x
      value: 0
      objectReference: {fileID: 0}
    - target: {fileID: 5902134220735164071, guid: c1fc4448ae124e940b3250cf3db2b47f,
        type: 3}
      propertyPath: m_LocalPosition.y
      value: 0
      objectReference: {fileID: 0}
    - target: {fileID: 5902134220735164071, guid: c1fc4448ae124e940b3250cf3db2b47f,
        type: 3}
      propertyPath: m_LocalPosition.z
      value: 0
      objectReference: {fileID: 0}
    - target: {fileID: 5902134220735164071, guid: c1fc4448ae124e940b3250cf3db2b47f,
        type: 3}
      propertyPath: m_LocalRotation.x
      value: -0
      objectReference: {fileID: 0}
    - target: {fileID: 5902134220735164071, guid: c1fc4448ae124e940b3250cf3db2b47f,
        type: 3}
      propertyPath: m_LocalRotation.y
      value: -0
      objectReference: {fileID: 0}
    - target: {fileID: 5902134220735164071, guid: c1fc4448ae124e940b3250cf3db2b47f,
        type: 3}
      propertyPath: m_LocalRotation.z
      value: -0
      objectReference: {fileID: 0}
    - target: {fileID: 5902134220735164071, guid: c1fc4448ae124e940b3250cf3db2b47f,
        type: 3}
      propertyPath: m_LocalRotation.w
      value: 1
      objectReference: {fileID: 0}
    - target: {fileID: 5902134220735164071, guid: c1fc4448ae124e940b3250cf3db2b47f,
        type: 3}
      propertyPath: m_RootOrder
      value: 3
      objectReference: {fileID: 0}
    - target: {fileID: 5902134220735164071, guid: c1fc4448ae124e940b3250cf3db2b47f,
        type: 3}
      propertyPath: m_LocalEulerAnglesHint.x
      value: 0
      objectReference: {fileID: 0}
    - target: {fileID: 5902134220735164071, guid: c1fc4448ae124e940b3250cf3db2b47f,
        type: 3}
      propertyPath: m_LocalEulerAnglesHint.y
      value: 0
      objectReference: {fileID: 0}
    - target: {fileID: 5902134220735164071, guid: c1fc4448ae124e940b3250cf3db2b47f,
        type: 3}
      propertyPath: m_LocalEulerAnglesHint.z
      value: 0
      objectReference: {fileID: 0}
    - target: {fileID: 5902134220735164071, guid: c1fc4448ae124e940b3250cf3db2b47f,
        type: 3}
      propertyPath: m_AnchoredPosition.x
      value: 32
      objectReference: {fileID: 0}
    - target: {fileID: 5902134220735164071, guid: c1fc4448ae124e940b3250cf3db2b47f,
        type: 3}
      propertyPath: m_AnchoredPosition.y
      value: 0
      objectReference: {fileID: 0}
    - target: {fileID: 5902134220735164071, guid: c1fc4448ae124e940b3250cf3db2b47f,
        type: 3}
      propertyPath: m_SizeDelta.x
      value: 256
      objectReference: {fileID: 0}
    - target: {fileID: 5902134220735164071, guid: c1fc4448ae124e940b3250cf3db2b47f,
        type: 3}
      propertyPath: m_SizeDelta.y
      value: 256
      objectReference: {fileID: 0}
    - target: {fileID: 5902134220735164071, guid: c1fc4448ae124e940b3250cf3db2b47f,
        type: 3}
      propertyPath: m_AnchorMin.x
      value: 0
      objectReference: {fileID: 0}
    - target: {fileID: 5902134220735164071, guid: c1fc4448ae124e940b3250cf3db2b47f,
        type: 3}
      propertyPath: m_AnchorMin.y
      value: 0.5
      objectReference: {fileID: 0}
    - target: {fileID: 5902134220735164071, guid: c1fc4448ae124e940b3250cf3db2b47f,
        type: 3}
      propertyPath: m_AnchorMax.x
      value: 0
      objectReference: {fileID: 0}
    - target: {fileID: 5902134220735164071, guid: c1fc4448ae124e940b3250cf3db2b47f,
        type: 3}
      propertyPath: m_AnchorMax.y
      value: 0.5
      objectReference: {fileID: 0}
    - target: {fileID: 5902134220735164071, guid: c1fc4448ae124e940b3250cf3db2b47f,
        type: 3}
      propertyPath: m_Pivot.x
      value: 0
      objectReference: {fileID: 0}
    - target: {fileID: 5902134220735164071, guid: c1fc4448ae124e940b3250cf3db2b47f,
        type: 3}
      propertyPath: m_Pivot.y
      value: 0.5
      objectReference: {fileID: 0}
    - target: {fileID: 5902134220735164071, guid: c1fc4448ae124e940b3250cf3db2b47f,
        type: 3}
      propertyPath: m_LocalScale.x
      value: 1
      objectReference: {fileID: 0}
    - target: {fileID: 5902134220735164071, guid: c1fc4448ae124e940b3250cf3db2b47f,
        type: 3}
      propertyPath: m_LocalScale.y
      value: 1
      objectReference: {fileID: 0}
    - target: {fileID: 7893217977024584956, guid: c1fc4448ae124e940b3250cf3db2b47f,
        type: 3}
      propertyPath: m_AnchoredPosition.x
      value: -7.999977
      objectReference: {fileID: 0}
    - target: {fileID: 7209227608630571830, guid: c1fc4448ae124e940b3250cf3db2b47f,
        type: 3}
      propertyPath: m_AnchoredPosition.y
      value: -7.999939
      objectReference: {fileID: 0}
    - target: {fileID: 6079332025265645579, guid: c1fc4448ae124e940b3250cf3db2b47f,
        type: 3}
      propertyPath: m_AnchorMax.x
      value: 0
      objectReference: {fileID: 0}
    - target: {fileID: 6079332025265645579, guid: c1fc4448ae124e940b3250cf3db2b47f,
        type: 3}
      propertyPath: m_AnchorMax.y
      value: 0
      objectReference: {fileID: 0}
    - target: {fileID: 6079332025265645579, guid: c1fc4448ae124e940b3250cf3db2b47f,
        type: 3}
      propertyPath: m_SizeDelta.x
      value: 0
      objectReference: {fileID: 0}
    - target: {fileID: 6079332025265645579, guid: c1fc4448ae124e940b3250cf3db2b47f,
        type: 3}
      propertyPath: m_SizeDelta.y
      value: 0
      objectReference: {fileID: 0}
    - target: {fileID: 6079332025265645579, guid: c1fc4448ae124e940b3250cf3db2b47f,
        type: 3}
      propertyPath: m_LocalScale.x
      value: 1
      objectReference: {fileID: 0}
    - target: {fileID: 6079332025265645579, guid: c1fc4448ae124e940b3250cf3db2b47f,
        type: 3}
      propertyPath: m_LocalScale.y
      value: 1
      objectReference: {fileID: 0}
    - target: {fileID: 6079332025265645579, guid: c1fc4448ae124e940b3250cf3db2b47f,
        type: 3}
      propertyPath: m_LocalRotation.x
      value: -0
      objectReference: {fileID: 0}
    - target: {fileID: 6079332025265645579, guid: c1fc4448ae124e940b3250cf3db2b47f,
        type: 3}
      propertyPath: m_LocalRotation.y
      value: -0
      objectReference: {fileID: 0}
    - target: {fileID: 6079332025265645579, guid: c1fc4448ae124e940b3250cf3db2b47f,
        type: 3}
      propertyPath: m_LocalRotation.z
      value: -0
      objectReference: {fileID: 0}
    - target: {fileID: 6079332025265645579, guid: c1fc4448ae124e940b3250cf3db2b47f,
        type: 3}
      propertyPath: m_LocalRotation.w
      value: 1
      objectReference: {fileID: 0}
    - target: {fileID: 6079332025265645579, guid: c1fc4448ae124e940b3250cf3db2b47f,
        type: 3}
      propertyPath: m_LocalEulerAnglesHint.z
      value: 0
      objectReference: {fileID: 0}
    - target: {fileID: 2560680590240380043, guid: c1fc4448ae124e940b3250cf3db2b47f,
        type: 3}
      propertyPath: m_Sprite
      value: 
      objectReference: {fileID: 21300000, guid: 339337e9850a8f34ca5e767da712d11e,
        type: 3}
    - target: {fileID: 3771007844724866284, guid: c1fc4448ae124e940b3250cf3db2b47f,
        type: 3}
      propertyPath: m_AspectRatio
      value: 2
      objectReference: {fileID: 0}
    m_RemovedComponents:
    - {fileID: 6625459517163348777, guid: c1fc4448ae124e940b3250cf3db2b47f, type: 3}
  m_SourcePrefab: {fileID: 100100000, guid: c1fc4448ae124e940b3250cf3db2b47f, type: 3}
--- !u!1001 &8411888763769003960
PrefabInstance:
  m_ObjectHideFlags: 0
  serializedVersion: 2
  m_Modification:
    m_TransformParent: {fileID: 8801168852542548320}
    m_Modifications:
    - target: {fileID: 8061135759895216377, guid: f706cba9033ccaa43b73863559a3cd8d,
        type: 3}
      propertyPath: m_Name
      value: Button - C - 32x32 - Icon - Back
      objectReference: {fileID: 0}
    - target: {fileID: 4154028339625707863, guid: f706cba9033ccaa43b73863559a3cd8d,
        type: 3}
      propertyPath: m_LocalPosition.x
      value: 0
      objectReference: {fileID: 0}
    - target: {fileID: 4154028339625707863, guid: f706cba9033ccaa43b73863559a3cd8d,
        type: 3}
      propertyPath: m_LocalPosition.y
      value: 0
      objectReference: {fileID: 0}
    - target: {fileID: 4154028339625707863, guid: f706cba9033ccaa43b73863559a3cd8d,
        type: 3}
      propertyPath: m_LocalPosition.z
      value: 0
      objectReference: {fileID: 0}
    - target: {fileID: 4154028339625707863, guid: f706cba9033ccaa43b73863559a3cd8d,
        type: 3}
      propertyPath: m_LocalRotation.x
      value: -0
      objectReference: {fileID: 0}
    - target: {fileID: 4154028339625707863, guid: f706cba9033ccaa43b73863559a3cd8d,
        type: 3}
      propertyPath: m_LocalRotation.y
      value: -0
      objectReference: {fileID: 0}
    - target: {fileID: 4154028339625707863, guid: f706cba9033ccaa43b73863559a3cd8d,
        type: 3}
      propertyPath: m_LocalRotation.z
      value: -0
      objectReference: {fileID: 0}
    - target: {fileID: 4154028339625707863, guid: f706cba9033ccaa43b73863559a3cd8d,
        type: 3}
      propertyPath: m_LocalRotation.w
      value: 1
      objectReference: {fileID: 0}
    - target: {fileID: 4154028339625707863, guid: f706cba9033ccaa43b73863559a3cd8d,
        type: 3}
      propertyPath: m_RootOrder
      value: 0
      objectReference: {fileID: 0}
    - target: {fileID: 4154028339625707863, guid: f706cba9033ccaa43b73863559a3cd8d,
        type: 3}
      propertyPath: m_LocalEulerAnglesHint.x
      value: 0
      objectReference: {fileID: 0}
    - target: {fileID: 4154028339625707863, guid: f706cba9033ccaa43b73863559a3cd8d,
        type: 3}
      propertyPath: m_LocalEulerAnglesHint.y
      value: 0
      objectReference: {fileID: 0}
    - target: {fileID: 4154028339625707863, guid: f706cba9033ccaa43b73863559a3cd8d,
        type: 3}
      propertyPath: m_LocalEulerAnglesHint.z
      value: 0
      objectReference: {fileID: 0}
    - target: {fileID: 4154028339625707863, guid: f706cba9033ccaa43b73863559a3cd8d,
        type: 3}
      propertyPath: m_AnchoredPosition.x
      value: 0
      objectReference: {fileID: 0}
    - target: {fileID: 4154028339625707863, guid: f706cba9033ccaa43b73863559a3cd8d,
        type: 3}
      propertyPath: m_AnchoredPosition.y
      value: 0
      objectReference: {fileID: 0}
    - target: {fileID: 4154028339625707863, guid: f706cba9033ccaa43b73863559a3cd8d,
        type: 3}
      propertyPath: m_SizeDelta.x
      value: 32
      objectReference: {fileID: 0}
    - target: {fileID: 4154028339625707863, guid: f706cba9033ccaa43b73863559a3cd8d,
        type: 3}
      propertyPath: m_SizeDelta.y
      value: 32
      objectReference: {fileID: 0}
    - target: {fileID: 4154028339625707863, guid: f706cba9033ccaa43b73863559a3cd8d,
        type: 3}
      propertyPath: m_AnchorMin.x
      value: 0
      objectReference: {fileID: 0}
    - target: {fileID: 4154028339625707863, guid: f706cba9033ccaa43b73863559a3cd8d,
        type: 3}
      propertyPath: m_AnchorMin.y
      value: 0.5
      objectReference: {fileID: 0}
    - target: {fileID: 4154028339625707863, guid: f706cba9033ccaa43b73863559a3cd8d,
        type: 3}
      propertyPath: m_AnchorMax.x
      value: 0
      objectReference: {fileID: 0}
    - target: {fileID: 4154028339625707863, guid: f706cba9033ccaa43b73863559a3cd8d,
        type: 3}
      propertyPath: m_AnchorMax.y
      value: 0.5
      objectReference: {fileID: 0}
    - target: {fileID: 4154028339625707863, guid: f706cba9033ccaa43b73863559a3cd8d,
        type: 3}
      propertyPath: m_Pivot.x
      value: 0
      objectReference: {fileID: 0}
    - target: {fileID: 4154028339625707863, guid: f706cba9033ccaa43b73863559a3cd8d,
        type: 3}
      propertyPath: m_Pivot.y
      value: 0.5
      objectReference: {fileID: 0}
    - target: {fileID: 5087694194728089296, guid: f706cba9033ccaa43b73863559a3cd8d,
        type: 3}
      propertyPath: m_Sprite
      value: 
      objectReference: {fileID: 21300000, guid: 59de81ae75f656e48aef16e5ea2a0b6f,
        type: 3}
    - target: {fileID: 7036711549217413391, guid: f706cba9033ccaa43b73863559a3cd8d,
        type: 3}
      propertyPath: m_Color.r
      value: 0.17911176
      objectReference: {fileID: 0}
    - target: {fileID: 7036711549217413391, guid: f706cba9033ccaa43b73863559a3cd8d,
        type: 3}
      propertyPath: m_Color.g
      value: 0.19398901
      objectReference: {fileID: 0}
    - target: {fileID: 7036711549217413391, guid: f706cba9033ccaa43b73863559a3cd8d,
        type: 3}
      propertyPath: m_Color.b
      value: 0.21698111
      objectReference: {fileID: 0}
    - target: {fileID: 7036711549217413391, guid: f706cba9033ccaa43b73863559a3cd8d,
        type: 3}
      propertyPath: m_Sprite
      value: 
      objectReference: {fileID: 21300000, guid: 59de81ae75f656e48aef16e5ea2a0b6f,
        type: 3}
    - target: {fileID: 7871448174420969116, guid: f706cba9033ccaa43b73863559a3cd8d,
        type: 3}
      propertyPath: PropertyIdSerializedGuid.Array.data[0]
      value: 129
      objectReference: {fileID: 0}
    - target: {fileID: 7871448174420969116, guid: f706cba9033ccaa43b73863559a3cd8d,
        type: 3}
      propertyPath: PropertyIdSerializedGuid.Array.data[1]
      value: 150
      objectReference: {fileID: 0}
    - target: {fileID: 7871448174420969116, guid: f706cba9033ccaa43b73863559a3cd8d,
        type: 3}
      propertyPath: PropertyIdSerializedGuid.Array.data[2]
      value: 85
      objectReference: {fileID: 0}
    - target: {fileID: 7871448174420969116, guid: f706cba9033ccaa43b73863559a3cd8d,
        type: 3}
      propertyPath: PropertyIdSerializedGuid.Array.data[3]
      value: 20
      objectReference: {fileID: 0}
    - target: {fileID: 7871448174420969116, guid: f706cba9033ccaa43b73863559a3cd8d,
        type: 3}
      propertyPath: PropertyIdSerializedGuid.Array.data[4]
      value: 62
      objectReference: {fileID: 0}
    - target: {fileID: 7871448174420969116, guid: f706cba9033ccaa43b73863559a3cd8d,
        type: 3}
      propertyPath: PropertyIdSerializedGuid.Array.data[5]
      value: 131
      objectReference: {fileID: 0}
    - target: {fileID: 7871448174420969116, guid: f706cba9033ccaa43b73863559a3cd8d,
        type: 3}
      propertyPath: PropertyIdSerializedGuid.Array.data[6]
      value: 236
      objectReference: {fileID: 0}
    - target: {fileID: 7871448174420969116, guid: f706cba9033ccaa43b73863559a3cd8d,
        type: 3}
      propertyPath: PropertyIdSerializedGuid.Array.data[7]
      value: 69
      objectReference: {fileID: 0}
    - target: {fileID: 7871448174420969116, guid: f706cba9033ccaa43b73863559a3cd8d,
        type: 3}
      propertyPath: PropertyIdSerializedGuid.Array.data[8]
      value: 162
      objectReference: {fileID: 0}
    - target: {fileID: 7871448174420969116, guid: f706cba9033ccaa43b73863559a3cd8d,
        type: 3}
      propertyPath: PropertyIdSerializedGuid.Array.data[9]
      value: 61
      objectReference: {fileID: 0}
    - target: {fileID: 7871448174420969116, guid: f706cba9033ccaa43b73863559a3cd8d,
        type: 3}
      propertyPath: PropertyIdSerializedGuid.Array.data[10]
      value: 103
      objectReference: {fileID: 0}
    - target: {fileID: 7871448174420969116, guid: f706cba9033ccaa43b73863559a3cd8d,
        type: 3}
      propertyPath: PropertyIdSerializedGuid.Array.data[11]
      value: 46
      objectReference: {fileID: 0}
    - target: {fileID: 7871448174420969116, guid: f706cba9033ccaa43b73863559a3cd8d,
        type: 3}
      propertyPath: PropertyIdSerializedGuid.Array.data[12]
      value: 232
      objectReference: {fileID: 0}
    - target: {fileID: 7871448174420969116, guid: f706cba9033ccaa43b73863559a3cd8d,
        type: 3}
      propertyPath: PropertyIdSerializedGuid.Array.data[13]
      value: 17
      objectReference: {fileID: 0}
    - target: {fileID: 7871448174420969116, guid: f706cba9033ccaa43b73863559a3cd8d,
        type: 3}
      propertyPath: PropertyIdSerializedGuid.Array.data[14]
      value: 102
      objectReference: {fileID: 0}
    - target: {fileID: 7871448174420969116, guid: f706cba9033ccaa43b73863559a3cd8d,
        type: 3}
      propertyPath: PropertyIdSerializedGuid.Array.data[15]
      value: 116
      objectReference: {fileID: 0}
    m_RemovedComponents: []
  m_SourcePrefab: {fileID: 100100000, guid: f706cba9033ccaa43b73863559a3cd8d, type: 3}
--- !u!224 &5556063733031556847 stripped
RectTransform:
  m_CorrespondingSourceObject: {fileID: 4154028339625707863, guid: f706cba9033ccaa43b73863559a3cd8d,
    type: 3}
  m_PrefabInstance: {fileID: 8411888763769003960}
  m_PrefabAsset: {fileID: 0}
